Data/acq0045.csv

#Digilent WaveForms Oscilloscope Acquisition
#Device Name: Discovery2
#Serial Number: SN:210321B282B2
#Date Time: 2026-05-13 12:40:49.055
#Sample rate: 16000Hz
#Samples: 3200
#Trigger: Source: Channel 1 Type: Edge Condition: Rising Level: 500 mV Hyst.: 5 mV HoldOff: 0 s
#Channel 1: Range: 1 V/div Offset: 0 V Sample Mode: Average

Time (s),Channel 1 (V)
-0.017735745614035084,0.008208676094531884
-0.017673245614035077,0.008208676094531884
-0.017610745614035084,0.008208676094531884
-0.017548245614035077,0.008208676094531884
-0.017485745614035084,0.008208676094531884
-0.017423245614035077,0.008208676094531884
-0.017360745614035084,0.008208676094531884
-0.017298245614035077,0.008208676094531884
-0.017235745614035083,0.004519930486347622
-0.017173245614035076,0.004519930486347622
-0.017110745614035083,0.008208676094531884
-0.017048245614035076,0.004519930486347622
-0.016985745614035083,0.008208676094531884
-0.016923245614035076,0.008208676094531884
-0.016860745614035083,0.008208676094531884
-0.016798245614035076,0.008208676094531884
-0.016735745614035083,0.004519930486347622
-0.016673245614035076,0.008208676094531884
-0.016610745614035083,0.008208676094531884
-0.016548245614035076,0.004519930486347622
-0.016485745614035083,0.008208676094531884
-0.016423245614035076,0.008208676094531884
-0.016360745614035083,0.004519930486347622
-0.016298245614035076,0.008208676094531884
-0.016235745614035083,0.004519930486347622
-0.016173245614035076,0.004519930486347622
-0.016110745614035082,0.008208676094531884
-0.016048245614035075,0.004519930486347622
-0.015985745614035082,0.004519930486347622
-0.015923245614035075,0.004519930486347622
-0.015860745614035082,0.004519930486347622
-0.015798245614035075,0.008208676094531884
-0.015735745614035082,0.004519930486347622
-0.015673245614035075,0.004519930486347622
-0.015610745614035082,0.004519930486347622
-0.015548245614035075,0.004519930486347622
-0.015485745614035082,0.004519930486347622
-0.015423245614035075,0.008208676094531884
-0.015360745614035082,0.004519930486347622
-0.015298245614035075,0.004519930486347622
-0.015235745614035082,0.004519930486347622
-0.015173245614035075,0.004519930486347622
-0.015110745614035082,0.004519930486347622
-0.015048245614035075,0.004519930486347622
-0.014985745614035081,0.004519930486347622
-0.014923245614035074,0.004519930486347622
-0.014860745614035081,0.004519930486347622
-0.014798245614035074,0.004519930486347622
-0.014735745614035081,0.004519930486347622
-0.014673245614035074,0.004519930486347622
-0.014610745614035081,0.004519930486347622
-0.014548245614035074,0.004519930486347622
-0.014485745614035081,0.004519930486347622
-0.014423245614035074,0.004519930486347622
-0.014360745614035081,0.008208676094531884
-0.014298245614035074,0.004519930486347622
-0.01423574561403508,0.004519930486347622
-0.014173245614035074,0.008208676094531884
-0.01411074561403508,0.008208676094531884
-0.014048245614035074,0.004519930486347622
-0.01398574561403508,0.004519930486347622
-0.013923245614035074,0.004519930486347622
-0.01386074561403508,0.008208676094531884
-0.013798245614035073,0.004519930486347622
-0.01373574561403508,0.004519930486347622
-0.013673245614035073,0.004519930486347622
-0.01361074561403508,0.004519930486347622
-0.013548245614035073,0.004519930486347622
-0.01348574561403508,0.004519930486347622
-0.013423245614035073,0.004519930486347622
-0.01336074561403508,0.004519930486347622
-0.013298245614035073,0.004519930486347622
-0.01323574561403508,0.004519930486347622
-0.013173245614035073,0.004519930486347622
-0.01311074561403508,0.004519930486347622
-0.013048245614035073,0.004519930486347622
-0.01298574561403508,0.008208676094531884
-0.012923245614035073,0.004519930486347622
-0.01286074561403508,0.008208676094531884
-0.012798245614035073,0.004519930486347622
-0.01273574561403508,0.004519930486347622
-0.012673245614035072,0.004519930486347622
-0.01261074561403508,0.004519930486347622
-0.012548245614035072,0.004519930486347622
-0.01248574561403508,0.004519930486347622
-0.012423245614035072,0.008208676094531884
-0.012360745614035079,0.008208676094531884
-0.012298245614035072,0.004519930486347622
-0.012235745614035079,0.008208676094531884
-0.012173245614035072,0.008208676094531884
-0.012110745614035079,0.004519930486347622
-0.012048245614035072,0.008208676094531884
-0.011985745614035079,0.004519930486347622
-0.011923245614035072,0.008208676094531884
-0.011860745614035079,0.008208676094531884
-0.011798245614035072,0.004519930486347622
-0.011735745614035079,0.004519930486347622
-0.011673245614035072,0.004519930486347622
-0.011610745614035078,0.008208676094531884
-0.011548245614035071,0.004519930486347622
-0.011485745614035078,0.008208676094531884
-0.011423245614035085,0.008208676094531884
-0.011360745614035078,0.008208676094531884
-0.011298245614035085,0.008208676094531884
-0.011235745614035078,0.008208676094531884
-0.011173245614035085,0.008208676094531884
-0.011110745614035078,0.008208676094531884
-0.011048245614035085,0.008208676094531884
-0.010985745614035078,0.008208676094531884
-0.010923245614035085,0.008208676094531884
-0.010860745614035078,0.008208676094531884
-0.010798245614035085,0.008208676094531884
-0.010735745614035078,0.008208676094531884
-0.010673245614035085,0.008208676094531884
-0.010610745614035078,0.004519930486347622
-0.010548245614035084,0.008208676094531884
-0.010485745614035077,0.008208676094531884
-0.010423245614035084,0.008208676094531884
-0.010360745614035077,0.008208676094531884
-0.010298245614035084,0.004519930486347622
-0.010235745614035077,0.008208676094531884
-0.010173245614035084,0.008208676094531884
-0.010110745614035077,0.008208676094531884
-0.010048245614035084,0.008208676094531884
-0.009985745614035077,0.008208676094531884
-0.009923245614035084,0.008208676094531884
-0.009860745614035077,0.008208676094531884
-0.009798245614035084,0.008208676094531884
-0.009735745614035077,0.008208676094531884
-0.009673245614035084,0.008208676094531884
-0.009610745614035077,0.008208676094531884
-0.009548245614035084,0.011897421702716147
-0.009485745614035077,0.008208676094531884
-0.009423245614035083,0.008208676094531884
-0.009360745614035076,0.008208676094531884
-0.009298245614035083,0.008208676094531884
-0.009235745614035076,0.008208676094531884
-0.009173245614035083,0.008208676094531884
-0.009110745614035076,0.008208676094531884
-0.009048245614035083,0.008208676094531884
-0.008985745614035076,0.011897421702716147
-0.008923245614035083,0.011897421702716147
-0.008860745614035076,0.008208676094531884
-0.008798245614035083,0.008208676094531884
-0.008735745614035076,0.008208676094531884
-0.008673245614035083,0.008208676094531884
-0.008610745614035076,0.011897421702716147
-0.008548245614035083,0.011897421702716147
-0.008485745614035076,0.008208676094531884
-0.008423245614035083,0.008208676094531884
-0.008360745614035076,0.008208676094531884
-0.008298245614035082,0.008208676094531884
-0.008235745614035075,0.008208676094531884
-0.008173245614035082,0.011897421702716147
-0.008110745614035075,0.008208676094531884
-0.008048245614035082,0.011897421702716147
-0.007985745614035075,0.011897421702716147
-0.007923245614035082,0.008208676094531884
-0.007860745614035075,0.008208676094531884
-0.007798245614035082,0.008208676094531884
-0.007735745614035075,0.008208676094531884
-0.007673245614035082,0.008208676094531884
-0.007610745614035075,0.011897421702716147
-0.007548245614035082,0.008208676094531884
-0.007485745614035075,0.008208676094531884
-0.007423245614035082,0.008208676094531884
-0.007360745614035075,0.011897421702716147
-0.0072982456140350815,0.011897421702716147
-0.0072357456140350745,0.008208676094531884
-0.007173245614035081,0.011897421702716147
-0.0071107456140350744,0.008208676094531884
-0.007048245614035081,0.011897421702716147
-0.006985745614035074,0.011897421702716147
-0.006923245614035081,0.011897421702716147
-0.006860745614035074,0.008208676094531884
-0.006798245614035081,0.008208676094531884
-0.006735745614035074,0.008208676094531884
-0.006673245614035081,0.008208676094531884
-0.006610745614035074,0.008208676094531884
-0.006548245614035081,0.008208676094531884
-0.006485745614035074,0.008208676094531884
-0.006423245614035081,0.008208676094531884
-0.006360745614035074,0.008208676094531884
-0.006298245614035081,0.008208676094531884
-0.006235745614035074,0.008208676094531884
-0.0061732456140350805,0.008208676094531884
-0.0061107456140350735,0.008208676094531884
-0.00604824561403508,0.008208676094531884
-0.0059857456140350734,0.008208676094531884
-0.00592324561403508,0.008208676094531884
-0.005860745614035073,0.008208676094531884
-0.00579824561403508,0.008208676094531884
-0.005735745614035073,0.008208676094531884
-0.00567324561403508,0.008208676094531884
-0.005610745614035073,0.008208676094531884
-0.00554824561403508,0.008208676094531884
-0.005485745614035073,0.008208676094531884
-0.00542324561403508,0.008208676094531884
-0.005360745614035073,0.008208676094531884
-0.00529824561403508,0.008208676094531884
-0.005235745614035073,0.008208676094531884
-0.00517324561403508,0.008208676094531884
-0.005110745614035073,0.008208676094531884
-0.0050482456140350795,0.008208676094531884
-0.0049857456140350725,0.011897421702716147
-0.004923245614035079,0.008208676094531884
-0.0048607456140350724,0.008208676094531884
-0.004798245614035079,0.008208676094531884
-0.004735745614035072,0.008208676094531884
-0.004673245614035079,0.008208676094531884
-0.004610745614035072,0.008208676094531884
-0.004548245614035079,0.008208676094531884
-0.004485745614035072,0.008208676094531884
-0.004423245614035079,0.008208676094531884
-0.004360745614035072,0.008208676094531884
-0.004298245614035079,0.008208676094531884
-0.004235745614035072,0.008208676094531884
-0.004173245614035079,0.008208676094531884
-0.004110745614035072,0.008208676094531884
-0.004048245614035079,0.008208676094531884
-0.003985745614035072,0.008208676094531884
-0.0039232456140350785,0.008208676094531884
-0.0038607456140350715,0.008208676094531884
-0.0037982456140350784,0.008208676094531884
-0.0037357456140350714,0.008208676094531884
-0.0036732456140350783,0.008208676094531884
-0.003610745614035085,0.008208676094531884
-0.003548245614035078,0.008208676094531884
-0.003485745614035085,0.011897421702716147
-0.003423245614035078,0.008208676094531884
-0.003360745614035085,0.008208676094531884
-0.003298245614035078,0.008208676094531884
-0.003235745614035085,0.008208676094531884
-0.003173245614035078,0.008208676094531884
-0.0031107456140350848,0.008208676094531884
-0.0030482456140350778,0.008208676094531884
-0.0029857456140350846,0.008208676094531884
-0.0029232456140350777,0.008208676094531884
-0.0028607456140350845,0.008208676094531884
-0.0027982456140350775,0.008208676094531884
-0.0027357456140350844,0.008208676094531884
-0.0026732456140350774,0.008208676094531884
-0.0026107456140350843,0.008208676094531884
-0.0025482456140350773,0.008208676094531884
-0.002485745614035084,0.008208676094531884
-0.002423245614035077,0.008208676094531884
-0.002360745614035084,0.008208676094531884
-0.002298245614035077,0.008208676094531884
-0.002235745614035084,0.008208676094531884
-0.002173245614035077,0.008208676094531884
-0.002110745614035084,0.008208676094531884
-0.002048245614035077,0.008208676094531884
-0.0019857456140350838,0.008208676094531884
-0.0019232456140350768,0.008208676094531884
-0.0018607456140350837,0.008208676094531884
-0.0017982456140350767,0.008208676094531884
-0.0017357456140350835,0.008208676094531884
-0.0016732456140350765,0.008208676094531884
-0.0016107456140350834,0.008208676094531884
-0.0015482456140350764,0.008208676094531884
-0.0014857456140350833,0.008208676094531884
-0.0014232456140350763,0.008208676094531884
-0.0013607456140350832,0.008208676094531884
-0.0012982456140350762,0.008208676094531884
-0.001235745614035083,0.008208676094531884
-0.001173245614035076,0.008208676094531884
-0.001110745614035083,0.008208676094531884
-0.001048245614035076,0.008208676094531884
-0.0009857456140350829,0.008208676094531884
-0.0009232456140350759,0.008208676094531884
-0.0008607456140350828,0.008208676094531884
-0.0007982456140350758,0.008208676094531884
-0.0007357456140350827,0.008208676094531884
-0.0006732456140350757,0.008208676094531884
-0.0006107456140350825,0.008208676094531884
-0.0005482456140350755,0.008208676094531884
-0.00048574561403508243,0.008208676094531884
-0.00042324561403507543,0.008208676094531884
-0.0003607456140350823,0.011897421702716147
-0.0002982456140350753,0.011897421702716147
-0.0002357456140350822,0.01558616731090041
-0.0001732456140350752,0.01558616731090041
-0.0001107456140350821,0.01558616731090041
-4.82456140350751e-05,0.01558616731090041
1.4254385964918015e-05,0.6463616663104093
7.675438596492501e-05,3.3502121971094736
0.00013925438596491813,3.3243909778521834
0.00020175438596492512,3.3207022322439994
0.00026425438596491824,3.3207022322439994
0.00032675438596492523,3.3207022322439994
0.00038925438596491835,3.3207022322439994
0.00045175438596492534,3.3207022322439994
0.0005142543859649185,3.3207022322439994
0.0005767543859649255,3.3207022322439994
0.0006392543859649186,3.3207022322439994
0.0007017543859649256,3.3207022322439994
0.0007642543859649187,3.3207022322439994
0.0008267543859649257,3.3207022322439994
0.0008892543859649188,3.3207022322439994
0.0009517543859649258,3.3207022322439994
0.001014254385964919,3.3207022322439994
0.001076754385964926,3.3207022322439994
0.001139254385964919,3.3207022322439994
0.001201754385964926,3.3207022322439994
0.0012642543859649191,3.3207022322439994
0.0013267543859649261,3.3207022322439994
0.0013892543859649192,3.3207022322439994
0.0014517543859649262,3.3207022322439994
0.0015142543859649193,3.3207022322439994
0.0015767543859649263,3.3207022322439994
0.0016392543859649195,3.3207022322439994
0.0017017543859649265,3.3207022322439994
0.0017642543859649196,3.3207022322439994
0.0018267543859649266,3.3207022322439994
0.0018892543859649197,3.3207022322439994
0.0019517543859649267,3.3207022322439994
0.00201425438596492,3.3207022322439994
0.002076754385964927,3.3207022322439994
0.00213925438596492,3.3207022322439994
0.002201754385964927,3.3207022322439994
0.00226425438596492,3.3207022322439994
0.002326754385964927,3.3207022322439994
0.00238925438596492,3.3207022322439994
0.002451754385964927,3.3207022322439994
0.0025142543859649202,3.3207022322439994
0.0025767543859649272,3.3207022322439994
0.0026392543859649203,3.3207022322439994
0.0027017543859649273,3.3207022322439994
0.0027642543859649205,3.3207022322439994
0.0028267543859649275,3.3207022322439994
0.0028892543859649206,3.3207022322439994
0.0029517543859649276,3.3207022322439994
0.0030142543859649207,3.3207022322439994
0.0030767543859649277,3.3207022322439994
0.003139254385964921,3.3207022322439994
0.003201754385964928,3.3207022322439994
0.003264254385964921,3.3207022322439994
0.003326754385964928,3.3207022322439994
0.003389254385964921,3.3207022322439994
0.003451754385964928,3.3207022322439994
0.003514254385964921,3.3207022322439994
0.003576754385964928,3.3207022322439994
0.0036392543859649212,3.3207022322439994
0.0037017543859649282,3.3207022322439994
0.0037642543859649213,3.3207022322439994
0.0038267543859649283,3.3207022322439994
0.0038892543859649215,3.3207022322439994
0.0039517543859649285,3.3207022322439994
0.004014254385964922,3.317013486635815
0.0040767543859649286,3.3207022322439994
0.004139254385964922,3.317013486635815
0.004201754385964915,3.3207022322439994
0.004264254385964922,3.3207022322439994
0.004326754385964915,3.3207022322439994
0.004389254385964922,3.3207022322439994
0.004451754385964915,3.317013486635815
0.004514254385964922,3.3207022322439994
0.004576754385964915,3.3207022322439994
0.004639254385964922,3.3207022322439994
0.004701754385964915,3.3207022322439994
0.004764254385964922,3.3207022322439994
0.004826754385964915,3.3207022322439994
0.004889254385964922,3.3207022322439994
0.0049517543859649155,3.3207022322439994
0.0050142543859649225,3.3207022322439994
0.005076754385964916,3.3207022322439994
0.005139254385964923,3.3207022322439994
0.005201754385964916,3.3207022322439994
0.005264254385964923,3.317013486635815
0.005326754385964916,3.3207022322439994
0.005389254385964923,3.3207022322439994
0.005451754385964916,3.3207022322439994
0.005514254385964923,3.3207022322439994
0.005576754385964916,3.3207022322439994
0.005639254385964923,3.3207022322439994
0.005701754385964916,3.3207022322439994
0.005764254385964923,3.3207022322439994
0.005826754385964916,3.3207022322439994
0.005889254385964923,3.3207022322439994
0.005951754385964916,3.3207022322439994
0.006014254385964923,3.3207022322439994
0.0060767543859649165,3.3207022322439994
0.0061392543859649235,3.3207022322439994
0.006201754385964917,3.3207022322439994
0.0062642543859649236,3.3207022322439994
0.006326754385964917,3.3207022322439994
0.006389254385964924,3.3207022322439994
0.006451754385964917,3.3207022322439994
0.006514254385964924,3.3207022322439994
0.006576754385964917,3.3207022322439994
0.006639254385964924,3.3207022322439994
0.006701754385964917,3.3207022322439994
0.006764254385964924,3.3207022322439994
0.006826754385964917,3.3207022322439994
0.006889254385964924,3.3207022322439994
0.006951754385964917,3.3207022322439994
0.007014254385964924,3.3207022322439994
0.007076754385964917,3.317013486635815
0.007139254385964924,3.3207022322439994
0.0072017543859649175,3.3207022322439994
0.0072642543859649245,3.3207022322439994
0.007326754385964918,3.3207022322439994
0.0073892543859649246,3.3207022322439994
0.007451754385964918,3.3207022322439994
0.007514254385964925,3.3207022322439994
0.007576754385964918,3.3207022322439994
0.007639254385964925,3.3207022322439994
0.007701754385964918,3.3207022322439994
0.007764254385964925,3.3207022322439994
0.007826754385964918,3.3207022322439994
0.007889254385964925,3.3207022322439994
0.007951754385964918,3.3207022322439994
0.008014254385964925,3.3207022322439994
0.008076754385964918,3.3207022322439994
0.008139254385964925,3.3207022322439994
0.008201754385964918,3.3207022322439994
0.008264254385964925,3.3207022322439994
0.008326754385964918,3.3207022322439994
0.008389254385964925,3.3207022322439994
0.008451754385964919,3.3207022322439994
0.008514254385964926,3.3207022322439994
0.008576754385964919,3.3207022322439994
0.008639254385964926,3.317013486635815
0.008701754385964919,3.3207022322439994
0.008764254385964926,3.3207022322439994
0.008826754385964919,3.3207022322439994
0.008889254385964926,3.3207022322439994
0.008951754385964919,3.3207022322439994
0.009014254385964926,3.3207022322439994
0.009076754385964919,3.317013486635815
0.009139254385964926,3.3207022322439994
0.00920175438596492,3.3207022322439994
0.009264254385964926,3.3207022322439994
0.00932675438596492,3.3207022322439994
0.009389254385964926,3.317013486635815
0.00945175438596492,3.3207022322439994
0.009514254385964926,3.3207022322439994
0.00957675438596492,3.3207022322439994
0.009639254385964927,3.317013486635815
0.00970175438596492,3.3207022322439994
0.009764254385964927,3.3207022322439994
0.00982675438596492,3.3207022322439994
0.009889254385964927,3.3207022322439994
0.00995175438596492,3.3207022322439994
0.010014254385964927,3.3207022322439994
0.01007675438596492,3.3207022322439994
0.010139254385964927,3.3207022322439994
0.01020175438596492,3.3207022322439994
0.010264254385964927,3.3207022322439994
0.01032675438596492,3.3207022322439994
0.010389254385964927,3.3207022322439994
0.01045175438596492,3.3207022322439994
0.010514254385964927,3.3207022322439994
0.01057675438596492,3.3207022322439994
0.010639254385964927,3.3207022322439994
0.01070175438596492,3.3207022322439994
0.010764254385964928,3.3207022322439994
0.01082675438596492,3.3207022322439994
0.010889254385964928,3.3207022322439994
0.01095175438596492,3.3207022322439994
0.011014254385964928,3.3207022322439994
0.011076754385964921,3.3207022322439994
0.011139254385964928,3.3207022322439994
0.011201754385964921,3.3207022322439994
0.011264254385964928,3.3207022322439994
0.011326754385964921,3.3207022322439994
0.011389254385964928,3.3207022322439994
0.011451754385964921,3.3207022322439994
