Data/acq0062.csv

#Digilent WaveForms Oscilloscope Acquisition
#Device Name: Discovery2
#Serial Number: SN:210321B282B2
#Date Time: 2026-05-13 12:40:53.661
#Sample rate: 16000Hz
#Samples: 3200
#Trigger: Source: Channel 1 Type: Edge Condition: Rising Level: 500 mV Hyst.: 5 mV HoldOff: 0 s
#Channel 1: Range: 1 V/div Offset: 0 V Sample Mode: Average

Time (s),Channel 1 (V)
-0.017703488372093026,0.008208676094531884
-0.01764098837209302,0.008208676094531884
-0.017578488372093026,0.008208676094531884
-0.01751598837209302,0.008208676094531884
-0.017453488372093026,0.008208676094531884
-0.01739098837209302,0.008208676094531884
-0.017328488372093026,0.008208676094531884
-0.01726598837209302,0.008208676094531884
-0.017203488372093026,0.008208676094531884
-0.01714098837209302,0.008208676094531884
-0.017078488372093026,0.011897421702716147
-0.01701598837209302,0.008208676094531884
-0.016953488372093026,0.008208676094531884
-0.01689098837209302,0.008208676094531884
-0.016828488372093026,0.008208676094531884
-0.01676598837209302,0.008208676094531884
-0.016703488372093026,0.008208676094531884
-0.01664098837209302,0.008208676094531884
-0.016578488372093025,0.008208676094531884
-0.01651598837209302,0.008208676094531884
-0.016453488372093025,0.008208676094531884
-0.01639098837209302,0.008208676094531884
-0.016328488372093025,0.008208676094531884
-0.016265988372093018,0.011897421702716147
-0.016203488372093025,0.008208676094531884
-0.016140988372093018,0.008208676094531884
-0.016078488372093025,0.008208676094531884
-0.016015988372093018,0.008208676094531884
-0.015953488372093025,0.008208676094531884
-0.015890988372093018,0.008208676094531884
-0.015828488372093025,0.008208676094531884
-0.015765988372093018,0.008208676094531884
-0.015703488372093025,0.008208676094531884
-0.015640988372093018,0.008208676094531884
-0.015578488372093025,0.008208676094531884
-0.015515988372093018,0.008208676094531884
-0.015453488372093024,0.008208676094531884
-0.015390988372093017,0.008208676094531884
-0.015328488372093024,0.008208676094531884
-0.015265988372093017,0.008208676094531884
-0.015203488372093024,0.008208676094531884
-0.015140988372093017,0.008208676094531884
-0.015078488372093024,0.008208676094531884
-0.015015988372093017,0.008208676094531884
-0.014953488372093024,0.008208676094531884
-0.014890988372093017,0.008208676094531884
-0.014828488372093024,0.008208676094531884
-0.014765988372093017,0.008208676094531884
-0.014703488372093024,0.008208676094531884
-0.014640988372093017,0.008208676094531884
-0.014578488372093024,0.008208676094531884
-0.014515988372093017,0.008208676094531884
-0.014453488372093024,0.008208676094531884
-0.014390988372093017,0.008208676094531884
-0.014328488372093023,0.008208676094531884
-0.014265988372093016,0.008208676094531884
-0.014203488372093023,0.008208676094531884
-0.014140988372093016,0.008208676094531884
-0.014078488372093023,0.008208676094531884
-0.014015988372093016,0.008208676094531884
-0.013953488372093023,0.008208676094531884
-0.013890988372093016,0.008208676094531884
-0.013828488372093023,0.008208676094531884
-0.013765988372093016,0.008208676094531884
-0.013703488372093023,0.008208676094531884
-0.013640988372093016,0.011897421702716147
-0.013578488372093023,0.008208676094531884
-0.013515988372093016,0.008208676094531884
-0.013453488372093023,0.011897421702716147
-0.013390988372093016,0.008208676094531884
-0.013328488372093023,0.011897421702716147
-0.013265988372093016,0.011897421702716147
-0.013203488372093022,0.011897421702716147
-0.013140988372093015,0.011897421702716147
-0.013078488372093022,0.011897421702716147
-0.013015988372093015,0.008208676094531884
-0.012953488372093022,0.008208676094531884
-0.012890988372093015,0.011897421702716147
-0.012828488372093022,0.011897421702716147
-0.012765988372093015,0.008208676094531884
-0.012703488372093022,0.008208676094531884
-0.012640988372093015,0.008208676094531884
-0.012578488372093022,0.011897421702716147
-0.012515988372093015,0.011897421702716147
-0.012453488372093022,0.011897421702716147
-0.012390988372093015,0.011897421702716147
-0.012328488372093022,0.011897421702716147
-0.012265988372093015,0.008208676094531884
-0.012203488372093022,0.011897421702716147
-0.012140988372093015,0.008208676094531884
-0.012078488372093021,0.008208676094531884
-0.012015988372093014,0.008208676094531884
-0.011953488372093021,0.008208676094531884
-0.011890988372093014,0.011897421702716147
-0.011828488372093021,0.011897421702716147
-0.011765988372093014,0.011897421702716147
-0.011703488372093021,0.008208676094531884
-0.011640988372093014,0.008208676094531884
-0.011578488372093021,0.008208676094531884
-0.011515988372093014,0.008208676094531884
-0.01145348837209302,0.011897421702716147
-0.011390988372093028,0.008208676094531884
-0.01132848837209302,0.008208676094531884
-0.011265988372093028,0.008208676094531884
-0.01120348837209302,0.008208676094531884
-0.011140988372093028,0.008208676094531884
-0.01107848837209302,0.008208676094531884
-0.011015988372093027,0.008208676094531884
-0.01095348837209302,0.008208676094531884
-0.010890988372093027,0.008208676094531884
-0.01082848837209302,0.008208676094531884
-0.010765988372093027,0.008208676094531884
-0.01070348837209302,0.008208676094531884
-0.010640988372093027,0.008208676094531884
-0.01057848837209302,0.008208676094531884
-0.010515988372093027,0.008208676094531884
-0.01045348837209302,0.008208676094531884
-0.010390988372093027,0.008208676094531884
-0.01032848837209302,0.008208676094531884
-0.010265988372093027,0.008208676094531884
-0.01020348837209302,0.008208676094531884
-0.010140988372093027,0.008208676094531884
-0.01007848837209302,0.008208676094531884
-0.010015988372093027,0.008208676094531884
-0.00995348837209302,0.008208676094531884
-0.009890988372093026,0.008208676094531884
-0.00982848837209302,0.008208676094531884
-0.009765988372093026,0.008208676094531884
-0.00970348837209302,0.008208676094531884
-0.009640988372093026,0.008208676094531884
-0.00957848837209302,0.008208676094531884
-0.009515988372093026,0.008208676094531884
-0.009453488372093019,0.008208676094531884
-0.009390988372093026,0.008208676094531884
-0.009328488372093019,0.008208676094531884
-0.009265988372093026,0.008208676094531884
-0.009203488372093019,0.008208676094531884
-0.009140988372093026,0.008208676094531884
-0.009078488372093019,0.008208676094531884
-0.009015988372093026,0.008208676094531884
-0.008953488372093019,0.008208676094531884
-0.008890988372093026,0.008208676094531884
-0.008828488372093019,0.008208676094531884
-0.008765988372093025,0.008208676094531884
-0.008703488372093018,0.008208676094531884
-0.008640988372093025,0.008208676094531884
-0.008578488372093018,0.008208676094531884
-0.008515988372093025,0.008208676094531884
-0.008453488372093018,0.008208676094531884
-0.008390988372093025,0.008208676094531884
-0.008328488372093018,0.008208676094531884
-0.008265988372093025,0.008208676094531884
-0.008203488372093018,0.008208676094531884
-0.008140988372093025,0.008208676094531884
-0.008078488372093018,0.008208676094531884
-0.008015988372093025,0.008208676094531884
-0.007953488372093018,0.008208676094531884
-0.007890988372093025,0.008208676094531884
-0.007828488372093018,0.008208676094531884
-0.0077659883720930245,0.008208676094531884
-0.0077034883720930175,0.008208676094531884
-0.007640988372093024,0.008208676094531884
-0.007578488372093017,0.008208676094531884
-0.007515988372093024,0.008208676094531884
-0.007453488372093017,0.008208676094531884
-0.007390988372093024,0.008208676094531884
-0.007328488372093017,0.008208676094531884
-0.007265988372093024,0.008208676094531884
-0.007203488372093017,0.008208676094531884
-0.007140988372093024,0.008208676094531884
-0.007078488372093017,0.008208676094531884
-0.007015988372093024,0.008208676094531884
-0.006953488372093017,0.008208676094531884
-0.006890988372093024,0.008208676094531884
-0.006828488372093017,0.008208676094531884
-0.006765988372093024,0.008208676094531884
-0.006703488372093017,0.008208676094531884
-0.0066409883720930235,0.008208676094531884
-0.0065784883720930165,0.008208676094531884
-0.006515988372093023,0.008208676094531884
-0.006453488372093016,0.008208676094531884
-0.006390988372093023,0.008208676094531884
-0.006328488372093016,0.008208676094531884
-0.006265988372093023,0.008208676094531884
-0.006203488372093016,0.008208676094531884
-0.006140988372093023,0.008208676094531884
-0.006078488372093016,0.008208676094531884
-0.006015988372093023,0.008208676094531884
-0.005953488372093016,0.008208676094531884
-0.005890988372093023,0.008208676094531884
-0.005828488372093016,0.008208676094531884
-0.005765988372093023,0.008208676094531884
-0.005703488372093016,0.008208676094531884
-0.005640988372093023,0.008208676094531884
-0.005578488372093016,0.008208676094531884
-0.0055159883720930225,0.008208676094531884
-0.0054534883720930155,0.008208676094531884
-0.005390988372093022,0.008208676094531884
-0.005328488372093015,0.008208676094531884
-0.005265988372093022,0.008208676094531884
-0.005203488372093015,0.008208676094531884
-0.005140988372093022,0.008208676094531884
-0.005078488372093015,0.008208676094531884
-0.005015988372093022,0.008208676094531884
-0.004953488372093015,0.008208676094531884
-0.004890988372093022,0.008208676094531884
-0.004828488372093015,0.008208676094531884
-0.004765988372093022,0.008208676094531884
-0.004703488372093015,0.008208676094531884
-0.004640988372093022,0.008208676094531884
-0.004578488372093015,0.008208676094531884
-0.004515988372093022,0.008208676094531884
-0.004453488372093015,0.008208676094531884
-0.0043909883720930215,0.008208676094531884
-0.0043284883720930145,0.008208676094531884
-0.004265988372093021,0.008208676094531884
-0.004203488372093014,0.008208676094531884
-0.004140988372093021,0.008208676094531884
-0.004078488372093014,0.008208676094531884
-0.004015988372093021,0.008208676094531884
-0.003953488372093014,0.008208676094531884
-0.003890988372093021,0.008208676094531884
-0.003828488372093014,0.008208676094531884
-0.003765988372093021,0.008208676094531884
-0.003703488372093014,0.004519930486347622
-0.003640988372093021,0.004519930486347622
-0.0035784883720930277,0.004519930486347622
-0.0035159883720930207,0.008208676094531884
-0.0034534883720930276,0.008208676094531884
-0.0033909883720930206,0.008208676094531884
-0.0033284883720930275,0.008208676094531884
-0.0032659883720930205,0.008208676094531884
-0.0032034883720930274,0.008208676094531884
-0.0031409883720930204,0.008208676094531884
-0.0030784883720930273,0.008208676094531884
-0.0030159883720930203,0.008208676094531884
-0.002953488372093027,0.008208676094531884
-0.00289098837209302,0.008208676094531884
-0.002828488372093027,0.008208676094531884
-0.00276598837209302,0.008208676094531884
-0.002703488372093027,0.008208676094531884
-0.00264098837209302,0.008208676094531884
-0.002578488372093027,0.008208676094531884
-0.00251598837209302,0.004519930486347622
-0.0024534883720930267,0.008208676094531884
-0.0023909883720930197,0.008208676094531884
-0.0023284883720930266,0.008208676094531884
-0.0022659883720930196,0.008208676094531884
-0.0022034883720930265,0.008208676094531884
-0.0021409883720930195,0.008208676094531884
-0.0020784883720930264,0.008208676094531884
-0.0020159883720930194,0.008208676094531884
-0.0019534883720930263,0.008208676094531884
-0.0018909883720930193,0.008208676094531884
-0.0018284883720930262,0.008208676094531884
-0.0017659883720930192,0.008208676094531884
-0.001703488372093026,0.004519930486347622
-0.001640988372093019,0.008208676094531884
-0.001578488372093026,0.008208676094531884
-0.001515988372093019,0.004519930486347622
-0.0014534883720930258,0.008208676094531884
-0.0013909883720930188,0.008208676094531884
-0.0013284883720930257,0.008208676094531884
-0.0012659883720930187,0.008208676094531884
-0.0012034883720930256,0.008208676094531884
-0.0011409883720930186,0.008208676094531884
-0.0010784883720930255,0.008208676094531884
-0.0010159883720930185,0.008208676094531884
-0.0009534883720930254,0.008208676094531884
-0.0008909883720930184,0.008208676094531884
-0.0008284883720930253,0.008208676094531884
-0.0007659883720930183,0.008208676094531884
-0.0007034883720930252,0.008208676094531884
-0.0006409883720930182,0.008208676094531884
-0.0005784883720930251,0.004519930486347622
-0.0005159883720930181,0.008208676094531884
-0.00045348837209302495,0.008208676094531884
-0.00039098837209301796,0.008208676094531884
-0.00032848837209302484,0.008208676094531884
-0.00026598837209301784,0.011897421702716147
-0.00020348837209302473,0.011897421702716147
-0.00014098837209301773,0.011897421702716147
-7.848837209302462e-05,0.011897421702716147
-1.5988372093017622e-05,0.01558616731090041
4.6511627906975495e-05,1.91897890113398
0.00010901162790698249,3.3391459602849207
0.0001715116279069756,3.3243909778521834
0.0002340116279069826,3.3207022322439994
0.0002965116279069757,3.3207022322439994
0.0003590116279069827,3.3207022322439994
0.00042151162790697583,3.3207022322439994
0.0004840116279069828,3.3207022322439994
0.0005465116279069759,3.3207022322439994
0.0006090116279069829,3.3207022322439994
0.000671511627906976,3.3207022322439994
0.000734011627906983,3.3207022322439994
0.0007965116279069762,3.3207022322439994
0.0008590116279069832,3.3207022322439994
0.0009215116279069763,3.3207022322439994
0.0009840116279069833,3.3207022322439994
0.0010465116279069764,3.3207022322439994
0.0011090116279069834,3.3207022322439994
0.0011715116279069765,3.3207022322439994
0.0012340116279069835,3.3207022322439994
0.0012965116279069766,3.3207022322439994
0.0013590116279069836,3.3207022322439994
0.0014215116279069767,3.3207022322439994
0.0014840116279069837,3.3207022322439994
0.0015465116279069768,3.3207022322439994
0.0016090116279069838,3.3207022322439994
0.001671511627906977,3.3207022322439994
0.001734011627906984,3.3207022322439994
0.001796511627906977,3.3207022322439994
0.001859011627906984,3.3207022322439994
0.0019215116279069772,3.3207022322439994
0.001984011627906984,3.3207022322439994
0.0020465116279069773,3.3207022322439994
0.0021090116279069843,3.3207022322439994
0.0021715116279069774,3.3207022322439994
0.0022340116279069844,3.3207022322439994
0.0022965116279069775,3.3207022322439994
0.0023590116279069845,3.3207022322439994
0.0024215116279069776,3.3207022322439994
0.0024840116279069846,3.3207022322439994
0.0025465116279069777,3.3207022322439994
0.0026090116279069847,3.3207022322439994
0.002671511627906978,3.3207022322439994
0.002734011627906985,3.3207022322439994
0.002796511627906978,3.3207022322439994
0.002859011627906985,3.3207022322439994
0.002921511627906978,3.3207022322439994
0.002984011627906985,3.3207022322439994
0.003046511627906978,3.3207022322439994
0.003109011627906985,3.3207022322439994
0.0031715116279069783,3.3207022322439994
0.0032340116279069853,3.3207022322439994
0.0032965116279069784,3.3207022322439994
0.0033590116279069854,3.3207022322439994
0.0034215116279069785,3.3207022322439994
0.0034840116279069855,3.3207022322439994
0.0035465116279069786,3.3207022322439994
0.0036090116279069856,3.3207022322439994
0.0036715116279069787,3.3207022322439994
0.0037340116279069857,3.3207022322439994
0.003796511627906979,3.3207022322439994
0.003859011627906986,3.3207022322439994
0.003921511627906979,3.3207022322439994
0.003984011627906986,3.3207022322439994
0.004046511627906979,3.3207022322439994
0.004109011627906986,3.3207022322439994
0.004171511627906979,3.3207022322439994
0.004234011627906972,3.3207022322439994
0.004296511627906979,3.3207022322439994
0.004359011627906972,3.3207022322439994
0.004421511627906979,3.3207022322439994
0.0044840116279069725,3.3207022322439994
0.0045465116279069795,3.3207022322439994
0.004609011627906973,3.3207022322439994
0.00467151162790698,3.3207022322439994
0.004734011627906973,3.3207022322439994
0.00479651162790698,3.3207022322439994
0.004859011627906973,3.3207022322439994
0.00492151162790698,3.3207022322439994
0.004984011627906973,3.3207022322439994
0.00504651162790698,3.3207022322439994
0.005109011627906973,3.3207022322439994
0.00517151162790698,3.3207022322439994
0.005234011627906973,3.3207022322439994
0.00529651162790698,3.3207022322439994
0.005359011627906973,3.3207022322439994
0.00542151162790698,3.3207022322439994
0.005484011627906973,3.3207022322439994
0.00554651162790698,3.3207022322439994
0.0056090116279069735,3.3207022322439994
0.0056715116279069805,3.3207022322439994
0.005734011627906974,3.3207022322439994
0.005796511627906981,3.3207022322439994
0.005859011627906974,3.3207022322439994
0.005921511627906981,3.3207022322439994
0.005984011627906974,3.3207022322439994
0.006046511627906981,3.3207022322439994
0.006109011627906974,3.3207022322439994
0.006171511627906981,3.3207022322439994
0.006234011627906974,3.3207022322439994
0.006296511627906981,3.3207022322439994
0.006359011627906974,3.3207022322439994
0.006421511627906981,3.3207022322439994
0.006484011627906974,3.3207022322439994
0.006546511627906981,3.3207022322439994
0.006609011627906974,3.3207022322439994
0.006671511627906981,3.3207022322439994
0.0067340116279069745,3.3207022322439994
0.0067965116279069815,3.3207022322439994
0.006859011627906975,3.3207022322439994
0.006921511627906982,3.3207022322439994
0.006984011627906975,3.3207022322439994
0.007046511627906982,3.3207022322439994
0.007109011627906975,3.3207022322439994
0.007171511627906982,3.3207022322439994
0.007234011627906975,3.3207022322439994
0.007296511627906982,3.3207022322439994
0.007359011627906975,3.3207022322439994
0.007421511627906982,3.3207022322439994
0.007484011627906975,3.3207022322439994
0.007546511627906982,3.3207022322439994
0.007609011627906975,3.3207022322439994
0.007671511627906982,3.3207022322439994
0.007734011627906975,3.3207022322439994
0.007796511627906982,3.3207022322439994
0.007859011627906975,3.3207022322439994
0.007921511627906982,3.3207022322439994
0.007984011627906976,3.3207022322439994
0.008046511627906983,3.3207022322439994
0.008109011627906976,3.3207022322439994
0.008171511627906983,3.3207022322439994
0.008234011627906976,3.3207022322439994
0.008296511627906983,3.3207022322439994
0.008359011627906976,3.3207022322439994
0.008421511627906983,3.3207022322439994
0.008484011627906976,3.3207022322439994
0.008546511627906983,3.3207022322439994
0.008609011627906976,3.3207022322439994
0.008671511627906983,3.3207022322439994
0.008734011627906976,3.3207022322439994
0.008796511627906983,3.3207022322439994
0.008859011627906976,3.3207022322439994
0.008921511627906983,3.3207022322439994
0.008984011627906976,3.3207022322439994
0.009046511627906983,3.3207022322439994
0.009109011627906977,3.3207022322439994
0.009171511627906984,3.3207022322439994
0.009234011627906977,3.3207022322439994
0.009296511627906984,3.3207022322439994
0.009359011627906977,3.3207022322439994
0.009421511627906984,3.3207022322439994
0.009484011627906977,3.3207022322439994
0.009546511627906984,3.3207022322439994
0.009609011627906977,3.3207022322439994
0.009671511627906984,3.3207022322439994
0.009734011627906977,3.3207022322439994
0.009796511627906984,3.3207022322439994
0.009859011627906977,3.3207022322439994
0.009921511627906984,3.3207022322439994
0.009984011627906977,3.3207022322439994
0.010046511627906984,3.3207022322439994
0.010109011627906977,3.3207022322439994
0.010171511627906984,3.3207022322439994
0.010234011627906978,3.3207022322439994
0.010296511627906985,3.3207022322439994
0.010359011627906978,3.3207022322439994
0.010421511627906985,3.3207022322439994
0.010484011627906978,3.3207022322439994
0.010546511627906985,3.3207022322439994
0.010609011627906978,3.3207022322439994
0.010671511627906985,3.3207022322439994
0.010734011627906978,3.3207022322439994
0.010796511627906985,3.3207022322439994
0.010859011627906978,3.3207022322439994
0.010921511627906985,3.3207022322439994
0.010984011627906978,3.3207022322439994
0.011046511627906985,3.3207022322439994
0.011109011627906978,3.3207022322439994
0.011171511627906985,3.3207022322439994
0.011234011627906978,3.3207022322439994
0.011296511627906985,3.3207022322439994
0.011359011627906979,3.3207022322439994
0.011421511627906986,3.3207022322439994
0.011484011627906979,3.3207022322439994
