Data/acq0069.csv

#Digilent WaveForms Oscilloscope Acquisition
#Device Name: Discovery2
#Serial Number: SN:210321B282B2
#Date Time: 2026-05-13 12:40:55.551
#Sample rate: 16000Hz
#Samples: 3200
#Trigger: Source: Channel 1 Type: Edge Condition: Rising Level: 500 mV Hyst.: 5 mV HoldOff: 0 s
#Channel 1: Range: 1 V/div Offset: 0 V Sample Mode: Average

Time (s),Channel 1 (V)
-0.017703581871345034,0.008208676094531884
-0.017641081871345027,0.008208676094531884
-0.017578581871345034,0.008208676094531884
-0.017516081871345027,0.008208676094531884
-0.017453581871345034,0.011897421702716147
-0.017391081871345027,0.008208676094531884
-0.017328581871345033,0.008208676094531884
-0.017266081871345026,0.011897421702716147
-0.017203581871345033,0.008208676094531884
-0.017141081871345026,0.008208676094531884
-0.017078581871345033,0.008208676094531884
-0.017016081871345026,0.008208676094531884
-0.016953581871345033,0.008208676094531884
-0.016891081871345026,0.008208676094531884
-0.016828581871345033,0.008208676094531884
-0.016766081871345026,0.008208676094531884
-0.016703581871345033,0.008208676094531884
-0.016641081871345026,0.008208676094531884
-0.016578581871345033,0.008208676094531884
-0.016516081871345026,0.008208676094531884
-0.016453581871345033,0.008208676094531884
-0.016391081871345026,0.008208676094531884
-0.016328581871345033,0.008208676094531884
-0.016266081871345026,0.008208676094531884
-0.016203581871345032,0.008208676094531884
-0.016141081871345025,0.008208676094531884
-0.016078581871345032,0.008208676094531884
-0.016016081871345025,0.008208676094531884
-0.015953581871345032,0.008208676094531884
-0.015891081871345025,0.008208676094531884
-0.015828581871345032,0.008208676094531884
-0.015766081871345025,0.008208676094531884
-0.015703581871345032,0.008208676094531884
-0.015641081871345025,0.008208676094531884
-0.015578581871345032,0.008208676094531884
-0.015516081871345025,0.008208676094531884
-0.015453581871345032,0.008208676094531884
-0.015391081871345025,0.008208676094531884
-0.015328581871345032,0.008208676094531884
-0.015266081871345025,0.008208676094531884
-0.015203581871345032,0.008208676094531884
-0.015141081871345025,0.008208676094531884
-0.015078581871345031,0.008208676094531884
-0.015016081871345024,0.008208676094531884
-0.014953581871345031,0.008208676094531884
-0.014891081871345024,0.008208676094531884
-0.014828581871345031,0.008208676094531884
-0.014766081871345024,0.008208676094531884
-0.014703581871345031,0.008208676094531884
-0.014641081871345024,0.008208676094531884
-0.014578581871345031,0.008208676094531884
-0.014516081871345024,0.008208676094531884
-0.014453581871345031,0.008208676094531884
-0.014391081871345024,0.008208676094531884
-0.01432858187134503,0.008208676094531884
-0.014266081871345024,0.008208676094531884
-0.01420358187134503,0.004519930486347622
-0.014141081871345024,0.008208676094531884
-0.01407858187134503,0.008208676094531884
-0.014016081871345024,0.008208676094531884
-0.01395358187134503,0.008208676094531884
-0.013891081871345023,0.008208676094531884
-0.01382858187134503,0.008208676094531884
-0.013766081871345023,0.008208676094531884
-0.01370358187134503,0.008208676094531884
-0.013641081871345023,0.008208676094531884
-0.01357858187134503,0.008208676094531884
-0.013516081871345023,0.008208676094531884
-0.01345358187134503,0.008208676094531884
-0.013391081871345023,0.008208676094531884
-0.01332858187134503,0.008208676094531884
-0.013266081871345023,0.008208676094531884
-0.01320358187134503,0.008208676094531884
-0.013141081871345023,0.008208676094531884
-0.01307858187134503,0.008208676094531884
-0.013016081871345023,0.008208676094531884
-0.01295358187134503,0.008208676094531884
-0.012891081871345023,0.008208676094531884
-0.01282858187134503,0.008208676094531884
-0.012766081871345022,0.008208676094531884
-0.01270358187134503,0.008208676094531884
-0.012641081871345022,0.008208676094531884
-0.01257858187134503,0.008208676094531884
-0.012516081871345022,0.008208676094531884
-0.01245358187134503,0.008208676094531884
-0.012391081871345022,0.008208676094531884
-0.012328581871345029,0.008208676094531884
-0.012266081871345022,0.008208676094531884
-0.012203581871345029,0.008208676094531884
-0.012141081871345022,0.008208676094531884
-0.012078581871345029,0.008208676094531884
-0.012016081871345022,0.008208676094531884
-0.011953581871345029,0.008208676094531884
-0.011891081871345022,0.008208676094531884
-0.011828581871345029,0.008208676094531884
-0.011766081871345022,0.008208676094531884
-0.011703581871345028,0.008208676094531884
-0.011641081871345021,0.008208676094531884
-0.011578581871345028,0.008208676094531884
-0.011516081871345021,0.008208676094531884
-0.011453581871345028,0.008208676094531884
-0.011391081871345035,0.008208676094531884
-0.011328581871345028,0.008208676094531884
-0.011266081871345035,0.008208676094531884
-0.011203581871345028,0.008208676094531884
-0.011141081871345035,0.008208676094531884
-0.011078581871345028,0.008208676094531884
-0.011016081871345035,0.008208676094531884
-0.010953581871345028,0.008208676094531884
-0.010891081871345035,0.008208676094531884
-0.010828581871345028,0.008208676094531884
-0.010766081871345035,0.008208676094531884
-0.010703581871345028,0.008208676094531884
-0.010641081871345034,0.008208676094531884
-0.010578581871345027,0.008208676094531884
-0.010516081871345034,0.008208676094531884
-0.010453581871345027,0.008208676094531884
-0.010391081871345034,0.008208676094531884
-0.010328581871345027,0.008208676094531884
-0.010266081871345034,0.008208676094531884
-0.010203581871345027,0.008208676094531884
-0.010141081871345034,0.008208676094531884
-0.010078581871345027,0.008208676094531884
-0.010016081871345034,0.008208676094531884
-0.009953581871345027,0.008208676094531884
-0.009891081871345034,0.008208676094531884
-0.009828581871345027,0.008208676094531884
-0.009766081871345034,0.008208676094531884
-0.009703581871345027,0.008208676094531884
-0.009641081871345034,0.004519930486347622
-0.009578581871345027,0.004519930486347622
-0.009516081871345033,0.004519930486347622
-0.009453581871345026,0.008208676094531884
-0.009391081871345033,0.008208676094531884
-0.009328581871345026,0.008208676094531884
-0.009266081871345033,0.008208676094531884
-0.009203581871345026,0.008208676094531884
-0.009141081871345033,0.008208676094531884
-0.009078581871345026,0.004519930486347622
-0.009016081871345033,0.008208676094531884
-0.008953581871345026,0.004519930486347622
-0.008891081871345033,0.008208676094531884
-0.008828581871345026,0.008208676094531884
-0.008766081871345033,0.008208676094531884
-0.008703581871345026,0.008208676094531884
-0.008641081871345033,0.004519930486347622
-0.008578581871345026,0.004519930486347622
-0.008516081871345033,0.004519930486347622
-0.008453581871345026,0.004519930486347622
-0.008391081871345032,0.008208676094531884
-0.008328581871345025,0.004519930486347622
-0.008266081871345032,0.004519930486347622
-0.008203581871345025,0.004519930486347622
-0.008141081871345032,0.004519930486347622
-0.008078581871345025,0.008208676094531884
-0.008016081871345032,0.008208676094531884
-0.007953581871345025,0.008208676094531884
-0.007891081871345032,0.008208676094531884
-0.007828581871345025,0.008208676094531884
-0.007766081871345032,0.004519930486347622
-0.007703581871345025,0.004519930486347622
-0.007641081871345032,0.008208676094531884
-0.007578581871345025,0.008208676094531884
-0.007516081871345032,0.004519930486347622
-0.007453581871345025,0.004519930486347622
-0.007391081871345032,0.004519930486347622
-0.007328581871345025,0.008208676094531884
-0.0072660818713450315,0.004519930486347622
-0.0072035818713450245,0.004519930486347622
-0.007141081871345031,0.008208676094531884
-0.007078581871345024,0.008208676094531884
-0.007016081871345031,0.008208676094531884
-0.006953581871345024,0.008208676094531884
-0.006891081871345031,0.008208676094531884
-0.006828581871345024,0.008208676094531884
-0.006766081871345031,0.008208676094531884
-0.006703581871345024,0.008208676094531884
-0.006641081871345031,0.008208676094531884
-0.006578581871345024,0.008208676094531884
-0.006516081871345031,0.008208676094531884
-0.006453581871345024,0.004519930486347622
-0.006391081871345031,0.008208676094531884
-0.006328581871345024,0.008208676094531884
-0.006266081871345031,0.008208676094531884
-0.006203581871345024,0.008208676094531884
-0.0061410818713450305,0.008208676094531884
-0.0060785818713450235,0.008208676094531884
-0.00601608187134503,0.008208676094531884
-0.005953581871345023,0.008208676094531884
-0.00589108187134503,0.008208676094531884
-0.005828581871345023,0.008208676094531884
-0.00576608187134503,0.008208676094531884
-0.005703581871345023,0.008208676094531884
-0.00564108187134503,0.008208676094531884
-0.005578581871345023,0.008208676094531884
-0.00551608187134503,0.008208676094531884
-0.005453581871345023,0.008208676094531884
-0.00539108187134503,0.008208676094531884
-0.005328581871345023,0.008208676094531884
-0.00526608187134503,0.008208676094531884
-0.005203581871345023,0.008208676094531884
-0.00514108187134503,0.008208676094531884
-0.005078581871345023,0.008208676094531884
-0.0050160818713450295,0.008208676094531884
-0.0049535818713450225,0.008208676094531884
-0.004891081871345029,0.008208676094531884
-0.004828581871345022,0.008208676094531884
-0.004766081871345029,0.008208676094531884
-0.004703581871345022,0.008208676094531884
-0.004641081871345029,0.008208676094531884
-0.004578581871345022,0.008208676094531884
-0.004516081871345029,0.008208676094531884
-0.004453581871345022,0.008208676094531884
-0.004391081871345029,0.008208676094531884
-0.004328581871345022,0.008208676094531884
-0.004266081871345029,0.008208676094531884
-0.004203581871345022,0.008208676094531884
-0.004141081871345029,0.008208676094531884
-0.004078581871345022,0.008208676094531884
-0.004016081871345029,0.008208676094531884
-0.003953581871345022,0.008208676094531884
-0.0038910818713450285,0.008208676094531884
-0.0038285818713450215,0.008208676094531884
-0.0037660818713450284,0.008208676094531884
-0.0037035818713450214,0.008208676094531884
-0.0036410818713450283,0.008208676094531884
-0.003578581871345035,0.008208676094531884
-0.003516081871345028,0.008208676094531884
-0.003453581871345035,0.008208676094531884
-0.003391081871345028,0.008208676094531884
-0.003328581871345035,0.008208676094531884
-0.003266081871345028,0.008208676094531884
-0.003203581871345035,0.008208676094531884
-0.003141081871345028,0.008208676094531884
-0.0030785818713450347,0.008208676094531884
-0.0030160818713450277,0.008208676094531884
-0.0029535818713450346,0.008208676094531884
-0.0028910818713450276,0.008208676094531884
-0.0028285818713450345,0.008208676094531884
-0.0027660818713450275,0.008208676094531884
-0.0027035818713450344,0.008208676094531884
-0.0026410818713450274,0.008208676094531884
-0.0025785818713450342,0.008208676094531884
-0.0025160818713450273,0.008208676094531884
-0.002453581871345034,0.008208676094531884
-0.002391081871345027,0.008208676094531884
-0.002328581871345034,0.008208676094531884
-0.002266081871345027,0.008208676094531884
-0.002203581871345034,0.008208676094531884
-0.002141081871345027,0.008208676094531884
-0.002078581871345034,0.008208676094531884
-0.002016081871345027,0.008208676094531884
-0.0019535818713450337,0.008208676094531884
-0.0018910818713450267,0.008208676094531884
-0.0018285818713450336,0.008208676094531884
-0.0017660818713450266,0.008208676094531884
-0.0017035818713450335,0.008208676094531884
-0.0016410818713450265,0.008208676094531884
-0.0015785818713450334,0.008208676094531884
-0.0015160818713450264,0.011897421702716147
-0.0014535818713450332,0.008208676094531884
-0.0013910818713450263,0.008208676094531884
-0.0013285818713450331,0.008208676094531884
-0.0012660818713450261,0.008208676094531884
-0.001203581871345033,0.008208676094531884
-0.001141081871345026,0.008208676094531884
-0.001078581871345033,0.008208676094531884
-0.001016081871345026,0.008208676094531884
-0.0009535818713450328,0.008208676094531884
-0.0008910818713450258,0.008208676094531884
-0.0008285818713450327,0.008208676094531884
-0.0007660818713450257,0.011897421702716147
-0.0007035818713450326,0.008208676094531884
-0.0006410818713450256,0.008208676094531884
-0.0005785818713450325,0.008208676094531884
-0.0005160818713450255,0.008208676094531884
-0.00045358187134503236,0.011897421702716147
-0.00039108187134502537,0.011897421702716147
-0.00032858187134503225,0.011897421702716147
-0.00026608187134502526,0.011897421702716147
-0.00020358187134503214,0.011897421702716147
-0.00014108187134502514,0.011897421702716147
-7.858187134503203e-05,0.011897421702716147
-1.6081871345025034e-05,0.01558616731090041
4.641812865496808e-05,1.907912664309427
0.00010891812865497508,3.3354572146767363
0.0001714181286549682,3.3207022322439994
0.0002339181286549752,3.3207022322439994
0.0002964181286549683,3.3207022322439994
0.0003589181286549753,3.3207022322439994
0.0004214181286549684,3.3207022322439994
0.0004839181286549754,3.3207022322439994
0.0005464181286549685,3.3207022322439994
0.0006089181286549755,3.3207022322439994
0.0006714181286549686,3.3207022322439994
0.0007339181286549756,3.3207022322439994
0.0007964181286549687,3.3207022322439994
0.0008589181286549757,3.3207022322439994
0.0009214181286549689,3.3207022322439994
0.0009839181286549759,3.3207022322439994
0.001046418128654969,3.3207022322439994
0.001108918128654976,3.3207022322439994
0.001171418128654969,3.3207022322439994
0.001233918128654976,3.3207022322439994
0.0012964181286549692,3.3207022322439994
0.0013589181286549762,3.3207022322439994
0.0014214181286549693,3.3207022322439994
0.0014839181286549763,3.3207022322439994
0.0015464181286549694,3.3207022322439994
0.0016089181286549764,3.3207022322439994
0.0016714181286549695,3.3207022322439994
0.0017339181286549765,3.3207022322439994
0.0017964181286549696,3.3207022322439994
0.0018589181286549766,3.3207022322439994
0.0019214181286549697,3.3207022322439994
0.0019839181286549767,3.3207022322439994
0.00204641812865497,3.3207022322439994
0.002108918128654977,3.3207022322439994
0.00217141812865497,3.3207022322439994
0.002233918128654977,3.3207022322439994
0.00229641812865497,3.3207022322439994
0.002358918128654977,3.3207022322439994
0.00242141812865497,3.3207022322439994
0.002483918128654977,3.317013486635815
0.0025464181286549703,3.3207022322439994
0.0026089181286549773,3.3207022322439994
0.0026714181286549704,3.3207022322439994
0.0027339181286549774,3.3207022322439994
0.0027964181286549705,3.3207022322439994
0.0028589181286549775,3.3207022322439994
0.0029214181286549706,3.3207022322439994
0.0029839181286549776,3.3207022322439994
0.0030464181286549707,3.3207022322439994
0.0031089181286549777,3.3207022322439994
0.003171418128654971,3.3207022322439994
0.003233918128654978,3.3207022322439994
0.003296418128654971,3.3207022322439994
0.003358918128654978,3.3207022322439994
0.003421418128654971,3.3207022322439994
0.003483918128654978,3.3207022322439994
0.003546418128654971,3.3207022322439994
0.003608918128654978,3.3207022322439994
0.0036714181286549713,3.3207022322439994
0.0037339181286549783,3.3207022322439994
0.0037964181286549714,3.3207022322439994
0.0038589181286549784,3.3207022322439994
0.0039214181286549715,3.3207022322439994
0.0039839181286549785,3.3207022322439994
0.004046418128654972,3.3207022322439994
0.004108918128654979,3.3207022322439994
0.004171418128654972,3.3207022322439994
0.004233918128654965,3.3207022322439994
0.004296418128654972,3.3207022322439994
0.004358918128654965,3.3207022322439994
0.004421418128654972,3.3207022322439994
0.004483918128654965,3.3207022322439994
0.004546418128654972,3.3207022322439994
0.004608918128654965,3.3207022322439994
0.004671418128654972,3.3207022322439994
0.004733918128654965,3.3207022322439994
0.004796418128654972,3.3207022322439994
0.004858918128654965,3.3207022322439994
0.004921418128654972,3.3207022322439994
0.0049839181286549655,3.3207022322439994
0.0050464181286549725,3.3207022322439994
0.005108918128654966,3.3207022322439994
0.005171418128654973,3.3207022322439994
0.005233918128654966,3.3207022322439994
0.005296418128654973,3.3207022322439994
0.005358918128654966,3.3207022322439994
0.005421418128654973,3.3207022322439994
0.005483918128654966,3.3207022322439994
0.005546418128654973,3.3207022322439994
0.005608918128654966,3.3207022322439994
0.005671418128654973,3.3207022322439994
0.005733918128654966,3.3207022322439994
0.005796418128654973,3.3207022322439994
0.005858918128654966,3.3207022322439994
0.005921418128654973,3.3207022322439994
0.005983918128654966,3.3207022322439994
0.006046418128654973,3.317013486635815
0.0061089181286549665,3.3207022322439994
0.0061714181286549735,3.3207022322439994
0.006233918128654967,3.3207022322439994
0.006296418128654974,3.3207022322439994
0.006358918128654967,3.3207022322439994
0.006421418128654974,3.3207022322439994
0.006483918128654967,3.3207022322439994
0.006546418128654974,3.3207022322439994
0.006608918128654967,3.3207022322439994
0.006671418128654974,3.3207022322439994
0.006733918128654967,3.3207022322439994
0.006796418128654974,3.3207022322439994
0.006858918128654967,3.3207022322439994
0.006921418128654974,3.3207022322439994
0.006983918128654967,3.3207022322439994
0.007046418128654974,3.3207022322439994
0.007108918128654967,3.3207022322439994
0.007171418128654974,3.3207022322439994
0.0072339181286549675,3.3207022322439994
0.0072964181286549745,3.3207022322439994
0.007358918128654968,3.3207022322439994
0.007421418128654975,3.3207022322439994
0.007483918128654968,3.3207022322439994
0.007546418128654975,3.3207022322439994
0.007608918128654968,3.3207022322439994
0.007671418128654975,3.3207022322439994
0.007733918128654968,3.3207022322439994
0.007796418128654975,3.3207022322439994
0.007858918128654968,3.3207022322439994
0.007921418128654975,3.3207022322439994
0.007983918128654968,3.3207022322439994
0.008046418128654975,3.3207022322439994
0.008108918128654968,3.3207022322439994
0.008171418128654975,3.3207022322439994
0.008233918128654968,3.3207022322439994
0.008296418128654975,3.3207022322439994
0.008358918128654969,3.3207022322439994
0.008421418128654976,3.3207022322439994
0.008483918128654969,3.3207022322439994
0.008546418128654976,3.3207022322439994
0.008608918128654969,3.3207022322439994
0.008671418128654976,3.3207022322439994
0.008733918128654969,3.3207022322439994
0.008796418128654976,3.3207022322439994
0.008858918128654969,3.3207022322439994
0.008921418128654976,3.3207022322439994
0.008983918128654969,3.3207022322439994
0.009046418128654976,3.3207022322439994
0.00910891812865497,3.3207022322439994
0.009171418128654976,3.3207022322439994
0.00923391812865497,3.3207022322439994
0.009296418128654976,3.3207022322439994
0.00935891812865497,3.3207022322439994
0.009421418128654976,3.3207022322439994
0.00948391812865497,3.3207022322439994
0.009546418128654977,3.3207022322439994
0.00960891812865497,3.3207022322439994
0.009671418128654977,3.3207022322439994
0.00973391812865497,3.3207022322439994
0.009796418128654977,3.3207022322439994
0.00985891812865497,3.3207022322439994
0.009921418128654977,3.3207022322439994
0.00998391812865497,3.3207022322439994
0.010046418128654977,3.3207022322439994
0.01010891812865497,3.3207022322439994
0.010171418128654977,3.3207022322439994
0.01023391812865497,3.3207022322439994
0.010296418128654977,3.3207022322439994
0.01035891812865497,3.3207022322439994
0.010421418128654977,3.3207022322439994
0.01048391812865497,3.3207022322439994
0.010546418128654977,3.3207022322439994
0.01060891812865497,3.3207022322439994
0.010671418128654978,3.3207022322439994
0.01073391812865497,3.3207022322439994
0.010796418128654978,3.3207022322439994
0.01085891812865497,3.3207022322439994
0.010921418128654978,3.3207022322439994
0.01098391812865497,3.3207022322439994
0.011046418128654978,3.3207022322439994
0.011108918128654971,3.3207022322439994
0.011171418128654978,3.3207022322439994
0.011233918128654971,3.3207022322439994
0.011296418128654978,3.3207022322439994
0.011358918128654971,3.3207022322439994
0.011421418128654978,3.3207022322439994
0.011483918128654971,3.3207022322439994
