Data/acq0131.csv

#Digilent WaveForms Oscilloscope Acquisition
#Device Name: Discovery2
#Serial Number: SN:210321B282B2
#Date Time: 2026-05-13 12:41:12.235
#Sample rate: 16000Hz
#Samples: 3200
#Trigger: Source: Channel 1 Type: Edge Condition: Rising Level: 500 mV Hyst.: 5 mV HoldOff: 0 s
#Channel 1: Range: 1 V/div Offset: 0 V Sample Mode: Average

Time (s),Channel 1 (V)
-0.01771971899224807,0.008208676094531884
-0.017657218992248064,0.008208676094531884
-0.01759471899224807,0.008208676094531884
-0.017532218992248064,0.008208676094531884
-0.01746971899224807,0.008208676094531884
-0.017407218992248064,0.008208676094531884
-0.01734471899224807,0.008208676094531884
-0.017282218992248063,0.008208676094531884
-0.01721971899224807,0.008208676094531884
-0.017157218992248063,0.008208676094531884
-0.01709471899224807,0.008208676094531884
-0.017032218992248063,0.008208676094531884
-0.01696971899224807,0.008208676094531884
-0.016907218992248063,0.008208676094531884
-0.01684471899224807,0.008208676094531884
-0.016782218992248063,0.008208676094531884
-0.01671971899224807,0.008208676094531884
-0.016657218992248063,0.008208676094531884
-0.01659471899224807,0.008208676094531884
-0.016532218992248063,0.008208676094531884
-0.01646971899224807,0.008208676094531884
-0.016407218992248063,0.008208676094531884
-0.01634471899224807,0.008208676094531884
-0.016282218992248063,0.008208676094531884
-0.01621971899224807,0.008208676094531884
-0.016157218992248062,0.008208676094531884
-0.01609471899224807,0.008208676094531884
-0.016032218992248062,0.008208676094531884
-0.01596971899224807,0.008208676094531884
-0.015907218992248062,0.008208676094531884
-0.01584471899224807,0.008208676094531884
-0.015782218992248062,0.008208676094531884
-0.01571971899224807,0.008208676094531884
-0.015657218992248062,0.008208676094531884
-0.015594718992248069,0.008208676094531884
-0.015532218992248062,0.008208676094531884
-0.015469718992248069,0.008208676094531884
-0.015407218992248062,0.008208676094531884
-0.015344718992248069,0.008208676094531884
-0.015282218992248062,0.008208676094531884
-0.015219718992248069,0.008208676094531884
-0.015157218992248062,0.008208676094531884
-0.015094718992248068,0.008208676094531884
-0.015032218992248061,0.008208676094531884
-0.014969718992248068,0.008208676094531884
-0.014907218992248061,0.008208676094531884
-0.014844718992248068,0.008208676094531884
-0.014782218992248061,0.008208676094531884
-0.014719718992248068,0.008208676094531884
-0.014657218992248061,0.008208676094531884
-0.014594718992248068,0.008208676094531884
-0.014532218992248061,0.008208676094531884
-0.014469718992248068,0.008208676094531884
-0.014407218992248061,0.008208676094531884
-0.014344718992248068,0.008208676094531884
-0.01428221899224806,0.008208676094531884
-0.014219718992248068,0.008208676094531884
-0.01415721899224806,0.008208676094531884
-0.014094718992248068,0.008208676094531884
-0.01403221899224806,0.004519930486347622
-0.013969718992248067,0.008208676094531884
-0.01390721899224806,0.008208676094531884
-0.013844718992248067,0.008208676094531884
-0.01378221899224806,0.008208676094531884
-0.013719718992248067,0.008208676094531884
-0.01365721899224806,0.008208676094531884
-0.013594718992248067,0.008208676094531884
-0.01353221899224806,0.008208676094531884
-0.013469718992248067,0.004519930486347622
-0.01340721899224806,0.008208676094531884
-0.013344718992248067,0.008208676094531884
-0.01328221899224806,0.008208676094531884
-0.013219718992248067,0.004519930486347622
-0.01315721899224806,0.004519930486347622
-0.013094718992248067,0.008208676094531884
-0.01303221899224806,0.004519930486347622
-0.012969718992248067,0.008208676094531884
-0.01290721899224806,0.008208676094531884
-0.012844718992248066,0.008208676094531884
-0.01278221899224806,0.004519930486347622
-0.012719718992248066,0.004519930486347622
-0.01265721899224806,0.004519930486347622
-0.012594718992248066,0.008208676094531884
-0.01253221899224806,0.008208676094531884
-0.012469718992248066,0.008208676094531884
-0.012407218992248059,0.008208676094531884
-0.012344718992248066,0.008208676094531884
-0.012282218992248059,0.008208676094531884
-0.012219718992248066,0.008208676094531884
-0.012157218992248059,0.008208676094531884
-0.012094718992248066,0.008208676094531884
-0.012032218992248059,0.008208676094531884
-0.011969718992248066,0.008208676094531884
-0.011907218992248059,0.004519930486347622
-0.011844718992248066,0.004519930486347622
-0.011782218992248059,0.004519930486347622
-0.011719718992248065,0.004519930486347622
-0.011657218992248058,0.004519930486347622
-0.011594718992248065,0.008208676094531884
-0.011532218992248058,0.008208676094531884
-0.011469718992248065,0.008208676094531884
-0.011407218992248072,0.004519930486347622
-0.011344718992248065,0.008208676094531884
-0.011282218992248072,0.008208676094531884
-0.011219718992248065,0.008208676094531884
-0.011157218992248072,0.008208676094531884
-0.011094718992248065,0.004519930486347622
-0.011032218992248072,0.004519930486347622
-0.010969718992248065,0.008208676094531884
-0.010907218992248072,0.004519930486347622
-0.010844718992248065,0.008208676094531884
-0.010782218992248072,0.008208676094531884
-0.010719718992248065,0.008208676094531884
-0.010657218992248071,0.004519930486347622
-0.010594718992248064,0.008208676094531884
-0.010532218992248071,0.008208676094531884
-0.010469718992248064,0.008208676094531884
-0.010407218992248071,0.008208676094531884
-0.010344718992248064,0.008208676094531884
-0.010282218992248071,0.008208676094531884
-0.010219718992248064,0.008208676094531884
-0.010157218992248071,0.008208676094531884
-0.010094718992248064,0.008208676094531884
-0.010032218992248071,0.008208676094531884
-0.009969718992248064,0.008208676094531884
-0.00990721899224807,0.008208676094531884
-0.009844718992248064,0.008208676094531884
-0.00978221899224807,0.008208676094531884
-0.009719718992248064,0.008208676094531884
-0.00965721899224807,0.008208676094531884
-0.009594718992248064,0.008208676094531884
-0.00953221899224807,0.008208676094531884
-0.009469718992248063,0.008208676094531884
-0.00940721899224807,0.008208676094531884
-0.009344718992248063,0.008208676094531884
-0.00928221899224807,0.008208676094531884
-0.009219718992248063,0.008208676094531884
-0.00915721899224807,0.008208676094531884
-0.009094718992248063,0.008208676094531884
-0.00903221899224807,0.008208676094531884
-0.008969718992248063,0.008208676094531884
-0.00890721899224807,0.008208676094531884
-0.008844718992248063,0.008208676094531884
-0.00878221899224807,0.008208676094531884
-0.008719718992248063,0.008208676094531884
-0.00865721899224807,0.008208676094531884
-0.008594718992248063,0.008208676094531884
-0.00853221899224807,0.008208676094531884
-0.008469718992248063,0.008208676094531884
-0.00840721899224807,0.008208676094531884
-0.008344718992248062,0.008208676094531884
-0.00828221899224807,0.008208676094531884
-0.008219718992248062,0.008208676094531884
-0.00815721899224807,0.008208676094531884
-0.008094718992248062,0.008208676094531884
-0.008032218992248069,0.008208676094531884
-0.007969718992248062,0.008208676094531884
-0.007907218992248069,0.008208676094531884
-0.007844718992248062,0.008208676094531884
-0.007782218992248069,0.008208676094531884
-0.007719718992248062,0.008208676094531884
-0.007657218992248069,0.008208676094531884
-0.007594718992248062,0.008208676094531884
-0.007532218992248069,0.008208676094531884
-0.007469718992248062,0.008208676094531884
-0.007407218992248069,0.008208676094531884
-0.007344718992248062,0.008208676094531884
-0.0072822189922480685,0.008208676094531884
-0.0072197189922480615,0.008208676094531884
-0.007157218992248068,0.008208676094531884
-0.007094718992248061,0.008208676094531884
-0.007032218992248068,0.008208676094531884
-0.006969718992248061,0.008208676094531884
-0.006907218992248068,0.008208676094531884
-0.006844718992248061,0.008208676094531884
-0.006782218992248068,0.008208676094531884
-0.006719718992248061,0.008208676094531884
-0.006657218992248068,0.008208676094531884
-0.006594718992248061,0.008208676094531884
-0.006532218992248068,0.008208676094531884
-0.006469718992248061,0.008208676094531884
-0.006407218992248068,0.011897421702716147
-0.006344718992248061,0.008208676094531884
-0.006282218992248068,0.008208676094531884
-0.006219718992248061,0.008208676094531884
-0.0061572189922480675,0.008208676094531884
-0.0060947189922480605,0.008208676094531884
-0.006032218992248067,0.008208676094531884
-0.00596971899224806,0.008208676094531884
-0.005907218992248067,0.008208676094531884
-0.00584471899224806,0.008208676094531884
-0.005782218992248067,0.008208676094531884
-0.00571971899224806,0.008208676094531884
-0.005657218992248067,0.008208676094531884
-0.00559471899224806,0.008208676094531884
-0.005532218992248067,0.008208676094531884
-0.00546971899224806,0.008208676094531884
-0.005407218992248067,0.008208676094531884
-0.00534471899224806,0.008208676094531884
-0.005282218992248067,0.008208676094531884
-0.00521971899224806,0.008208676094531884
-0.005157218992248067,0.008208676094531884
-0.00509471899224806,0.008208676094531884
-0.0050322189922480665,0.008208676094531884
-0.0049697189922480595,0.008208676094531884
-0.004907218992248066,0.008208676094531884
-0.004844718992248059,0.008208676094531884
-0.004782218992248066,0.008208676094531884
-0.004719718992248059,0.008208676094531884
-0.004657218992248066,0.008208676094531884
-0.004594718992248059,0.008208676094531884
-0.004532218992248066,0.008208676094531884
-0.004469718992248059,0.008208676094531884
-0.004407218992248066,0.008208676094531884
-0.004344718992248059,0.008208676094531884
-0.004282218992248066,0.008208676094531884
-0.004219718992248059,0.008208676094531884
-0.004157218992248066,0.008208676094531884
-0.004094718992248059,0.008208676094531884
-0.004032218992248066,0.008208676094531884
-0.003969718992248059,0.008208676094531884
-0.0039072189922480655,0.008208676094531884
-0.0038447189922480585,0.008208676094531884
-0.0037822189922480653,0.008208676094531884
-0.0037197189922480584,0.008208676094531884
-0.0036572189922480652,0.008208676094531884
-0.003594718992248072,0.011897421702716147
-0.003532218992248065,0.011897421702716147
-0.003469718992248072,0.008208676094531884
-0.003407218992248065,0.008208676094531884
-0.003344718992248072,0.008208676094531884
-0.003282218992248065,0.008208676094531884
-0.003219718992248072,0.011897421702716147
-0.003157218992248065,0.011897421702716147
-0.0030947189922480717,0.008208676094531884
-0.0030322189922480647,0.008208676094531884
-0.0029697189922480716,0.008208676094531884
-0.0029072189922480646,0.008208676094531884
-0.0028447189922480715,0.008208676094531884
-0.0027822189922480645,0.008208676094531884
-0.0027197189922480713,0.008208676094531884
-0.0026572189922480643,0.008208676094531884
-0.0025947189922480712,0.008208676094531884
-0.0025322189922480642,0.008208676094531884
-0.002469718992248071,0.008208676094531884
-0.002407218992248064,0.008208676094531884
-0.002344718992248071,0.008208676094531884
-0.002282218992248064,0.008208676094531884
-0.002219718992248071,0.008208676094531884
-0.002157218992248064,0.008208676094531884
-0.002094718992248071,0.008208676094531884
-0.002032218992248064,0.008208676094531884
-0.0019697189922480707,0.008208676094531884
-0.0019072189922480637,0.008208676094531884
-0.0018447189922480706,0.008208676094531884
-0.0017822189922480636,0.008208676094531884
-0.0017197189922480705,0.008208676094531884
-0.0016572189922480635,0.008208676094531884
-0.0015947189922480703,0.008208676094531884
-0.0015322189922480633,0.008208676094531884
-0.0014697189922480702,0.008208676094531884
-0.0014072189922480632,0.008208676094531884
-0.0013447189922480701,0.008208676094531884
-0.0012822189922480631,0.008208676094531884
-0.00121971899224807,0.008208676094531884
-0.001157218992248063,0.008208676094531884
-0.00109471899224807,0.008208676094531884
-0.001032218992248063,0.011897421702716147
-0.0009697189922480698,0.008208676094531884
-0.0009072189922480628,0.008208676094531884
-0.0008447189922480697,0.008208676094531884
-0.0007822189922480627,0.008208676094531884
-0.0007197189922480696,0.008208676094531884
-0.0006572189922480626,0.008208676094531884
-0.0005947189922480695,0.008208676094531884
-0.0005322189922480625,0.008208676094531884
-0.00046971899224806934,0.008208676094531884
-0.00040721899224806235,0.008208676094531884
-0.00034471899224806923,0.008208676094531884
-0.00028221899224806224,0.008208676094531884
-0.00021971899224806912,0.011897421702716147
-0.00015721899224806213,0.011897421702716147
-9.471899224806901e-05,0.011897421702716147
-3.221899224806202e-05,0.011897421702716147
3.02810077519311e-05,0.9635937886142558
9.27810077519381e-05,3.346523451501289
0.0001552810077519312,3.3243909778521834
0.0002177810077519382,3.3207022322439994
0.0002802810077519313,3.317013486635815
0.0003427810077519383,3.317013486635815
0.00040528100775193143,3.3207022322439994
0.0004677810077519384,3.3207022322439994
0.0005302810077519315,3.3207022322439994
0.0005927810077519385,3.317013486635815
0.0006552810077519317,3.3207022322439994
0.0007177810077519386,3.3207022322439994
0.0007802810077519318,3.3207022322439994
0.0008427810077519388,3.317013486635815
0.0009052810077519319,3.3207022322439994
0.0009677810077519389,3.3207022322439994
0.001030281007751932,3.3207022322439994
0.001092781007751939,3.317013486635815
0.001155281007751932,3.317013486635815
0.001217781007751939,3.3207022322439994
0.0012802810077519322,3.3207022322439994
0.0013427810077519392,3.3207022322439994
0.0014052810077519323,3.3207022322439994
0.0014677810077519393,3.3207022322439994
0.0015302810077519324,3.3207022322439994
0.0015927810077519394,3.317013486635815
0.0016552810077519325,3.3207022322439994
0.0017177810077519395,3.3207022322439994
0.0017802810077519327,3.3207022322439994
0.0018427810077519396,3.3207022322439994
0.0019052810077519328,3.3207022322439994
0.0019677810077519398,3.3207022322439994
0.002030281007751933,3.3207022322439994
0.00209278100775194,3.3207022322439994
0.002155281007751933,3.3207022322439994
0.00221778100775194,3.3207022322439994
0.002280281007751933,3.3207022322439994
0.00234278100775194,3.3207022322439994
0.002405281007751933,3.3207022322439994
0.00246778100775194,3.3207022322439994
0.0025302810077519333,3.3207022322439994
0.0025927810077519403,3.3207022322439994
0.0026552810077519334,3.3207022322439994
0.0027177810077519404,3.3207022322439994
0.0027802810077519335,3.3207022322439994
0.0028427810077519405,3.3207022322439994
0.0029052810077519337,3.3207022322439994
0.0029677810077519406,3.3207022322439994
0.0030302810077519338,3.3207022322439994
0.0030927810077519408,3.3207022322439994
0.003155281007751934,3.3207022322439994
0.003217781007751941,3.3207022322439994
0.003280281007751934,3.3207022322439994
0.003342781007751941,3.3207022322439994
0.003405281007751934,3.3207022322439994
0.003467781007751941,3.3207022322439994
0.003530281007751934,3.3207022322439994
0.003592781007751941,3.3207022322439994
0.0036552810077519343,3.3207022322439994
0.0037177810077519413,3.3207022322439994
0.0037802810077519344,3.3207022322439994
0.0038427810077519414,3.3207022322439994
0.0039052810077519345,3.3207022322439994
0.0039677810077519415,3.3207022322439994
0.004030281007751935,3.3207022322439994
0.004092781007751942,3.3207022322439994
0.004155281007751935,3.3207022322439994
0.004217781007751928,3.3207022322439994
0.004280281007751935,3.3207022322439994
0.004342781007751928,3.3207022322439994
0.004405281007751935,3.3207022322439994
0.004467781007751928,3.3207022322439994
0.004530281007751935,3.3207022322439994
0.004592781007751928,3.3207022322439994
0.004655281007751935,3.3207022322439994
0.004717781007751928,3.3207022322439994
0.004780281007751935,3.3207022322439994
0.0048427810077519284,3.3207022322439994
0.004905281007751935,3.3207022322439994
0.0049677810077519285,3.3207022322439994
0.0050302810077519355,3.3207022322439994
0.005092781007751929,3.3207022322439994
0.005155281007751936,3.3207022322439994
0.005217781007751929,3.3207022322439994
0.005280281007751936,3.3207022322439994
0.005342781007751929,3.3207022322439994
0.005405281007751936,3.3207022322439994
0.005467781007751929,3.3207022322439994
0.005530281007751936,3.3207022322439994
0.005592781007751929,3.3207022322439994
0.005655281007751936,3.3207022322439994
0.005717781007751929,3.3207022322439994
0.005780281007751936,3.3207022322439994
0.005842781007751929,3.3207022322439994
0.005905281007751936,3.3207022322439994
0.0059677810077519294,3.3207022322439994
0.006030281007751936,3.3207022322439994
0.0060927810077519295,3.3207022322439994
0.0061552810077519365,3.3207022322439994
0.00621778100775193,3.3207022322439994
0.006280281007751937,3.3207022322439994
0.00634278100775193,3.3207022322439994
0.006405281007751937,3.3207022322439994
0.00646778100775193,3.3207022322439994
0.006530281007751937,3.3207022322439994
0.00659278100775193,3.3207022322439994
0.006655281007751937,3.3207022322439994
0.00671778100775193,3.3207022322439994
0.006780281007751937,3.3207022322439994
0.00684278100775193,3.3207022322439994
0.006905281007751937,3.3207022322439994
0.00696778100775193,3.3207022322439994
0.007030281007751937,3.317013486635815
0.00709278100775193,3.3207022322439994
0.007155281007751937,3.3207022322439994
0.0072177810077519305,3.3207022322439994
0.0072802810077519375,3.3207022322439994
0.007342781007751931,3.3207022322439994
0.007405281007751938,3.3207022322439994
0.007467781007751931,3.3207022322439994
0.007530281007751938,3.3207022322439994
0.007592781007751931,3.3207022322439994
0.007655281007751938,3.3207022322439994
0.007717781007751931,3.3207022322439994
0.007780281007751938,3.3207022322439994
0.007842781007751931,3.3207022322439994
0.007905281007751938,3.3207022322439994
0.007967781007751931,3.3207022322439994
0.008030281007751938,3.3207022322439994
0.008092781007751931,3.3207022322439994
0.008155281007751938,3.3207022322439994
0.008217781007751931,3.317013486635815
0.008280281007751938,3.3207022322439994
0.008342781007751932,3.3207022322439994
0.008405281007751939,3.3207022322439994
0.008467781007751932,3.3207022322439994
0.008530281007751939,3.3207022322439994
0.008592781007751932,3.3207022322439994
0.008655281007751939,3.3207022322439994
0.008717781007751932,3.3207022322439994
0.008780281007751939,3.3207022322439994
0.008842781007751932,3.3207022322439994
0.008905281007751939,3.3207022322439994
0.008967781007751932,3.3207022322439994
0.009030281007751939,3.3207022322439994
0.009092781007751932,3.3207022322439994
0.00915528100775194,3.3207022322439994
0.009217781007751932,3.3207022322439994
0.00928028100775194,3.3207022322439994
0.009342781007751932,3.317013486635815
0.00940528100775194,3.3207022322439994
0.009467781007751933,3.3207022322439994
0.00953028100775194,3.3207022322439994
0.009592781007751933,3.3207022322439994
0.00965528100775194,3.3207022322439994
0.009717781007751933,3.3207022322439994
0.00978028100775194,3.3207022322439994
0.009842781007751933,3.3207022322439994
0.00990528100775194,3.3207022322439994
0.009967781007751933,3.3207022322439994
0.01003028100775194,3.3207022322439994
0.010092781007751933,3.3207022322439994
0.01015528100775194,3.3207022322439994
0.010217781007751933,3.3207022322439994
0.01028028100775194,3.3207022322439994
0.010342781007751933,3.3207022322439994
0.01040528100775194,3.3207022322439994
0.010467781007751933,3.3207022322439994
0.01053028100775194,3.3207022322439994
0.010592781007751934,3.3207022322439994
0.01065528100775194,3.3207022322439994
0.010717781007751934,3.3207022322439994
0.01078028100775194,3.3207022322439994
0.010842781007751934,3.3207022322439994
0.01090528100775194,3.3207022322439994
0.010967781007751934,3.3207022322439994
0.011030281007751941,3.3207022322439994
0.011092781007751934,3.3207022322439994
0.011155281007751941,3.3207022322439994
0.011217781007751934,3.317013486635815
0.011280281007751941,3.3207022322439994
0.011342781007751934,3.3207022322439994
0.011405281007751941,3.3207022322439994
0.011467781007751934,3.3207022322439994
0.011530281007751941,3.3207022322439994
