Data/acq0107.csv

#Digilent WaveForms Oscilloscope Acquisition
#Device Name: Discovery2
#Serial Number: SN:210321B282B2
#Date Time: 2026-05-13 12:41:05.011
#Sample rate: 16000Hz
#Samples: 3200
#Trigger: Source: Channel 1 Type: Edge Condition: Rising Level: 500 mV Hyst.: 5 mV HoldOff: 0 s
#Channel 1: Range: 1 V/div Offset: 0 V Sample Mode: Average

Time (s),Channel 1 (V)
-0.017698777548209366,0.008208676094531884
-0.01763627754820936,0.008208676094531884
-0.017573777548209366,0.008208676094531884
-0.01751127754820936,0.008208676094531884
-0.017448777548209365,0.008208676094531884
-0.01738627754820936,0.008208676094531884
-0.017323777548209365,0.008208676094531884
-0.01726127754820936,0.008208676094531884
-0.017198777548209365,0.008208676094531884
-0.017136277548209358,0.008208676094531884
-0.017073777548209365,0.008208676094531884
-0.017011277548209358,0.008208676094531884
-0.016948777548209365,0.008208676094531884
-0.016886277548209358,0.008208676094531884
-0.016823777548209365,0.008208676094531884
-0.016761277548209358,0.008208676094531884
-0.016698777548209365,0.008208676094531884
-0.016636277548209358,0.008208676094531884
-0.016573777548209365,0.008208676094531884
-0.016511277548209358,0.008208676094531884
-0.016448777548209365,0.008208676094531884
-0.016386277548209358,0.008208676094531884
-0.016323777548209364,0.008208676094531884
-0.016261277548209357,0.008208676094531884
-0.016198777548209364,0.008208676094531884
-0.016136277548209357,0.008208676094531884
-0.016073777548209364,0.008208676094531884
-0.016011277548209357,0.008208676094531884
-0.015948777548209364,0.008208676094531884
-0.015886277548209357,0.011897421702716147
-0.015823777548209364,0.008208676094531884
-0.015761277548209357,0.008208676094531884
-0.015698777548209364,0.008208676094531884
-0.015636277548209357,0.008208676094531884
-0.015573777548209364,0.008208676094531884
-0.015511277548209357,0.008208676094531884
-0.015448777548209364,0.008208676094531884
-0.015386277548209357,0.008208676094531884
-0.015323777548209364,0.008208676094531884
-0.015261277548209357,0.008208676094531884
-0.015198777548209363,0.008208676094531884
-0.015136277548209356,0.008208676094531884
-0.015073777548209363,0.008208676094531884
-0.015011277548209356,0.008208676094531884
-0.014948777548209363,0.008208676094531884
-0.014886277548209356,0.008208676094531884
-0.014823777548209363,0.008208676094531884
-0.014761277548209356,0.008208676094531884
-0.014698777548209363,0.008208676094531884
-0.014636277548209356,0.008208676094531884
-0.014573777548209363,0.008208676094531884
-0.014511277548209356,0.008208676094531884
-0.014448777548209363,0.008208676094531884
-0.014386277548209356,0.008208676094531884
-0.014323777548209363,0.008208676094531884
-0.014261277548209356,0.008208676094531884
-0.014198777548209363,0.008208676094531884
-0.014136277548209356,0.008208676094531884
-0.014073777548209362,0.008208676094531884
-0.014011277548209355,0.008208676094531884
-0.013948777548209362,0.008208676094531884
-0.013886277548209355,0.008208676094531884
-0.013823777548209362,0.008208676094531884
-0.013761277548209355,0.008208676094531884
-0.013698777548209362,0.008208676094531884
-0.013636277548209355,0.008208676094531884
-0.013573777548209362,0.008208676094531884
-0.013511277548209355,0.008208676094531884
-0.013448777548209362,0.008208676094531884
-0.013386277548209355,0.008208676094531884
-0.013323777548209362,0.008208676094531884
-0.013261277548209355,0.008208676094531884
-0.013198777548209362,0.008208676094531884
-0.013136277548209355,0.008208676094531884
-0.013073777548209362,0.008208676094531884
-0.013011277548209355,0.008208676094531884
-0.012948777548209361,0.008208676094531884
-0.012886277548209354,0.008208676094531884
-0.012823777548209361,0.008208676094531884
-0.012761277548209354,0.008208676094531884
-0.012698777548209361,0.008208676094531884
-0.012636277548209354,0.008208676094531884
-0.012573777548209361,0.008208676094531884
-0.012511277548209354,0.008208676094531884
-0.012448777548209361,0.008208676094531884
-0.012386277548209354,0.008208676094531884
-0.012323777548209361,0.008208676094531884
-0.012261277548209354,0.008208676094531884
-0.01219877754820936,0.008208676094531884
-0.012136277548209354,0.008208676094531884
-0.01207377754820936,0.008208676094531884
-0.012011277548209354,0.008208676094531884
-0.01194877754820936,0.008208676094531884
-0.011886277548209354,0.008208676094531884
-0.01182377754820936,0.008208676094531884
-0.011761277548209353,0.008208676094531884
-0.01169877754820936,0.008208676094531884
-0.011636277548209353,0.008208676094531884
-0.01157377754820936,0.008208676094531884
-0.011511277548209353,0.008208676094531884
-0.01144877754820936,0.008208676094531884
-0.011386277548209367,0.008208676094531884
-0.01132377754820936,0.008208676094531884
-0.011261277548209367,0.008208676094531884
-0.01119877754820936,0.008208676094531884
-0.011136277548209367,0.008208676094531884
-0.01107377754820936,0.008208676094531884
-0.011011277548209367,0.008208676094531884
-0.01094877754820936,0.008208676094531884
-0.010886277548209367,0.008208676094531884
-0.01082377754820936,0.008208676094531884
-0.010761277548209366,0.008208676094531884
-0.01069877754820936,0.008208676094531884
-0.010636277548209366,0.008208676094531884
-0.01057377754820936,0.008208676094531884
-0.010511277548209366,0.008208676094531884
-0.01044877754820936,0.008208676094531884
-0.010386277548209366,0.008208676094531884
-0.010323777548209359,0.008208676094531884
-0.010261277548209366,0.008208676094531884
-0.010198777548209359,0.008208676094531884
-0.010136277548209366,0.008208676094531884
-0.010073777548209359,0.008208676094531884
-0.010011277548209366,0.008208676094531884
-0.009948777548209359,0.008208676094531884
-0.009886277548209366,0.008208676094531884
-0.009823777548209359,0.008208676094531884
-0.009761277548209366,0.008208676094531884
-0.009698777548209359,0.008208676094531884
-0.009636277548209365,0.008208676094531884
-0.009573777548209358,0.008208676094531884
-0.009511277548209365,0.008208676094531884
-0.009448777548209358,0.008208676094531884
-0.009386277548209365,0.004519930486347622
-0.009323777548209358,0.004519930486347622
-0.009261277548209365,0.008208676094531884
-0.009198777548209358,0.008208676094531884
-0.009136277548209365,0.004519930486347622
-0.009073777548209358,0.004519930486347622
-0.009011277548209365,0.008208676094531884
-0.008948777548209358,0.008208676094531884
-0.008886277548209365,0.004519930486347622
-0.008823777548209358,0.004519930486347622
-0.008761277548209365,0.004519930486347622
-0.008698777548209358,0.004519930486347622
-0.008636277548209365,0.004519930486347622
-0.008573777548209358,0.004519930486347622
-0.008511277548209364,0.004519930486347622
-0.008448777548209357,0.008208676094531884
-0.008386277548209364,0.004519930486347622
-0.008323777548209357,0.004519930486347622
-0.008261277548209364,0.004519930486347622
-0.008198777548209357,0.004519930486347622
-0.008136277548209364,0.004519930486347622
-0.008073777548209357,0.008208676094531884
-0.008011277548209364,0.004519930486347622
-0.007948777548209357,0.008208676094531884
-0.007886277548209364,0.004519930486347622
-0.007823777548209357,0.004519930486347622
-0.007761277548209364,0.008208676094531884
-0.007698777548209357,0.008208676094531884
-0.007636277548209364,0.008208676094531884
-0.007573777548209357,0.008208676094531884
-0.0075112775482093636,0.004519930486347622
-0.0074487775482093566,0.004519930486347622
-0.0073862775482093634,0.004519930486347622
-0.0073237775482093564,0.004519930486347622
-0.007261277548209363,0.004519930486347622
-0.007198777548209356,0.004519930486347622
-0.007136277548209363,0.004519930486347622
-0.007073777548209356,0.004519930486347622
-0.007011277548209363,0.004519930486347622
-0.006948777548209356,0.004519930486347622
-0.006886277548209363,0.004519930486347622
-0.006823777548209356,0.008208676094531884
-0.006761277548209363,0.004519930486347622
-0.006698777548209356,0.008208676094531884
-0.006636277548209363,0.004519930486347622
-0.006573777548209356,0.004519930486347622
-0.006511277548209363,0.008208676094531884
-0.006448777548209356,0.004519930486347622
-0.0063862775482093626,0.004519930486347622
-0.0063237775482093556,0.008208676094531884
-0.0062612775482093624,0.004519930486347622
-0.0061987775482093554,0.008208676094531884
-0.006136277548209362,0.004519930486347622
-0.006073777548209355,0.004519930486347622
-0.006011277548209362,0.008208676094531884
-0.005948777548209355,0.008208676094531884
-0.005886277548209362,0.004519930486347622
-0.005823777548209355,0.008208676094531884
-0.005761277548209362,0.008208676094531884
-0.005698777548209355,0.004519930486347622
-0.005636277548209362,0.004519930486347622
-0.005573777548209355,0.004519930486347622
-0.005511277548209362,0.008208676094531884
-0.005448777548209355,0.004519930486347622
-0.005386277548209362,0.008208676094531884
-0.005323777548209355,0.008208676094531884
-0.0052612775482093616,0.004519930486347622
-0.0051987775482093546,0.004519930486347622
-0.0051362775482093614,0.008208676094531884
-0.0050737775482093544,0.008208676094531884
-0.005011277548209361,0.008208676094531884
-0.004948777548209354,0.008208676094531884
-0.004886277548209361,0.008208676094531884
-0.004823777548209354,0.008208676094531884
-0.004761277548209361,0.008208676094531884
-0.004698777548209354,0.008208676094531884
-0.004636277548209361,0.008208676094531884
-0.004573777548209354,0.008208676094531884
-0.004511277548209361,0.004519930486347622
-0.004448777548209354,0.004519930486347622
-0.004386277548209361,0.008208676094531884
-0.004323777548209354,0.008208676094531884
-0.004261277548209361,0.008208676094531884
-0.004198777548209354,0.008208676094531884
-0.0041362775482093606,0.008208676094531884
-0.0040737775482093536,0.008208676094531884
-0.0040112775482093604,0.008208676094531884
-0.0039487775482093534,0.008208676094531884
-0.0038862775482093603,0.008208676094531884
-0.0038237775482093533,0.008208676094531884
-0.0037612775482093602,0.008208676094531884
-0.0036987775482093532,0.008208676094531884
-0.00363627754820936,0.008208676094531884
-0.003573777548209367,0.008208676094531884
-0.00351127754820936,0.008208676094531884
-0.003448777548209367,0.008208676094531884
-0.00338627754820936,0.008208676094531884
-0.0033237775482093668,0.008208676094531884
-0.0032612775482093598,0.008208676094531884
-0.0031987775482093667,0.008208676094531884
-0.0031362775482093597,0.008208676094531884
-0.0030737775482093666,0.008208676094531884
-0.0030112775482093596,0.008208676094531884
-0.0029487775482093664,0.008208676094531884
-0.0028862775482093594,0.008208676094531884
-0.0028237775482093663,0.008208676094531884
-0.0027612775482093593,0.008208676094531884
-0.0026987775482093662,0.008208676094531884
-0.0026362775482093592,0.008208676094531884
-0.002573777548209366,0.008208676094531884
-0.002511277548209359,0.008208676094531884
-0.002448777548209366,0.008208676094531884
-0.002386277548209359,0.008208676094531884
-0.002323777548209366,0.008208676094531884
-0.002261277548209359,0.008208676094531884
-0.0021987775482093658,0.008208676094531884
-0.0021362775482093588,0.008208676094531884
-0.0020737775482093657,0.008208676094531884
-0.0020112775482093587,0.008208676094531884
-0.0019487775482093656,0.008208676094531884
-0.0018862775482093586,0.008208676094531884
-0.0018237775482093654,0.008208676094531884
-0.0017612775482093584,0.008208676094531884
-0.0016987775482093653,0.008208676094531884
-0.0016362775482093583,0.008208676094531884
-0.0015737775482093652,0.008208676094531884
-0.0015112775482093582,0.008208676094531884
-0.001448777548209365,0.008208676094531884
-0.0013862775482093581,0.011897421702716147
-0.001323777548209365,0.008208676094531884
-0.001261277548209358,0.008208676094531884
-0.0011987775482093649,0.008208676094531884
-0.0011362775482093579,0.008208676094531884
-0.0010737775482093648,0.008208676094531884
-0.0010112775482093578,0.008208676094531884
-0.0009487775482093647,0.008208676094531884
-0.0008862775482093577,0.008208676094531884
-0.0008237775482093646,0.008208676094531884
-0.0007612775482093576,0.008208676094531884
-0.0006987775482093644,0.008208676094531884
-0.0006362775482093574,0.008208676094531884
-0.0005737775482093643,0.008208676094531884
-0.0005112775482093573,0.008208676094531884
-0.0004487775482093642,0.008208676094531884
-0.0003862775482093572,0.011897421702716147
-0.0003237775482093641,0.011897421702716147
-0.0002612775482093571,0.01558616731090041
-0.000198777548209364,0.01558616731090041
-0.000136277548209357,0.01558616731090041
-7.377754820936389e-05,0.01558616731090041
-1.1277548209356891e-05,0.01927491291908467
5.1222451790636225e-05,2.697304224460859
0.00011372245179064322,3.3317684690685523
0.00017622245179063634,3.3207022322439994
0.00023872245179064333,3.3207022322439994
0.00030122245179063645,3.3207022322439994
0.00036372245179064344,3.3207022322439994
0.00042622245179063656,3.3207022322439994
0.0004887224517906436,3.3207022322439994
0.0005512224517906367,3.3207022322439994
0.0006137224517906437,3.3207022322439994
0.0006762224517906368,3.3207022322439994
0.0007387224517906438,3.3207022322439994
0.0008012224517906369,3.3207022322439994
0.0008637224517906439,3.3207022322439994
0.000926222451790637,3.3207022322439994
0.000988722451790644,3.3207022322439994
0.0010512224517906371,3.3207022322439994
0.001113722451790644,3.3207022322439994
0.0011762224517906372,3.3207022322439994
0.0012387224517906442,3.3207022322439994
0.0013012224517906373,3.3207022322439994
0.0013637224517906443,3.3207022322439994
0.0014262224517906374,3.3207022322439994
0.0014887224517906444,3.3207022322439994
0.0015512224517906376,3.3207022322439994
0.0016137224517906446,3.3207022322439994
0.0016762224517906377,3.3207022322439994
0.0017387224517906447,3.3207022322439994
0.0018012224517906378,3.3207022322439994
0.0018637224517906448,3.3207022322439994
0.0019262224517906379,3.3207022322439994
0.001988722451790645,3.3207022322439994
0.002051222451790638,3.3207022322439994
0.002113722451790645,3.3207022322439994
0.002176222451790638,3.3207022322439994
0.002238722451790645,3.3207022322439994
0.0023012224517906382,3.3207022322439994
0.0023637224517906452,3.3207022322439994
0.0024262224517906383,3.3207022322439994
0.0024887224517906453,3.3207022322439994
0.0025512224517906384,3.3207022322439994
0.0026137224517906454,3.3207022322439994
0.0026762224517906386,3.3207022322439994
0.0027387224517906456,3.3207022322439994
0.0028012224517906387,3.3207022322439994
0.0028637224517906457,3.3207022322439994
0.0029262224517906388,3.3207022322439994
0.0029887224517906458,3.3207022322439994
0.003051222451790639,3.3207022322439994
0.003113722451790646,3.3207022322439994
0.003176222451790639,3.3207022322439994
0.003238722451790646,3.3207022322439994
0.003301222451790639,3.3207022322439994
0.003363722451790646,3.3207022322439994
0.0034262224517906392,3.3207022322439994
0.0034887224517906462,3.3207022322439994
0.0035512224517906393,3.3207022322439994
0.0036137224517906463,3.3207022322439994
0.0036762224517906394,3.3207022322439994
0.0037387224517906464,3.3207022322439994
0.0038012224517906396,3.3207022322439994
0.0038637224517906466,3.3207022322439994
0.00392622245179064,3.3207022322439994
0.003988722451790647,3.3207022322439994
0.00405122245179064,3.3207022322439994
0.004113722451790647,3.3207022322439994
0.00417622245179064,3.3207022322439994
0.004238722451790633,3.3207022322439994
0.00430122245179064,3.3207022322439994
0.004363722451790633,3.3207022322439994
0.00442622245179064,3.3207022322439994
0.004488722451790633,3.3207022322439994
0.00455122245179064,3.3207022322439994
0.004613722451790633,3.3207022322439994
0.00467622245179064,3.3207022322439994
0.0047387224517906334,3.3207022322439994
0.0048012224517906404,3.3207022322439994
0.0048637224517906336,3.3207022322439994
0.0049262224517906406,3.3207022322439994
0.004988722451790634,3.3207022322439994
0.005051222451790641,3.3207022322439994
0.005113722451790634,3.3207022322439994
0.005176222451790641,3.3207022322439994
0.005238722451790634,3.3207022322439994
0.005301222451790641,3.3207022322439994
0.005363722451790634,3.3207022322439994
0.005426222451790641,3.3207022322439994
0.005488722451790634,3.3207022322439994
0.005551222451790641,3.3207022322439994
0.005613722451790634,3.3207022322439994
0.005676222451790641,3.3207022322439994
0.005738722451790634,3.3207022322439994
0.005801222451790641,3.3207022322439994
0.0058637224517906344,3.3207022322439994
0.0059262224517906414,3.3207022322439994
0.0059887224517906346,3.3207022322439994
0.0060512224517906416,3.3207022322439994
0.006113722451790635,3.3207022322439994
0.006176222451790642,3.3207022322439994
0.006238722451790635,3.3207022322439994
0.006301222451790642,3.3207022322439994
0.006363722451790635,3.3207022322439994
0.006426222451790642,3.3207022322439994
0.006488722451790635,3.3207022322439994
0.006551222451790642,3.3207022322439994
0.006613722451790635,3.3207022322439994
0.006676222451790642,3.3207022322439994
0.006738722451790635,3.3207022322439994
0.006801222451790642,3.3207022322439994
0.006863722451790635,3.3207022322439994
0.006926222451790642,3.3207022322439994
0.0069887224517906354,3.3207022322439994
0.0070512224517906424,3.3207022322439994
0.0071137224517906356,3.3207022322439994
0.0071762224517906426,3.3207022322439994
0.007238722451790636,3.3207022322439994
0.007301222451790643,3.3207022322439994
0.007363722451790636,3.3207022322439994
0.007426222451790643,3.3207022322439994
0.007488722451790636,3.3207022322439994
0.007551222451790643,3.3207022322439994
0.007613722451790636,3.3207022322439994
0.007676222451790643,3.3207022322439994
0.007738722451790636,3.3207022322439994
0.007801222451790643,3.3207022322439994
0.007863722451790636,3.3207022322439994
0.007926222451790643,3.3207022322439994
0.007988722451790636,3.3207022322439994
0.008051222451790643,3.3207022322439994
0.008113722451790636,3.3207022322439994
0.008176222451790643,3.3207022322439994
0.008238722451790637,3.3207022322439994
0.008301222451790644,3.3207022322439994
0.008363722451790637,3.3207022322439994
0.008426222451790644,3.3207022322439994
0.008488722451790637,3.3207022322439994
0.008551222451790644,3.3207022322439994
0.008613722451790637,3.3207022322439994
0.008676222451790644,3.3207022322439994
0.008738722451790637,3.3207022322439994
0.008801222451790644,3.3207022322439994
0.008863722451790637,3.3207022322439994
0.008926222451790644,3.3207022322439994
0.008988722451790637,3.3207022322439994
0.009051222451790644,3.3207022322439994
0.009113722451790637,3.3207022322439994
0.009176222451790644,3.3207022322439994
0.009238722451790637,3.3207022322439994
0.009301222451790644,3.3207022322439994
0.009363722451790638,3.3207022322439994
0.009426222451790645,3.3207022322439994
0.009488722451790638,3.3207022322439994
0.009551222451790645,3.3207022322439994
0.009613722451790638,3.3207022322439994
0.009676222451790645,3.3207022322439994
0.009738722451790638,3.3207022322439994
0.009801222451790645,3.3207022322439994
0.009863722451790638,3.3207022322439994
0.009926222451790645,3.3207022322439994
0.009988722451790638,3.3207022322439994
0.010051222451790645,3.3207022322439994
0.010113722451790638,3.3207022322439994
0.010176222451790645,3.3207022322439994
0.010238722451790638,3.3207022322439994
0.010301222451790645,3.3207022322439994
0.010363722451790638,3.3207022322439994
0.010426222451790645,3.3207022322439994
0.010488722451790639,3.3207022322439994
0.010551222451790646,3.3207022322439994
0.010613722451790639,3.3207022322439994
0.010676222451790646,3.3207022322439994
0.010738722451790639,3.3207022322439994
0.010801222451790646,3.3207022322439994
0.010863722451790639,3.3207022322439994
0.010926222451790646,3.3207022322439994
0.010988722451790639,3.3207022322439994
0.011051222451790646,3.3207022322439994
0.011113722451790639,3.3207022322439994
0.011176222451790646,3.3207022322439994
0.01123872245179064,3.3207022322439994
0.011301222451790646,3.3207022322439994
0.01136372245179064,3.3207022322439994
0.011426222451790646,3.3207022322439994
