Data/acq0149.csv

#Digilent WaveForms Oscilloscope Acquisition
#Device Name: Discovery2
#Serial Number: SN:210321B282B2
#Date Time: 2026-05-13 12:41:16.914
#Sample rate: 16000Hz
#Samples: 3200
#Trigger: Source: Channel 1 Type: Edge Condition: Rising Level: 500 mV Hyst.: 5 mV HoldOff: 0 s
#Channel 1: Range: 1 V/div Offset: 0 V Sample Mode: Average

Time (s),Channel 1 (V)
-0.01772916666666667,0.008208676094531884
-0.017666666666666664,0.008208676094531884
-0.01760416666666667,0.008208676094531884
-0.017541666666666664,0.008208676094531884
-0.01747916666666667,0.008208676094531884
-0.017416666666666664,0.008208676094531884
-0.01735416666666667,0.008208676094531884
-0.017291666666666664,0.008208676094531884
-0.01722916666666667,0.008208676094531884
-0.017166666666666663,0.008208676094531884
-0.01710416666666667,0.008208676094531884
-0.017041666666666663,0.008208676094531884
-0.01697916666666667,0.008208676094531884
-0.016916666666666663,0.008208676094531884
-0.01685416666666667,0.008208676094531884
-0.016791666666666663,0.008208676094531884
-0.01672916666666667,0.008208676094531884
-0.016666666666666663,0.008208676094531884
-0.01660416666666667,0.008208676094531884
-0.016541666666666663,0.008208676094531884
-0.01647916666666667,0.008208676094531884
-0.016416666666666663,0.008208676094531884
-0.01635416666666667,0.008208676094531884
-0.016291666666666663,0.008208676094531884
-0.01622916666666667,0.008208676094531884
-0.016166666666666663,0.008208676094531884
-0.01610416666666667,0.008208676094531884
-0.016041666666666662,0.008208676094531884
-0.01597916666666667,0.008208676094531884
-0.015916666666666662,0.008208676094531884
-0.01585416666666667,0.008208676094531884
-0.015791666666666662,0.008208676094531884
-0.01572916666666667,0.008208676094531884
-0.015666666666666662,0.008208676094531884
-0.015604166666666669,0.008208676094531884
-0.015541666666666662,0.008208676094531884
-0.015479166666666669,0.008208676094531884
-0.015416666666666662,0.008208676094531884
-0.015354166666666669,0.008208676094531884
-0.015291666666666662,0.008208676094531884
-0.015229166666666669,0.008208676094531884
-0.015166666666666662,0.008208676094531884
-0.015104166666666669,0.008208676094531884
-0.015041666666666662,0.008208676094531884
-0.014979166666666668,0.008208676094531884
-0.014916666666666661,0.008208676094531884
-0.014854166666666668,0.008208676094531884
-0.014791666666666661,0.008208676094531884
-0.014729166666666668,0.008208676094531884
-0.014666666666666661,0.008208676094531884
-0.014604166666666668,0.008208676094531884
-0.014541666666666661,0.008208676094531884
-0.014479166666666668,0.008208676094531884
-0.014416666666666661,0.008208676094531884
-0.014354166666666668,0.008208676094531884
-0.01429166666666666,0.008208676094531884
-0.014229166666666668,0.008208676094531884
-0.01416666666666666,0.008208676094531884
-0.014104166666666668,0.008208676094531884
-0.01404166666666666,0.008208676094531884
-0.013979166666666668,0.008208676094531884
-0.01391666666666666,0.008208676094531884
-0.013854166666666667,0.008208676094531884
-0.01379166666666666,0.008208676094531884
-0.013729166666666667,0.008208676094531884
-0.01366666666666666,0.008208676094531884
-0.013604166666666667,0.008208676094531884
-0.01354166666666666,0.008208676094531884
-0.013479166666666667,0.008208676094531884
-0.01341666666666666,0.008208676094531884
-0.013354166666666667,0.008208676094531884
-0.01329166666666666,0.008208676094531884
-0.013229166666666667,0.008208676094531884
-0.01316666666666666,0.008208676094531884
-0.013104166666666667,0.008208676094531884
-0.01304166666666666,0.008208676094531884
-0.012979166666666667,0.008208676094531884
-0.01291666666666666,0.008208676094531884
-0.012854166666666667,0.008208676094531884
-0.01279166666666666,0.008208676094531884
-0.012729166666666666,0.008208676094531884
-0.01266666666666666,0.008208676094531884
-0.012604166666666666,0.008208676094531884
-0.01254166666666666,0.008208676094531884
-0.012479166666666666,0.008208676094531884
-0.01241666666666666,0.008208676094531884
-0.012354166666666666,0.008208676094531884
-0.012291666666666659,0.008208676094531884
-0.012229166666666666,0.008208676094531884
-0.012166666666666659,0.004519930486347622
-0.012104166666666666,0.008208676094531884
-0.012041666666666659,0.008208676094531884
-0.011979166666666666,0.008208676094531884
-0.011916666666666659,0.008208676094531884
-0.011854166666666666,0.004519930486347622
-0.011791666666666659,0.004519930486347622
-0.011729166666666666,0.008208676094531884
-0.011666666666666659,0.008208676094531884
-0.011604166666666665,0.008208676094531884
-0.011541666666666658,0.004519930486347622
-0.011479166666666665,0.008208676094531884
-0.011416666666666672,0.008208676094531884
-0.011354166666666665,0.004519930486347622
-0.011291666666666672,0.004519930486347622
-0.011229166666666665,0.004519930486347622
-0.011166666666666672,0.004519930486347622
-0.011104166666666665,0.004519930486347622
-0.011041666666666672,0.004519930486347622
-0.010979166666666665,0.004519930486347622
-0.010916666666666672,0.008208676094531884
-0.010854166666666665,0.004519930486347622
-0.010791666666666672,0.004519930486347622
-0.010729166666666665,0.004519930486347622
-0.010666666666666672,0.008208676094531884
-0.010604166666666665,0.008208676094531884
-0.010541666666666671,0.004519930486347622
-0.010479166666666664,0.004519930486347622
-0.010416666666666671,0.004519930486347622
-0.010354166666666664,0.004519930486347622
-0.010291666666666671,0.004519930486347622
-0.010229166666666664,0.004519930486347622
-0.010166666666666671,0.004519930486347622
-0.010104166666666664,0.008208676094531884
-0.010041666666666671,0.004519930486347622
-0.009979166666666664,0.004519930486347622
-0.00991666666666667,0.004519930486347622
-0.009854166666666664,0.004519930486347622
-0.00979166666666667,0.008208676094531884
-0.009729166666666664,0.004519930486347622
-0.00966666666666667,0.008208676094531884
-0.009604166666666664,0.004519930486347622
-0.00954166666666667,0.004519930486347622
-0.009479166666666664,0.004519930486347622
-0.00941666666666667,0.008208676094531884
-0.009354166666666663,0.004519930486347622
-0.00929166666666667,0.008208676094531884
-0.009229166666666663,0.008208676094531884
-0.00916666666666667,0.008208676094531884
-0.009104166666666663,0.008208676094531884
-0.00904166666666667,0.008208676094531884
-0.008979166666666663,0.008208676094531884
-0.00891666666666667,0.008208676094531884
-0.008854166666666663,0.008208676094531884
-0.00879166666666667,0.008208676094531884
-0.008729166666666663,0.008208676094531884
-0.00866666666666667,0.008208676094531884
-0.008604166666666663,0.008208676094531884
-0.00854166666666667,0.008208676094531884
-0.008479166666666663,0.004519930486347622
-0.00841666666666667,0.008208676094531884
-0.008354166666666663,0.008208676094531884
-0.00829166666666667,0.008208676094531884
-0.008229166666666662,0.004519930486347622
-0.00816666666666667,0.008208676094531884
-0.008104166666666662,0.004519930486347622
-0.00804166666666667,0.004519930486347622
-0.007979166666666662,0.004519930486347622
-0.007916666666666669,0.004519930486347622
-0.007854166666666662,0.004519930486347622
-0.007791666666666669,0.008208676094531884
-0.007729166666666662,0.008208676094531884
-0.007666666666666669,0.008208676094531884
-0.007604166666666662,0.008208676094531884
-0.007541666666666669,0.008208676094531884
-0.007479166666666662,0.008208676094531884
-0.007416666666666669,0.008208676094531884
-0.007354166666666662,0.008208676094531884
-0.0072916666666666685,0.004519930486347622
-0.0072291666666666615,0.008208676094531884
-0.007166666666666668,0.008208676094531884
-0.007104166666666661,0.004519930486347622
-0.007041666666666668,0.008208676094531884
-0.006979166666666661,0.008208676094531884
-0.006916666666666668,0.008208676094531884
-0.006854166666666661,0.008208676094531884
-0.006791666666666668,0.008208676094531884
-0.006729166666666661,0.008208676094531884
-0.006666666666666668,0.008208676094531884
-0.006604166666666661,0.008208676094531884
-0.006541666666666668,0.008208676094531884
-0.006479166666666661,0.008208676094531884
-0.006416666666666668,0.008208676094531884
-0.006354166666666661,0.008208676094531884
-0.006291666666666668,0.008208676094531884
-0.006229166666666661,0.008208676094531884
-0.0061666666666666675,0.008208676094531884
-0.0061041666666666605,0.008208676094531884
-0.006041666666666667,0.008208676094531884
-0.00597916666666666,0.008208676094531884
-0.005916666666666667,0.008208676094531884
-0.00585416666666666,0.008208676094531884
-0.005791666666666667,0.008208676094531884
-0.00572916666666666,0.008208676094531884
-0.005666666666666667,0.008208676094531884
-0.00560416666666666,0.008208676094531884
-0.005541666666666667,0.008208676094531884
-0.00547916666666666,0.008208676094531884
-0.005416666666666667,0.008208676094531884
-0.00535416666666666,0.008208676094531884
-0.005291666666666667,0.008208676094531884
-0.00522916666666666,0.008208676094531884
-0.005166666666666667,0.008208676094531884
-0.00510416666666666,0.008208676094531884
-0.0050416666666666665,0.008208676094531884
-0.0049791666666666595,0.008208676094531884
-0.004916666666666666,0.008208676094531884
-0.004854166666666659,0.008208676094531884
-0.004791666666666666,0.008208676094531884
-0.004729166666666659,0.008208676094531884
-0.004666666666666666,0.008208676094531884
-0.004604166666666659,0.008208676094531884
-0.004541666666666666,0.008208676094531884
-0.004479166666666659,0.008208676094531884
-0.004416666666666666,0.011897421702716147
-0.004354166666666659,0.008208676094531884
-0.004291666666666666,0.011897421702716147
-0.004229166666666659,0.008208676094531884
-0.004166666666666666,0.008208676094531884
-0.004104166666666659,0.008208676094531884
-0.004041666666666666,0.008208676094531884
-0.003979166666666659,0.008208676094531884
-0.0039166666666666655,0.008208676094531884
-0.0038541666666666585,0.008208676094531884
-0.0037916666666666654,0.008208676094531884
-0.0037291666666666584,0.008208676094531884
-0.0036666666666666653,0.008208676094531884
-0.003604166666666672,0.008208676094531884
-0.003541666666666665,0.008208676094531884
-0.003479166666666672,0.008208676094531884
-0.003416666666666665,0.008208676094531884
-0.003354166666666672,0.008208676094531884
-0.003291666666666665,0.008208676094531884
-0.003229166666666672,0.008208676094531884
-0.003166666666666665,0.008208676094531884
-0.0031041666666666717,0.008208676094531884
-0.0030416666666666647,0.008208676094531884
-0.0029791666666666716,0.008208676094531884
-0.0029166666666666646,0.008208676094531884
-0.0028541666666666715,0.008208676094531884
-0.0027916666666666645,0.008208676094531884
-0.0027291666666666714,0.008208676094531884
-0.0026666666666666644,0.008208676094531884
-0.0026041666666666713,0.008208676094531884
-0.0025416666666666643,0.008208676094531884
-0.002479166666666671,0.008208676094531884
-0.002416666666666664,0.008208676094531884
-0.002354166666666671,0.008208676094531884
-0.002291666666666664,0.008208676094531884
-0.002229166666666671,0.008208676094531884
-0.002166666666666664,0.011897421702716147
-0.002104166666666671,0.008208676094531884
-0.002041666666666664,0.008208676094531884
-0.0019791666666666707,0.008208676094531884
-0.0019166666666666637,0.008208676094531884
-0.0018541666666666706,0.011897421702716147
-0.0017916666666666636,0.008208676094531884
-0.0017291666666666705,0.008208676094531884
-0.0016666666666666635,0.008208676094531884
-0.0016041666666666704,0.008208676094531884
-0.0015416666666666634,0.008208676094531884
-0.0014791666666666703,0.008208676094531884
-0.0014166666666666633,0.008208676094531884
-0.0013541666666666702,0.011897421702716147
-0.0012916666666666632,0.011897421702716147
-0.00122916666666667,0.008208676094531884
-0.001166666666666663,0.011897421702716147
-0.00110416666666667,0.008208676094531884
-0.001041666666666663,0.011897421702716147
-0.0009791666666666698,0.008208676094531884
-0.0009166666666666629,0.008208676094531884
-0.0008541666666666697,0.008208676094531884
-0.0007916666666666627,0.008208676094531884
-0.0007291666666666696,0.008208676094531884
-0.0006666666666666626,0.008208676094531884
-0.0006041666666666695,0.008208676094531884
-0.0005416666666666625,0.008208676094531884
-0.0004791666666666694,0.008208676094531884
-0.0004166666666666624,0.008208676094531884
-0.0003541666666666693,0.011897421702716147
-0.0002916666666666623,0.01558616731090041
-0.00022916666666666918,0.01558616731090041
-0.0001666666666666622,0.01558616731090041
-0.00010416666666666907,0.01558616731090041
-4.166666666666208e-05,0.01558616731090041
2.083333333333104e-05,0.7459577977313844
8.333333333333803e-05,3.346523451501289
0.00014583333333333115,3.3243909778521834
0.00020833333333333814,3.3207022322439994
0.00027083333333333126,3.3207022322439994
0.00033333333333333826,3.3207022322439994
0.00039583333333333137,3.3207022322439994
0.00045833333333333837,3.3207022322439994
0.0005208333333333315,3.3207022322439994
0.0005833333333333385,3.3207022322439994
0.0006458333333333316,3.3207022322439994
0.0007083333333333386,3.3207022322439994
0.0007708333333333317,3.3207022322439994
0.0008333333333333387,3.3207022322439994
0.0008958333333333318,3.3207022322439994
0.0009583333333333388,3.3207022322439994
0.001020833333333332,3.3207022322439994
0.001083333333333339,3.3207022322439994
0.001145833333333332,3.3207022322439994
0.001208333333333339,3.3207022322439994
0.0012708333333333321,3.3207022322439994
0.0013333333333333391,3.3207022322439994
0.0013958333333333323,3.3207022322439994
0.0014583333333333393,3.3207022322439994
0.0015208333333333324,3.3207022322439994
0.0015833333333333394,3.3207022322439994
0.0016458333333333325,3.3207022322439994
0.0017083333333333395,3.3207022322439994
0.0017708333333333326,3.3207022322439994
0.0018333333333333396,3.3207022322439994
0.0018958333333333327,3.3207022322439994
0.0019583333333333397,3.3207022322439994
0.002020833333333333,3.3207022322439994
0.00208333333333334,3.3207022322439994
0.002145833333333333,3.317013486635815
0.00220833333333334,3.3207022322439994
0.002270833333333333,3.3207022322439994
0.00233333333333334,3.3207022322439994
0.002395833333333333,3.3207022322439994
0.00245833333333334,3.3207022322439994
0.0025208333333333333,3.3207022322439994
0.0025833333333333403,3.3207022322439994
0.0026458333333333334,3.3207022322439994
0.0027083333333333404,3.3207022322439994
0.0027708333333333335,3.3207022322439994
0.0028333333333333405,3.3207022322439994
0.0028958333333333336,3.3207022322439994
0.0029583333333333406,3.3207022322439994
0.0030208333333333337,3.3207022322439994
0.0030833333333333407,3.3207022322439994
0.003145833333333334,3.3207022322439994
0.003208333333333341,3.317013486635815
0.003270833333333334,3.317013486635815
0.003333333333333341,3.3207022322439994
0.003395833333333334,3.3207022322439994
0.003458333333333341,3.3207022322439994
0.003520833333333334,3.3207022322439994
0.003583333333333341,3.3207022322439994
0.0036458333333333343,3.317013486635815
0.0037083333333333413,3.317013486635815
0.0037708333333333344,3.3207022322439994
0.0038333333333333414,3.3207022322439994
0.0038958333333333345,3.3207022322439994
0.0039583333333333415,3.3207022322439994
0.004020833333333335,3.3207022322439994
0.004083333333333342,3.317013486635815
0.004145833333333335,3.3207022322439994
0.004208333333333328,3.3207022322439994
0.004270833333333335,3.3207022322439994
0.004333333333333328,3.3207022322439994
0.004395833333333335,3.3207022322439994
0.004458333333333328,3.3207022322439994
0.004520833333333335,3.317013486635815
0.004583333333333328,3.3207022322439994
0.004645833333333335,3.3207022322439994
0.004708333333333328,3.3207022322439994
0.004770833333333335,3.3207022322439994
0.004833333333333328,3.3207022322439994
0.004895833333333335,3.3207022322439994
0.0049583333333333285,3.3207022322439994
0.0050208333333333355,3.3207022322439994
0.005083333333333329,3.3207022322439994
0.005145833333333336,3.3207022322439994
0.005208333333333329,3.3207022322439994
0.005270833333333336,3.3207022322439994
0.005333333333333329,3.3207022322439994
0.005395833333333336,3.3207022322439994
0.005458333333333329,3.3207022322439994
0.005520833333333336,3.3207022322439994
0.005583333333333329,3.3207022322439994
0.005645833333333336,3.3207022322439994
0.005708333333333329,3.3207022322439994
0.005770833333333336,3.3207022322439994
0.005833333333333329,3.3207022322439994
0.005895833333333336,3.317013486635815
0.005958333333333329,3.3207022322439994
0.006020833333333336,3.3207022322439994
0.0060833333333333295,3.3207022322439994
0.0061458333333333365,3.3207022322439994
0.00620833333333333,3.3207022322439994
0.006270833333333337,3.3207022322439994
0.00633333333333333,3.3207022322439994
0.006395833333333337,3.3207022322439994
0.00645833333333333,3.3207022322439994
0.006520833333333337,3.3207022322439994
0.00658333333333333,3.3207022322439994
0.006645833333333337,3.3207022322439994
0.00670833333333333,3.3207022322439994
0.006770833333333337,3.3207022322439994
0.00683333333333333,3.3207022322439994
0.006895833333333337,3.3207022322439994
0.00695833333333333,3.3207022322439994
0.007020833333333337,3.3207022322439994
0.00708333333333333,3.3207022322439994
0.007145833333333337,3.3207022322439994
0.0072083333333333305,3.3207022322439994
0.0072708333333333375,3.3207022322439994
0.007333333333333331,3.3207022322439994
0.007395833333333338,3.3207022322439994
0.007458333333333331,3.3207022322439994
0.007520833333333338,3.3207022322439994
0.007583333333333331,3.3207022322439994
0.007645833333333338,3.3207022322439994
0.007708333333333331,3.3207022322439994
0.007770833333333338,3.3207022322439994
0.007833333333333331,3.3207022322439994
0.007895833333333338,3.3207022322439994
0.007958333333333331,3.3207022322439994
0.008020833333333338,3.3207022322439994
0.008083333333333331,3.3207022322439994
0.008145833333333338,3.3207022322439994
0.008208333333333331,3.3207022322439994
0.008270833333333338,3.3207022322439994
0.008333333333333331,3.3207022322439994
0.008395833333333338,3.3207022322439994
0.008458333333333332,3.3207022322439994
0.008520833333333339,3.3207022322439994
0.008583333333333332,3.3207022322439994
0.008645833333333339,3.3207022322439994
0.008708333333333332,3.3207022322439994
0.008770833333333339,3.317013486635815
0.008833333333333332,3.3207022322439994
0.008895833333333339,3.3207022322439994
0.008958333333333332,3.3207022322439994
0.009020833333333339,3.3207022322439994
0.009083333333333332,3.3207022322439994
0.00914583333333334,3.3207022322439994
0.009208333333333332,3.3207022322439994
0.00927083333333334,3.3207022322439994
0.009333333333333332,3.3207022322439994
0.00939583333333334,3.3207022322439994
0.009458333333333332,3.3207022322439994
0.00952083333333334,3.3207022322439994
0.009583333333333333,3.3207022322439994
0.00964583333333334,3.3207022322439994
0.009708333333333333,3.3207022322439994
0.00977083333333334,3.3207022322439994
0.009833333333333333,3.3207022322439994
0.00989583333333334,3.3207022322439994
0.009958333333333333,3.3207022322439994
0.01002083333333334,3.3207022322439994
0.010083333333333333,3.3207022322439994
0.01014583333333334,3.3207022322439994
0.010208333333333333,3.3207022322439994
0.01027083333333334,3.3207022322439994
0.010333333333333333,3.3207022322439994
0.01039583333333334,3.3207022322439994
0.010458333333333333,3.3207022322439994
0.01052083333333334,3.3207022322439994
0.010583333333333333,3.3207022322439994
0.01064583333333334,3.3207022322439994
0.010708333333333334,3.3207022322439994
0.01077083333333334,3.3207022322439994
0.010833333333333334,3.3207022322439994
0.01089583333333334,3.3207022322439994
0.010958333333333334,3.3207022322439994
0.01102083333333334,3.3207022322439994
0.011083333333333334,3.3207022322439994
0.011145833333333341,3.3207022322439994
0.011208333333333334,3.3207022322439994
0.011270833333333341,3.3207022322439994
0.011333333333333334,3.3207022322439994
0.011395833333333341,3.3207022322439994
0.011458333333333334,3.3207022322439994
0.011520833333333341,3.3207022322439994
