Data/acq0174.csv

#Digilent WaveForms Oscilloscope Acquisition
#Device Name: Discovery2
#Serial Number: SN:210321B282B2
#Date Time: 2026-05-13 12:41:23.766
#Sample rate: 16000Hz
#Samples: 3200
#Trigger: Source: Channel 1 Type: Edge Condition: Rising Level: 500 mV Hyst.: 5 mV HoldOff: 0 s
#Channel 1: Range: 1 V/div Offset: 0 V Sample Mode: Average

Time (s),Channel 1 (V)
-0.01769716646989375,0.004519930486347622
-0.017634666469893742,0.004519930486347622
-0.01757216646989375,0.004519930486347622
-0.017509666469893742,0.004519930486347622
-0.01744716646989375,0.004519930486347622
-0.017384666469893742,0.004519930486347622
-0.01732216646989375,0.004519930486347622
-0.017259666469893742,0.004519930486347622
-0.01719716646989375,0.004519930486347622
-0.017134666469893742,0.008208676094531884
-0.01707216646989375,0.008208676094531884
-0.01700966646989374,0.004519930486347622
-0.01694716646989375,0.008208676094531884
-0.01688466646989374,0.008208676094531884
-0.01682216646989375,0.008208676094531884
-0.01675966646989374,0.004519930486347622
-0.01669716646989375,0.008208676094531884
-0.01663466646989374,0.004519930486347622
-0.016572166469893748,0.008208676094531884
-0.01650966646989374,0.008208676094531884
-0.016447166469893748,0.008208676094531884
-0.01638466646989374,0.008208676094531884
-0.016322166469893748,0.008208676094531884
-0.01625966646989374,0.004519930486347622
-0.016197166469893748,0.004519930486347622
-0.01613466646989374,0.008208676094531884
-0.016072166469893748,0.008208676094531884
-0.01600966646989374,0.008208676094531884
-0.015947166469893748,0.008208676094531884
-0.01588466646989374,0.008208676094531884
-0.015822166469893748,0.008208676094531884
-0.01575966646989374,0.008208676094531884
-0.015697166469893747,0.004519930486347622
-0.01563466646989374,0.004519930486347622
-0.015572166469893747,0.008208676094531884
-0.01550966646989374,0.008208676094531884
-0.015447166469893747,0.008208676094531884
-0.01538466646989374,0.008208676094531884
-0.015322166469893747,0.008208676094531884
-0.01525966646989374,0.004519930486347622
-0.015197166469893747,0.008208676094531884
-0.01513466646989374,0.008208676094531884
-0.015072166469893747,0.008208676094531884
-0.01500966646989374,0.004519930486347622
-0.014947166469893747,0.008208676094531884
-0.01488466646989374,0.008208676094531884
-0.014822166469893747,0.008208676094531884
-0.01475966646989374,0.008208676094531884
-0.014697166469893747,0.008208676094531884
-0.01463466646989374,0.008208676094531884
-0.014572166469893746,0.008208676094531884
-0.01450966646989374,0.008208676094531884
-0.014447166469893746,0.008208676094531884
-0.01438466646989374,0.008208676094531884
-0.014322166469893746,0.008208676094531884
-0.01425966646989374,0.008208676094531884
-0.014197166469893746,0.008208676094531884
-0.014134666469893739,0.008208676094531884
-0.014072166469893746,0.008208676094531884
-0.014009666469893739,0.008208676094531884
-0.013947166469893746,0.008208676094531884
-0.013884666469893739,0.008208676094531884
-0.013822166469893746,0.008208676094531884
-0.013759666469893739,0.008208676094531884
-0.013697166469893746,0.008208676094531884
-0.013634666469893739,0.008208676094531884
-0.013572166469893746,0.008208676094531884
-0.013509666469893739,0.008208676094531884
-0.013447166469893745,0.008208676094531884
-0.013384666469893738,0.008208676094531884
-0.013322166469893745,0.008208676094531884
-0.013259666469893738,0.008208676094531884
-0.013197166469893745,0.008208676094531884
-0.013134666469893738,0.008208676094531884
-0.013072166469893745,0.008208676094531884
-0.013009666469893738,0.008208676094531884
-0.012947166469893745,0.008208676094531884
-0.012884666469893738,0.008208676094531884
-0.012822166469893745,0.008208676094531884
-0.012759666469893738,0.008208676094531884
-0.012697166469893745,0.008208676094531884
-0.012634666469893738,0.008208676094531884
-0.012572166469893745,0.008208676094531884
-0.012509666469893738,0.008208676094531884
-0.012447166469893745,0.008208676094531884
-0.012384666469893738,0.008208676094531884
-0.012322166469893744,0.008208676094531884
-0.012259666469893737,0.008208676094531884
-0.012197166469893744,0.008208676094531884
-0.012134666469893737,0.008208676094531884
-0.012072166469893744,0.008208676094531884
-0.012009666469893737,0.008208676094531884
-0.011947166469893744,0.008208676094531884
-0.011884666469893737,0.008208676094531884
-0.011822166469893744,0.008208676094531884
-0.011759666469893737,0.008208676094531884
-0.011697166469893744,0.008208676094531884
-0.011634666469893737,0.008208676094531884
-0.011572166469893744,0.008208676094531884
-0.011509666469893737,0.008208676094531884
-0.011447166469893744,0.008208676094531884
-0.01138466646989375,0.008208676094531884
-0.011322166469893744,0.008208676094531884
-0.01125966646989375,0.008208676094531884
-0.011197166469893743,0.008208676094531884
-0.01113466646989375,0.008208676094531884
-0.011072166469893743,0.008208676094531884
-0.01100966646989375,0.008208676094531884
-0.010947166469893743,0.008208676094531884
-0.01088466646989375,0.008208676094531884
-0.010822166469893743,0.008208676094531884
-0.01075966646989375,0.008208676094531884
-0.010697166469893743,0.008208676094531884
-0.01063466646989375,0.008208676094531884
-0.010572166469893743,0.008208676094531884
-0.01050966646989375,0.008208676094531884
-0.010447166469893743,0.008208676094531884
-0.01038466646989375,0.008208676094531884
-0.010322166469893743,0.008208676094531884
-0.01025966646989375,0.008208676094531884
-0.010197166469893743,0.008208676094531884
-0.01013466646989375,0.008208676094531884
-0.010072166469893742,0.008208676094531884
-0.01000966646989375,0.008208676094531884
-0.009947166469893742,0.008208676094531884
-0.00988466646989375,0.008208676094531884
-0.009822166469893742,0.008208676094531884
-0.009759666469893749,0.008208676094531884
-0.009697166469893742,0.008208676094531884
-0.009634666469893749,0.008208676094531884
-0.009572166469893742,0.008208676094531884
-0.009509666469893749,0.008208676094531884
-0.009447166469893742,0.008208676094531884
-0.009384666469893749,0.008208676094531884
-0.009322166469893742,0.008208676094531884
-0.009259666469893749,0.008208676094531884
-0.009197166469893742,0.008208676094531884
-0.009134666469893749,0.008208676094531884
-0.009072166469893742,0.008208676094531884
-0.009009666469893748,0.008208676094531884
-0.008947166469893741,0.008208676094531884
-0.008884666469893748,0.011897421702716147
-0.008822166469893741,0.008208676094531884
-0.008759666469893748,0.011897421702716147
-0.008697166469893741,0.008208676094531884
-0.008634666469893748,0.008208676094531884
-0.008572166469893741,0.011897421702716147
-0.008509666469893748,0.008208676094531884
-0.008447166469893741,0.008208676094531884
-0.008384666469893748,0.008208676094531884
-0.008322166469893741,0.008208676094531884
-0.008259666469893748,0.008208676094531884
-0.00819716646989374,0.008208676094531884
-0.008134666469893748,0.008208676094531884
-0.00807216646989374,0.008208676094531884
-0.008009666469893748,0.008208676094531884
-0.00794716646989374,0.008208676094531884
-0.007884666469893747,0.008208676094531884
-0.00782216646989374,0.008208676094531884
-0.007759666469893747,0.008208676094531884
-0.00769716646989374,0.008208676094531884
-0.007634666469893747,0.008208676094531884
-0.00757216646989374,0.008208676094531884
-0.007509666469893747,0.008208676094531884
-0.00744716646989374,0.008208676094531884
-0.007384666469893747,0.008208676094531884
-0.00732216646989374,0.008208676094531884
-0.007259666469893747,0.008208676094531884
-0.00719716646989374,0.008208676094531884
-0.007134666469893747,0.008208676094531884
-0.00707216646989374,0.008208676094531884
-0.007009666469893747,0.008208676094531884
-0.00694716646989374,0.008208676094531884
-0.0068846664698937465,0.008208676094531884
-0.0068221664698937395,0.008208676094531884
-0.006759666469893746,0.008208676094531884
-0.006697166469893739,0.008208676094531884
-0.006634666469893746,0.008208676094531884
-0.006572166469893739,0.008208676094531884
-0.006509666469893746,0.008208676094531884
-0.006447166469893739,0.008208676094531884
-0.006384666469893746,0.008208676094531884
-0.006322166469893739,0.008208676094531884
-0.006259666469893746,0.008208676094531884
-0.006197166469893739,0.008208676094531884
-0.006134666469893746,0.008208676094531884
-0.006072166469893739,0.008208676094531884
-0.006009666469893746,0.008208676094531884
-0.005947166469893739,0.008208676094531884
-0.005884666469893746,0.008208676094531884
-0.005822166469893739,0.008208676094531884
-0.0057596664698937455,0.008208676094531884
-0.0056971664698937385,0.008208676094531884
-0.005634666469893745,0.008208676094531884
-0.005572166469893738,0.008208676094531884
-0.005509666469893745,0.008208676094531884
-0.005447166469893738,0.008208676094531884
-0.005384666469893745,0.008208676094531884
-0.005322166469893738,0.008208676094531884
-0.005259666469893745,0.008208676094531884
-0.005197166469893738,0.008208676094531884
-0.005134666469893745,0.008208676094531884
-0.005072166469893738,0.008208676094531884
-0.005009666469893745,0.008208676094531884
-0.004947166469893738,0.008208676094531884
-0.004884666469893745,0.008208676094531884
-0.004822166469893738,0.008208676094531884
-0.004759666469893745,0.008208676094531884
-0.004697166469893738,0.008208676094531884
-0.0046346664698937445,0.008208676094531884
-0.0045721664698937375,0.008208676094531884
-0.004509666469893744,0.008208676094531884
-0.004447166469893737,0.008208676094531884
-0.004384666469893744,0.008208676094531884
-0.004322166469893737,0.008208676094531884
-0.004259666469893744,0.008208676094531884
-0.004197166469893737,0.008208676094531884
-0.004134666469893744,0.008208676094531884
-0.004072166469893737,0.008208676094531884
-0.004009666469893744,0.004519930486347622
-0.003947166469893737,0.008208676094531884
-0.003884666469893744,0.004519930486347622
-0.003822166469893737,0.008208676094531884
-0.0037596664698937438,0.008208676094531884
-0.0036971664698937368,0.008208676094531884
-0.0036346664698937436,0.008208676094531884
-0.0035721664698937505,0.008208676094531884
-0.0035096664698937435,0.008208676094531884
-0.0034471664698937504,0.008208676094531884
-0.0033846664698937434,0.008208676094531884
-0.0033221664698937503,0.008208676094531884
-0.0032596664698937433,0.008208676094531884
-0.00319716646989375,0.008208676094531884
-0.003134666469893743,0.008208676094531884
-0.00307216646989375,0.008208676094531884
-0.003009666469893743,0.008208676094531884
-0.00294716646989375,0.008208676094531884
-0.002884666469893743,0.008208676094531884
-0.00282216646989375,0.008208676094531884
-0.002759666469893743,0.008208676094531884
-0.0026971664698937498,0.008208676094531884
-0.0026346664698937428,0.008208676094531884
-0.0025721664698937496,0.008208676094531884
-0.0025096664698937426,0.008208676094531884
-0.0024471664698937495,0.008208676094531884
-0.0023846664698937425,0.008208676094531884
-0.0023221664698937494,0.008208676094531884
-0.0022596664698937424,0.008208676094531884
-0.0021971664698937493,0.008208676094531884
-0.0021346664698937423,0.008208676094531884
-0.002072166469893749,0.008208676094531884
-0.002009666469893742,0.008208676094531884
-0.001947166469893749,0.008208676094531884
-0.001884666469893742,0.008208676094531884
-0.001822166469893749,0.008208676094531884
-0.001759666469893742,0.008208676094531884
-0.0016971664698937489,0.008208676094531884
-0.0016346664698937419,0.008208676094531884
-0.0015721664698937488,0.008208676094531884
-0.0015096664698937418,0.008208676094531884
-0.0014471664698937486,0.008208676094531884
-0.0013846664698937416,0.008208676094531884
-0.0013221664698937485,0.008208676094531884
-0.0012596664698937415,0.008208676094531884
-0.0011971664698937484,0.008208676094531884
-0.0011346664698937414,0.008208676094531884
-0.0010721664698937483,0.008208676094531884
-0.0010096664698937413,0.008208676094531884
-0.0009471664698937482,0.008208676094531884
-0.0008846664698937412,0.008208676094531884
-0.0008221664698937481,0.008208676094531884
-0.0007596664698937411,0.008208676094531884
-0.000697166469893748,0.008208676094531884
-0.000634666469893741,0.004519930486347622
-0.0005721664698937479,0.008208676094531884
-0.0005096664698937409,0.008208676094531884
-0.00044716646989374775,0.008208676094531884
-0.00038466646989374076,0.008208676094531884
-0.00032216646989374764,0.008208676094531884
-0.00025966646989374065,0.008208676094531884
-0.00019716646989374753,0.01558616731090041
-0.00013466646989374054,0.01558616731090041
-7.216646989374742e-05,0.01558616731090041
-9.666469893740426e-06,0.01927491291908467
5.283353010625269e-05,3.1436424430511547
0.00011533353010625969,3.328079723460368
0.0001778335301062528,3.3207022322439994
0.0002403335301062598,3.3207022322439994
0.0003028335301062529,3.3207022322439994
0.0003653335301062599,3.3207022322439994
0.000427833530106253,3.3207022322439994
0.00049033353010626,3.3207022322439994
0.0005528335301062531,3.3207022322439994
0.0006153335301062601,3.3207022322439994
0.0006778335301062532,3.3207022322439994
0.0007403335301062602,3.3207022322439994
0.0008028335301062534,3.3207022322439994
0.0008653335301062604,3.3207022322439994
0.0009278335301062535,3.3207022322439994
0.0009903335301062605,3.3207022322439994
0.0010528335301062536,3.3207022322439994
0.0011153335301062606,3.3207022322439994
0.0011778335301062537,3.3207022322439994
0.0012403335301062607,3.3207022322439994
0.0013028335301062538,3.3207022322439994
0.0013653335301062608,3.3207022322439994
0.001427833530106254,3.3207022322439994
0.001490333530106261,3.3207022322439994
0.001552833530106254,3.3207022322439994
0.001615333530106261,3.3207022322439994
0.0016778335301062541,3.3207022322439994
0.0017403335301062611,3.3207022322439994
0.0018028335301062542,3.3207022322439994
0.0018653335301062612,3.3207022322439994
0.0019278335301062544,3.3207022322439994
0.0019903335301062614,3.3207022322439994
0.0020528335301062545,3.3207022322439994
0.0021153335301062615,3.3207022322439994
0.0021778335301062546,3.3207022322439994
0.0022403335301062616,3.3207022322439994
0.0023028335301062547,3.3207022322439994
0.0023653335301062617,3.3207022322439994
0.002427833530106255,3.3207022322439994
0.002490333530106262,3.3207022322439994
0.002552833530106255,3.3207022322439994
0.002615333530106262,3.3207022322439994
0.002677833530106255,3.3207022322439994
0.002740333530106262,3.3207022322439994
0.002802833530106255,3.3207022322439994
0.002865333530106262,3.3207022322439994
0.0029278335301062552,3.3207022322439994
0.0029903335301062622,3.3207022322439994
0.0030528335301062554,3.3207022322439994
0.0031153335301062623,3.3207022322439994
0.0031778335301062555,3.3207022322439994
0.0032403335301062625,3.3207022322439994
0.0033028335301062556,3.3207022322439994
0.0033653335301062626,3.3207022322439994
0.0034278335301062557,3.3207022322439994
0.0034903335301062627,3.3207022322439994
0.003552833530106256,3.3207022322439994
0.003615333530106263,3.3207022322439994
0.003677833530106256,3.3207022322439994
0.003740333530106263,3.3207022322439994
0.003802833530106256,3.3207022322439994
0.003865333530106263,3.3207022322439994
0.003927833530106256,3.3207022322439994
0.003990333530106263,3.3207022322439994
0.004052833530106256,3.3207022322439994
0.004115333530106263,3.3207022322439994
0.004177833530106256,3.3207022322439994
0.0042403335301062495,3.3207022322439994
0.0043028335301062565,3.3207022322439994
0.00436533353010625,3.3207022322439994
0.004427833530106257,3.3207022322439994
0.00449033353010625,3.3207022322439994
0.004552833530106257,3.3207022322439994
0.00461533353010625,3.3207022322439994
0.004677833530106257,3.3207022322439994
0.00474033353010625,3.3207022322439994
0.004802833530106257,3.3207022322439994
0.00486533353010625,3.3207022322439994
0.004927833530106257,3.3207022322439994
0.00499033353010625,3.3207022322439994
0.005052833530106257,3.3207022322439994
0.00511533353010625,3.3207022322439994
0.005177833530106257,3.3207022322439994
0.00524033353010625,3.3207022322439994
0.005302833530106257,3.3207022322439994
0.0053653335301062505,3.3207022322439994
0.0054278335301062575,3.3207022322439994
0.005490333530106251,3.3207022322439994
0.005552833530106258,3.3207022322439994
0.005615333530106251,3.3207022322439994
0.005677833530106258,3.3207022322439994
0.005740333530106251,3.3207022322439994
0.005802833530106258,3.3207022322439994
0.005865333530106251,3.3207022322439994
0.005927833530106258,3.3207022322439994
0.005990333530106251,3.3207022322439994
0.006052833530106258,3.3207022322439994
0.006115333530106251,3.3207022322439994
0.006177833530106258,3.3207022322439994
0.006240333530106251,3.3207022322439994
0.006302833530106258,3.3207022322439994
0.006365333530106251,3.3207022322439994
0.006427833530106258,3.3207022322439994
0.0064903335301062515,3.3207022322439994
0.0065528335301062585,3.3207022322439994
0.006615333530106252,3.3207022322439994
0.006677833530106259,3.3207022322439994
0.006740333530106252,3.3207022322439994
0.006802833530106259,3.3207022322439994
0.006865333530106252,3.3207022322439994
0.006927833530106259,3.3207022322439994
0.006990333530106252,3.3207022322439994
0.007052833530106259,3.3207022322439994
0.007115333530106252,3.3207022322439994
0.007177833530106259,3.3207022322439994
0.007240333530106252,3.3207022322439994
0.007302833530106259,3.3207022322439994
0.007365333530106252,3.3207022322439994
0.007427833530106259,3.3207022322439994
0.007490333530106252,3.3207022322439994
0.007552833530106259,3.3207022322439994
0.0076153335301062525,3.3207022322439994
0.0076778335301062595,3.3207022322439994
0.007740333530106253,3.3207022322439994
0.00780283353010626,3.3207022322439994
0.007865333530106253,3.3207022322439994
0.00792783353010626,3.3207022322439994
0.007990333530106253,3.317013486635815
0.00805283353010626,3.3207022322439994
0.008115333530106253,3.317013486635815
0.00817783353010626,3.3207022322439994
0.008240333530106253,3.3207022322439994
0.00830283353010626,3.3207022322439994
0.008365333530106253,3.3207022322439994
0.00842783353010626,3.3207022322439994
0.008490333530106253,3.317013486635815
0.00855283353010626,3.317013486635815
0.008615333530106253,3.3207022322439994
0.00867783353010626,3.3207022322439994
0.008740333530106253,3.3207022322439994
0.00880283353010626,3.3207022322439994
0.008865333530106254,3.3207022322439994
0.00892783353010626,3.3207022322439994
0.008990333530106254,3.3207022322439994
0.00905283353010626,3.3207022322439994
0.009115333530106254,3.3207022322439994
0.00917783353010626,3.3207022322439994
0.009240333530106254,3.3207022322439994
0.009302833530106261,3.3207022322439994
0.009365333530106254,3.317013486635815
0.009427833530106261,3.3207022322439994
0.009490333530106254,3.3207022322439994
0.009552833530106261,3.317013486635815
0.009615333530106254,3.3207022322439994
0.009677833530106261,3.317013486635815
0.009740333530106254,3.317013486635815
0.009802833530106261,3.3207022322439994
0.009865333530106254,3.3207022322439994
0.009927833530106261,3.3207022322439994
0.009990333530106255,3.3207022322439994
0.010052833530106262,3.3207022322439994
0.010115333530106255,3.3207022322439994
0.010177833530106262,3.3207022322439994
0.010240333530106255,3.3207022322439994
0.010302833530106262,3.3207022322439994
0.010365333530106255,3.3207022322439994
0.010427833530106262,3.3207022322439994
0.010490333530106255,3.3207022322439994
0.010552833530106262,3.3207022322439994
0.010615333530106255,3.3207022322439994
0.010677833530106262,3.3207022322439994
0.010740333530106255,3.3207022322439994
0.010802833530106262,3.3207022322439994
0.010865333530106255,3.3207022322439994
0.010927833530106262,3.3207022322439994
0.010990333530106255,3.3207022322439994
0.011052833530106262,3.3207022322439994
0.011115333530106256,3.3207022322439994
0.011177833530106263,3.3207022322439994
0.011240333530106256,3.3207022322439994
0.011302833530106263,3.3207022322439994
0.011365333530106256,3.3207022322439994
0.011427833530106263,3.3207022322439994
0.011490333530106256,3.3207022322439994
0.011552833530106263,3.3207022322439994
