Data/acq0170.csv

#Digilent WaveForms Oscilloscope Acquisition
#Device Name: Discovery2
#Serial Number: SN:210321B282B2
#Date Time: 2026-05-13 12:41:22.468
#Sample rate: 16000Hz
#Samples: 3200
#Trigger: Source: Channel 1 Type: Edge Condition: Rising Level: 500 mV Hyst.: 5 mV HoldOff: 0 s
#Channel 1: Range: 1 V/div Offset: 0 V Sample Mode: Average

Time (s),Channel 1 (V)
-0.01769130170316302,0.008208676094531884
-0.017628801703163013,0.008208676094531884
-0.01756630170316302,0.008208676094531884
-0.017503801703163013,0.008208676094531884
-0.01744130170316302,0.008208676094531884
-0.017378801703163013,0.008208676094531884
-0.01731630170316302,0.008208676094531884
-0.017253801703163013,0.008208676094531884
-0.01719130170316302,0.008208676094531884
-0.017128801703163013,0.008208676094531884
-0.01706630170316302,0.008208676094531884
-0.017003801703163013,0.008208676094531884
-0.01694130170316302,0.008208676094531884
-0.016878801703163013,0.008208676094531884
-0.01681630170316302,0.008208676094531884
-0.016753801703163013,0.008208676094531884
-0.01669130170316302,0.008208676094531884
-0.016628801703163013,0.008208676094531884
-0.01656630170316302,0.008208676094531884
-0.016503801703163012,0.008208676094531884
-0.01644130170316302,0.008208676094531884
-0.016378801703163012,0.008208676094531884
-0.01631630170316302,0.008208676094531884
-0.016253801703163012,0.008208676094531884
-0.01619130170316302,0.008208676094531884
-0.016128801703163012,0.008208676094531884
-0.01606630170316302,0.008208676094531884
-0.016003801703163012,0.008208676094531884
-0.01594130170316302,0.008208676094531884
-0.015878801703163012,0.008208676094531884
-0.01581630170316302,0.008208676094531884
-0.015753801703163012,0.008208676094531884
-0.01569130170316302,0.008208676094531884
-0.01562880170316301,0.008208676094531884
-0.015566301703163019,0.008208676094531884
-0.015503801703163012,0.008208676094531884
-0.015441301703163018,0.008208676094531884
-0.015378801703163011,0.008208676094531884
-0.015316301703163018,0.008208676094531884
-0.015253801703163011,0.008208676094531884
-0.015191301703163018,0.008208676094531884
-0.015128801703163011,0.008208676094531884
-0.015066301703163018,0.008208676094531884
-0.015003801703163011,0.008208676094531884
-0.014941301703163018,0.008208676094531884
-0.014878801703163011,0.008208676094531884
-0.014816301703163018,0.008208676094531884
-0.014753801703163011,0.008208676094531884
-0.014691301703163018,0.008208676094531884
-0.01462880170316301,0.008208676094531884
-0.014566301703163018,0.008208676094531884
-0.01450380170316301,0.008208676094531884
-0.014441301703163018,0.008208676094531884
-0.01437880170316301,0.008208676094531884
-0.014316301703163017,0.008208676094531884
-0.01425380170316301,0.008208676094531884
-0.014191301703163017,0.008208676094531884
-0.01412880170316301,0.008208676094531884
-0.014066301703163017,0.008208676094531884
-0.01400380170316301,0.008208676094531884
-0.013941301703163017,0.008208676094531884
-0.01387880170316301,0.008208676094531884
-0.013816301703163017,0.008208676094531884
-0.01375380170316301,0.008208676094531884
-0.013691301703163017,0.008208676094531884
-0.01362880170316301,0.008208676094531884
-0.013566301703163017,0.008208676094531884
-0.01350380170316301,0.008208676094531884
-0.013441301703163017,0.008208676094531884
-0.01337880170316301,0.008208676094531884
-0.013316301703163017,0.008208676094531884
-0.01325380170316301,0.008208676094531884
-0.013191301703163016,0.008208676094531884
-0.01312880170316301,0.008208676094531884
-0.013066301703163016,0.008208676094531884
-0.01300380170316301,0.008208676094531884
-0.012941301703163016,0.008208676094531884
-0.01287880170316301,0.008208676094531884
-0.012816301703163016,0.008208676094531884
-0.012753801703163009,0.008208676094531884
-0.012691301703163016,0.008208676094531884
-0.012628801703163009,0.008208676094531884
-0.012566301703163016,0.008208676094531884
-0.012503801703163009,0.008208676094531884
-0.012441301703163016,0.008208676094531884
-0.012378801703163009,0.008208676094531884
-0.012316301703163016,0.008208676094531884
-0.012253801703163009,0.008208676094531884
-0.012191301703163016,0.008208676094531884
-0.012128801703163009,0.008208676094531884
-0.012066301703163015,0.008208676094531884
-0.012003801703163008,0.008208676094531884
-0.011941301703163015,0.011897421702716147
-0.011878801703163008,0.008208676094531884
-0.011816301703163015,0.008208676094531884
-0.011753801703163008,0.008208676094531884
-0.011691301703163015,0.011897421702716147
-0.011628801703163008,0.008208676094531884
-0.011566301703163015,0.011897421702716147
-0.011503801703163008,0.008208676094531884
-0.011441301703163015,0.008208676094531884
-0.011378801703163022,0.008208676094531884
-0.011316301703163015,0.008208676094531884
-0.011253801703163022,0.011897421702716147
-0.011191301703163015,0.008208676094531884
-0.011128801703163022,0.008208676094531884
-0.011066301703163015,0.008208676094531884
-0.011003801703163021,0.008208676094531884
-0.010941301703163014,0.008208676094531884
-0.010878801703163021,0.008208676094531884
-0.010816301703163014,0.008208676094531884
-0.010753801703163021,0.008208676094531884
-0.010691301703163014,0.008208676094531884
-0.010628801703163021,0.008208676094531884
-0.010566301703163014,0.008208676094531884
-0.010503801703163021,0.008208676094531884
-0.010441301703163014,0.008208676094531884
-0.01037880170316302,0.008208676094531884
-0.010316301703163014,0.008208676094531884
-0.01025380170316302,0.008208676094531884
-0.010191301703163014,0.008208676094531884
-0.01012880170316302,0.008208676094531884
-0.010066301703163014,0.008208676094531884
-0.01000380170316302,0.008208676094531884
-0.009941301703163014,0.008208676094531884
-0.00987880170316302,0.008208676094531884
-0.009816301703163013,0.008208676094531884
-0.00975380170316302,0.008208676094531884
-0.009691301703163013,0.008208676094531884
-0.00962880170316302,0.008208676094531884
-0.009566301703163013,0.008208676094531884
-0.00950380170316302,0.008208676094531884
-0.009441301703163013,0.008208676094531884
-0.00937880170316302,0.008208676094531884
-0.009316301703163013,0.008208676094531884
-0.00925380170316302,0.008208676094531884
-0.009191301703163013,0.008208676094531884
-0.00912880170316302,0.008208676094531884
-0.009066301703163013,0.008208676094531884
-0.00900380170316302,0.008208676094531884
-0.008941301703163013,0.008208676094531884
-0.00887880170316302,0.008208676094531884
-0.008816301703163013,0.008208676094531884
-0.00875380170316302,0.008208676094531884
-0.008691301703163012,0.008208676094531884
-0.00862880170316302,0.008208676094531884
-0.008566301703163012,0.008208676094531884
-0.00850380170316302,0.008208676094531884
-0.008441301703163012,0.008208676094531884
-0.008378801703163019,0.008208676094531884
-0.008316301703163012,0.008208676094531884
-0.008253801703163019,0.008208676094531884
-0.008191301703163012,0.008208676094531884
-0.008128801703163019,0.008208676094531884
-0.008066301703163012,0.008208676094531884
-0.008003801703163019,0.008208676094531884
-0.007941301703163012,0.008208676094531884
-0.007878801703163019,0.008208676094531884
-0.007816301703163012,0.008208676094531884
-0.0077538017031630185,0.008208676094531884
-0.0076913017031630115,0.008208676094531884
-0.007628801703163018,0.008208676094531884
-0.007566301703163011,0.008208676094531884
-0.007503801703163018,0.008208676094531884
-0.007441301703163011,0.008208676094531884
-0.007378801703163018,0.008208676094531884
-0.007316301703163011,0.008208676094531884
-0.007253801703163018,0.008208676094531884
-0.007191301703163011,0.008208676094531884
-0.007128801703163018,0.008208676094531884
-0.007066301703163011,0.008208676094531884
-0.007003801703163018,0.008208676094531884
-0.006941301703163011,0.008208676094531884
-0.006878801703163018,0.008208676094531884
-0.006816301703163011,0.008208676094531884
-0.006753801703163018,0.008208676094531884
-0.006691301703163011,0.008208676094531884
-0.0066288017031630175,0.004519930486347622
-0.0065663017031630105,0.008208676094531884
-0.006503801703163017,0.008208676094531884
-0.00644130170316301,0.008208676094531884
-0.006378801703163017,0.008208676094531884
-0.00631630170316301,0.004519930486347622
-0.006253801703163017,0.004519930486347622
-0.00619130170316301,0.008208676094531884
-0.006128801703163017,0.008208676094531884
-0.00606630170316301,0.008208676094531884
-0.006003801703163017,0.008208676094531884
-0.00594130170316301,0.008208676094531884
-0.005878801703163017,0.008208676094531884
-0.00581630170316301,0.008208676094531884
-0.005753801703163017,0.008208676094531884
-0.00569130170316301,0.008208676094531884
-0.005628801703163017,0.008208676094531884
-0.00556630170316301,0.008208676094531884
-0.0055038017031630165,0.008208676094531884
-0.0054413017031630095,0.008208676094531884
-0.005378801703163016,0.008208676094531884
-0.005316301703163009,0.008208676094531884
-0.005253801703163016,0.008208676094531884
-0.005191301703163009,0.008208676094531884
-0.005128801703163016,0.008208676094531884
-0.005066301703163009,0.008208676094531884
-0.005003801703163016,0.008208676094531884
-0.004941301703163009,0.008208676094531884
-0.004878801703163016,0.008208676094531884
-0.004816301703163009,0.008208676094531884
-0.004753801703163016,0.008208676094531884
-0.004691301703163009,0.008208676094531884
-0.004628801703163016,0.008208676094531884
-0.004566301703163009,0.008208676094531884
-0.004503801703163016,0.008208676094531884
-0.004441301703163009,0.008208676094531884
-0.0043788017031630155,0.008208676094531884
-0.0043163017031630085,0.008208676094531884
-0.004253801703163015,0.008208676094531884
-0.004191301703163008,0.008208676094531884
-0.004128801703163015,0.008208676094531884
-0.004066301703163008,0.008208676094531884
-0.004003801703163015,0.008208676094531884
-0.003941301703163008,0.008208676094531884
-0.003878801703163015,0.008208676094531884
-0.003816301703163008,0.008208676094531884
-0.003753801703163015,0.008208676094531884
-0.003691301703163008,0.008208676094531884
-0.003628801703163015,0.008208676094531884
-0.0035663017031630218,0.008208676094531884
-0.0035038017031630148,0.008208676094531884
-0.0034413017031630216,0.008208676094531884
-0.0033788017031630146,0.008208676094531884
-0.0033163017031630215,0.008208676094531884
-0.0032538017031630145,0.008208676094531884
-0.0031913017031630214,0.008208676094531884
-0.0031288017031630144,0.008208676094531884
-0.0030663017031630213,0.008208676094531884
-0.0030038017031630143,0.008208676094531884
-0.002941301703163021,0.008208676094531884
-0.002878801703163014,0.008208676094531884
-0.002816301703163021,0.008208676094531884
-0.002753801703163014,0.008208676094531884
-0.002691301703163021,0.008208676094531884
-0.002628801703163014,0.008208676094531884
-0.002566301703163021,0.008208676094531884
-0.002503801703163014,0.008208676094531884
-0.0024413017031630208,0.008208676094531884
-0.0023788017031630138,0.008208676094531884
-0.0023163017031630206,0.004519930486347622
-0.0022538017031630136,0.008208676094531884
-0.0021913017031630205,0.004519930486347622
-0.0021288017031630135,0.004519930486347622
-0.0020663017031630204,0.008208676094531884
-0.0020038017031630134,0.004519930486347622
-0.0019413017031630203,0.008208676094531884
-0.0018788017031630133,0.008208676094531884
-0.0018163017031630202,0.008208676094531884
-0.0017538017031630132,0.008208676094531884
-0.00169130170316302,0.008208676094531884
-0.001628801703163013,0.008208676094531884
-0.00156630170316302,0.008208676094531884
-0.001503801703163013,0.008208676094531884
-0.0014413017031630199,0.008208676094531884
-0.0013788017031630129,0.008208676094531884
-0.0013163017031630198,0.008208676094531884
-0.0012538017031630128,0.008208676094531884
-0.0011913017031630196,0.004519930486347622
-0.0011288017031630126,0.008208676094531884
-0.0010663017031630195,0.004519930486347622
-0.0010038017031630125,0.004519930486347622
-0.0009413017031630194,0.004519930486347622
-0.0008788017031630124,0.008208676094531884
-0.0008163017031630193,0.008208676094531884
-0.0007538017031630123,0.008208676094531884
-0.0006913017031630192,0.008208676094531884
-0.0006288017031630122,0.008208676094531884
-0.0005663017031630191,0.008208676094531884
-0.0005038017031630121,0.008208676094531884
-0.000441301703163019,0.008208676094531884
-0.000378801703163012,0.008208676094531884
-0.00031630170316301887,0.008208676094531884
-0.00025380170316301187,0.008208676094531884
-0.00019130170316301875,0.008208676094531884
-0.00012880170316301176,0.008208676094531884
-6.630170316301864e-05,0.008208676094531884
-3.8017031630116493e-06,0.3180633071820099
5.869829683698147e-05,3.3502121971094736
0.00012119829683698846,3.328079723460368
0.00018369829683698158,3.3207022322439994
0.00024619829683698857,3.3207022322439994
0.0003086982968369817,3.3207022322439994
0.0003711982968369887,3.3207022322439994
0.0004336982968369818,3.3207022322439994
0.0004961982968369888,3.3207022322439994
0.0005586982968369819,3.3207022322439994
0.0006211982968369889,3.3207022322439994
0.000683698296836982,3.3207022322439994
0.000746198296836989,3.3207022322439994
0.0008086982968369821,3.3207022322439994
0.0008711982968369891,3.3207022322439994
0.0009336982968369822,3.3207022322439994
0.0009961982968369892,3.3207022322439994
0.0010586982968369824,3.3207022322439994
0.0011211982968369893,3.3207022322439994
0.0011836982968369825,3.3207022322439994
0.0012461982968369895,3.3207022322439994
0.0013086982968369826,3.3207022322439994
0.0013711982968369896,3.3207022322439994
0.0014336982968369827,3.3207022322439994
0.0014961982968369897,3.3207022322439994
0.0015586982968369828,3.3207022322439994
0.0016211982968369898,3.3207022322439994
0.001683698296836983,3.3207022322439994
0.00174619829683699,3.3207022322439994
0.001808698296836983,3.3207022322439994
0.00187119829683699,3.3207022322439994
0.0019336982968369831,3.3207022322439994
0.00199619829683699,3.317013486635815
0.0020586982968369832,3.3207022322439994
0.0021211982968369902,3.3207022322439994
0.0021836982968369834,3.3207022322439994
0.0022461982968369903,3.3207022322439994
0.0023086982968369835,3.3207022322439994
0.0023711982968369905,3.3207022322439994
0.0024336982968369836,3.317013486635815
0.0024961982968369906,3.3207022322439994
0.0025586982968369837,3.3207022322439994
0.0026211982968369907,3.3207022322439994
0.002683698296836984,3.3207022322439994
0.002746198296836991,3.3207022322439994
0.002808698296836984,3.3207022322439994
0.002871198296836991,3.3207022322439994
0.002933698296836984,3.3207022322439994
0.002996198296836991,3.3207022322439994
0.003058698296836984,3.3207022322439994
0.003121198296836991,3.3207022322439994
0.0031836982968369842,3.3207022322439994
0.0032461982968369912,3.3207022322439994
0.0033086982968369844,3.3207022322439994
0.0033711982968369913,3.3207022322439994
0.0034336982968369845,3.3207022322439994
0.0034961982968369915,3.3207022322439994
0.0035586982968369846,3.3207022322439994
0.0036211982968369916,3.3207022322439994
0.0036836982968369847,3.317013486635815
0.0037461982968369917,3.317013486635815
0.003808698296836985,3.3207022322439994
0.003871198296836992,3.3207022322439994
0.003933698296836985,3.3207022322439994
0.003996198296836992,3.3207022322439994
0.004058698296836985,3.3207022322439994
0.004121198296836992,3.3207022322439994
0.004183698296836985,3.3207022322439994
0.004246198296836978,3.3207022322439994
0.004308698296836985,3.317013486635815
0.004371198296836978,3.3207022322439994
0.004433698296836985,3.3207022322439994
0.0044961982968369785,3.3207022322439994
0.0045586982968369855,3.317013486635815
0.004621198296836979,3.3207022322439994
0.004683698296836986,3.317013486635815
0.004746198296836979,3.317013486635815
0.004808698296836986,3.3207022322439994
0.004871198296836979,3.317013486635815
0.004933698296836986,3.317013486635815
0.004996198296836979,3.3207022322439994
0.005058698296836986,3.3207022322439994
0.005121198296836979,3.3207022322439994
0.005183698296836986,3.3207022322439994
0.005246198296836979,3.3207022322439994
0.005308698296836986,3.3207022322439994
0.005371198296836979,3.3207022322439994
0.005433698296836986,3.3207022322439994
0.005496198296836979,3.3207022322439994
0.005558698296836986,3.3207022322439994
0.0056211982968369795,3.3207022322439994
0.0056836982968369865,3.3207022322439994
0.00574619829683698,3.3207022322439994
0.005808698296836987,3.3207022322439994
0.00587119829683698,3.3207022322439994
0.005933698296836987,3.3207022322439994
0.00599619829683698,3.3207022322439994
0.006058698296836987,3.3207022322439994
0.00612119829683698,3.3207022322439994
0.006183698296836987,3.3207022322439994
0.00624619829683698,3.3207022322439994
0.006308698296836987,3.3207022322439994
0.00637119829683698,3.3207022322439994
0.006433698296836987,3.3207022322439994
0.00649619829683698,3.3207022322439994
0.006558698296836987,3.3207022322439994
0.00662119829683698,3.3207022322439994
0.006683698296836987,3.317013486635815
0.0067461982968369805,3.317013486635815
0.0068086982968369875,3.3207022322439994
0.006871198296836981,3.3207022322439994
0.006933698296836988,3.3207022322439994
0.006996198296836981,3.317013486635815
0.007058698296836988,3.317013486635815
0.007121198296836981,3.3207022322439994
0.007183698296836988,3.3207022322439994
0.007246198296836981,3.3207022322439994
0.007308698296836988,3.3207022322439994
0.007371198296836981,3.3207022322439994
0.007433698296836988,3.3207022322439994
0.007496198296836981,3.3207022322439994
0.007558698296836988,3.317013486635815
0.007621198296836981,3.317013486635815
0.007683698296836988,3.3207022322439994
0.007746198296836981,3.3207022322439994
0.007808698296836988,3.3207022322439994
0.007871198296836981,3.3207022322439994
0.007933698296836988,3.3207022322439994
0.007996198296836982,3.3207022322439994
0.008058698296836989,3.3207022322439994
0.008121198296836982,3.3207022322439994
0.008183698296836989,3.3207022322439994
0.008246198296836982,3.3207022322439994
0.008308698296836989,3.3207022322439994
0.008371198296836982,3.3207022322439994
0.008433698296836989,3.3207022322439994
0.008496198296836982,3.3207022322439994
0.008558698296836989,3.3207022322439994
0.008621198296836982,3.3207022322439994
0.008683698296836989,3.3207022322439994
0.008746198296836982,3.3207022322439994
0.00880869829683699,3.3207022322439994
0.008871198296836982,3.3207022322439994
0.00893369829683699,3.3207022322439994
0.008996198296836982,3.3207022322439994
0.00905869829683699,3.3207022322439994
0.009121198296836983,3.3207022322439994
0.00918369829683699,3.3207022322439994
0.009246198296836983,3.3207022322439994
0.00930869829683699,3.3207022322439994
0.009371198296836983,3.3207022322439994
0.00943369829683699,3.317013486635815
0.009496198296836983,3.3207022322439994
0.00955869829683699,3.3207022322439994
0.009621198296836983,3.317013486635815
0.00968369829683699,3.3207022322439994
0.009746198296836983,3.3207022322439994
0.00980869829683699,3.317013486635815
0.009871198296836983,3.3207022322439994
0.00993369829683699,3.3207022322439994
0.009996198296836983,3.3207022322439994
0.01005869829683699,3.3207022322439994
0.010121198296836983,3.3207022322439994
0.01018369829683699,3.3207022322439994
0.010246198296836984,3.3207022322439994
0.01030869829683699,3.3207022322439994
0.010371198296836984,3.3207022322439994
0.01043369829683699,3.3207022322439994
0.010496198296836984,3.3207022322439994
0.01055869829683699,3.3207022322439994
0.010621198296836984,3.3207022322439994
0.010683698296836991,3.3207022322439994
0.010746198296836984,3.3207022322439994
0.010808698296836991,3.3207022322439994
0.010871198296836984,3.3207022322439994
0.010933698296836991,3.3207022322439994
0.010996198296836984,3.3207022322439994
0.011058698296836991,3.3207022322439994
0.011121198296836984,3.317013486635815
0.011183698296836991,3.317013486635815
0.011246198296836984,3.3207022322439994
0.011308698296836991,3.3207022322439994
0.011371198296836985,3.3207022322439994
0.011433698296836992,3.3207022322439994
0.011496198296836985,3.317013486635815
0.011558698296836992,3.3207022322439994
