Data/acq0040.csv

#Digilent WaveForms Oscilloscope Acquisition
#Device Name: Discovery2
#Serial Number: SN:210321B282B2
#Date Time: 2026-05-13 12:40:47.658
#Sample rate: 16000Hz
#Samples: 3200
#Trigger: Source: Channel 1 Type: Edge Condition: Rising Level: 500 mV Hyst.: 5 mV HoldOff: 0 s
#Channel 1: Range: 1 V/div Offset: 0 V Sample Mode: Average

Time (s),Channel 1 (V)
-0.017700231481481477,0.004519930486347622
-0.01763773148148147,0.008208676094531884
-0.017575231481481476,0.004519930486347622
-0.01751273148148147,0.004519930486347622
-0.017450231481481476,0.004519930486347622
-0.01738773148148147,0.008208676094531884
-0.017325231481481476,0.008208676094531884
-0.01726273148148147,0.008208676094531884
-0.017200231481481476,0.008208676094531884
-0.01713773148148147,0.008208676094531884
-0.017075231481481476,0.008208676094531884
-0.01701273148148147,0.008208676094531884
-0.016950231481481476,0.008208676094531884
-0.01688773148148147,0.008208676094531884
-0.016825231481481476,0.008208676094531884
-0.01676273148148147,0.008208676094531884
-0.016700231481481476,0.008208676094531884
-0.01663773148148147,0.008208676094531884
-0.016575231481481476,0.008208676094531884
-0.01651273148148147,0.008208676094531884
-0.016450231481481475,0.008208676094531884
-0.01638773148148147,0.008208676094531884
-0.016325231481481475,0.008208676094531884
-0.01626273148148147,0.008208676094531884
-0.016200231481481475,0.008208676094531884
-0.016137731481481468,0.008208676094531884
-0.016075231481481475,0.008208676094531884
-0.016012731481481468,0.008208676094531884
-0.015950231481481475,0.008208676094531884
-0.015887731481481468,0.008208676094531884
-0.015825231481481475,0.008208676094531884
-0.015762731481481468,0.008208676094531884
-0.015700231481481475,0.008208676094531884
-0.015637731481481468,0.008208676094531884
-0.015575231481481475,0.008208676094531884
-0.015512731481481468,0.008208676094531884
-0.015450231481481475,0.008208676094531884
-0.015387731481481468,0.008208676094531884
-0.015325231481481474,0.008208676094531884
-0.015262731481481467,0.008208676094531884
-0.015200231481481474,0.008208676094531884
-0.015137731481481467,0.008208676094531884
-0.015075231481481474,0.008208676094531884
-0.015012731481481467,0.008208676094531884
-0.014950231481481474,0.008208676094531884
-0.014887731481481467,0.008208676094531884
-0.014825231481481474,0.008208676094531884
-0.014762731481481467,0.008208676094531884
-0.014700231481481474,0.008208676094531884
-0.014637731481481467,0.008208676094531884
-0.014575231481481474,0.008208676094531884
-0.014512731481481467,0.008208676094531884
-0.014450231481481474,0.008208676094531884
-0.014387731481481467,0.008208676094531884
-0.014325231481481474,0.008208676094531884
-0.014262731481481467,0.008208676094531884
-0.014200231481481473,0.008208676094531884
-0.014137731481481466,0.008208676094531884
-0.014075231481481473,0.008208676094531884
-0.014012731481481466,0.008208676094531884
-0.013950231481481473,0.008208676094531884
-0.013887731481481466,0.008208676094531884
-0.013825231481481473,0.008208676094531884
-0.013762731481481466,0.008208676094531884
-0.013700231481481473,0.008208676094531884
-0.013637731481481466,0.008208676094531884
-0.013575231481481473,0.008208676094531884
-0.013512731481481466,0.008208676094531884
-0.013450231481481473,0.008208676094531884
-0.013387731481481466,0.008208676094531884
-0.013325231481481473,0.011897421702716147
-0.013262731481481466,0.008208676094531884
-0.013200231481481473,0.011897421702716147
-0.013137731481481466,0.011897421702716147
-0.013075231481481472,0.008208676094531884
-0.013012731481481465,0.011897421702716147
-0.012950231481481472,0.008208676094531884
-0.012887731481481465,0.008208676094531884
-0.012825231481481472,0.008208676094531884
-0.012762731481481465,0.008208676094531884
-0.012700231481481472,0.008208676094531884
-0.012637731481481465,0.008208676094531884
-0.012575231481481472,0.008208676094531884
-0.012512731481481465,0.008208676094531884
-0.012450231481481472,0.008208676094531884
-0.012387731481481465,0.008208676094531884
-0.012325231481481472,0.008208676094531884
-0.012262731481481465,0.008208676094531884
-0.012200231481481472,0.011897421702716147
-0.012137731481481465,0.008208676094531884
-0.012075231481481472,0.008208676094531884
-0.012012731481481465,0.008208676094531884
-0.011950231481481471,0.008208676094531884
-0.011887731481481464,0.008208676094531884
-0.011825231481481471,0.008208676094531884
-0.011762731481481464,0.008208676094531884
-0.011700231481481471,0.008208676094531884
-0.011637731481481464,0.008208676094531884
-0.011575231481481471,0.008208676094531884
-0.011512731481481464,0.008208676094531884
-0.011450231481481471,0.008208676094531884
-0.011387731481481478,0.008208676094531884
-0.01132523148148147,0.008208676094531884
-0.011262731481481478,0.008208676094531884
-0.01120023148148147,0.008208676094531884
-0.011137731481481478,0.008208676094531884
-0.01107523148148147,0.008208676094531884
-0.011012731481481478,0.008208676094531884
-0.01095023148148147,0.008208676094531884
-0.010887731481481477,0.008208676094531884
-0.01082523148148147,0.008208676094531884
-0.010762731481481477,0.008208676094531884
-0.01070023148148147,0.008208676094531884
-0.010637731481481477,0.008208676094531884
-0.01057523148148147,0.008208676094531884
-0.010512731481481477,0.008208676094531884
-0.01045023148148147,0.008208676094531884
-0.010387731481481477,0.008208676094531884
-0.01032523148148147,0.008208676094531884
-0.010262731481481477,0.008208676094531884
-0.01020023148148147,0.008208676094531884
-0.010137731481481477,0.008208676094531884
-0.01007523148148147,0.008208676094531884
-0.010012731481481477,0.008208676094531884
-0.00995023148148147,0.008208676094531884
-0.009887731481481477,0.008208676094531884
-0.00982523148148147,0.008208676094531884
-0.009762731481481476,0.011897421702716147
-0.00970023148148147,0.008208676094531884
-0.009637731481481476,0.008208676094531884
-0.00957523148148147,0.008208676094531884
-0.009512731481481476,0.011897421702716147
-0.00945023148148147,0.011897421702716147
-0.009387731481481476,0.011897421702716147
-0.009325231481481469,0.008208676094531884
-0.009262731481481476,0.011897421702716147
-0.009200231481481469,0.011897421702716147
-0.009137731481481476,0.011897421702716147
-0.009075231481481469,0.008208676094531884
-0.009012731481481476,0.008208676094531884
-0.008950231481481469,0.011897421702716147
-0.008887731481481476,0.011897421702716147
-0.008825231481481469,0.008208676094531884
-0.008762731481481476,0.011897421702716147
-0.008700231481481469,0.011897421702716147
-0.008637731481481475,0.011897421702716147
-0.008575231481481468,0.008208676094531884
-0.008512731481481475,0.008208676094531884
-0.008450231481481468,0.008208676094531884
-0.008387731481481475,0.008208676094531884
-0.008325231481481468,0.008208676094531884
-0.008262731481481475,0.008208676094531884
-0.008200231481481468,0.008208676094531884
-0.008137731481481475,0.008208676094531884
-0.008075231481481468,0.008208676094531884
-0.008012731481481475,0.008208676094531884
-0.007950231481481468,0.011897421702716147
-0.007887731481481475,0.008208676094531884
-0.007825231481481468,0.008208676094531884
-0.007762731481481475,0.011897421702716147
-0.007700231481481468,0.008208676094531884
-0.0076377314814814745,0.011897421702716147
-0.0075752314814814675,0.008208676094531884
-0.007512731481481474,0.008208676094531884
-0.007450231481481467,0.011897421702716147
-0.007387731481481474,0.008208676094531884
-0.007325231481481467,0.011897421702716147
-0.007262731481481474,0.011897421702716147
-0.007200231481481467,0.008208676094531884
-0.007137731481481474,0.008208676094531884
-0.007075231481481467,0.008208676094531884
-0.007012731481481474,0.008208676094531884
-0.006950231481481467,0.008208676094531884
-0.006887731481481474,0.008208676094531884
-0.006825231481481467,0.011897421702716147
-0.006762731481481474,0.008208676094531884
-0.006700231481481467,0.008208676094531884
-0.006637731481481474,0.008208676094531884
-0.006575231481481467,0.008208676094531884
-0.0065127314814814735,0.008208676094531884
-0.0064502314814814665,0.011897421702716147
-0.006387731481481473,0.008208676094531884
-0.006325231481481466,0.008208676094531884
-0.006262731481481473,0.008208676094531884
-0.006200231481481466,0.008208676094531884
-0.006137731481481473,0.008208676094531884
-0.006075231481481466,0.008208676094531884
-0.006012731481481473,0.008208676094531884
-0.005950231481481466,0.008208676094531884
-0.005887731481481473,0.008208676094531884
-0.005825231481481466,0.008208676094531884
-0.005762731481481473,0.008208676094531884
-0.005700231481481466,0.008208676094531884
-0.005637731481481473,0.008208676094531884
-0.005575231481481466,0.008208676094531884
-0.005512731481481473,0.008208676094531884
-0.005450231481481466,0.008208676094531884
-0.0053877314814814725,0.008208676094531884
-0.0053252314814814655,0.008208676094531884
-0.005262731481481472,0.008208676094531884
-0.005200231481481465,0.008208676094531884
-0.005137731481481472,0.008208676094531884
-0.005075231481481465,0.008208676094531884
-0.005012731481481472,0.008208676094531884
-0.004950231481481465,0.008208676094531884
-0.004887731481481472,0.008208676094531884
-0.004825231481481465,0.008208676094531884
-0.004762731481481472,0.008208676094531884
-0.004700231481481465,0.008208676094531884
-0.004637731481481472,0.008208676094531884
-0.004575231481481465,0.008208676094531884
-0.004512731481481472,0.008208676094531884
-0.004450231481481465,0.008208676094531884
-0.004387731481481472,0.008208676094531884
-0.004325231481481465,0.008208676094531884
-0.0042627314814814715,0.008208676094531884
-0.0042002314814814645,0.008208676094531884
-0.004137731481481471,0.008208676094531884
-0.004075231481481464,0.008208676094531884
-0.004012731481481471,0.008208676094531884
-0.003950231481481464,0.008208676094531884
-0.003887731481481471,0.008208676094531884
-0.003825231481481464,0.008208676094531884
-0.003762731481481471,0.008208676094531884
-0.003700231481481464,0.008208676094531884
-0.003637731481481471,0.008208676094531884
-0.003575231481481478,0.008208676094531884
-0.003512731481481471,0.008208676094531884
-0.0034502314814814777,0.008208676094531884
-0.0033877314814814707,0.008208676094531884
-0.0033252314814814776,0.008208676094531884
-0.0032627314814814706,0.008208676094531884
-0.0032002314814814775,0.008208676094531884
-0.0031377314814814705,0.008208676094531884
-0.0030752314814814774,0.008208676094531884
-0.0030127314814814704,0.008208676094531884
-0.0029502314814814773,0.008208676094531884
-0.0028877314814814703,0.004519930486347622
-0.002825231481481477,0.008208676094531884
-0.00276273148148147,0.008208676094531884
-0.002700231481481477,0.008208676094531884
-0.00263773148148147,0.008208676094531884
-0.002575231481481477,0.008208676094531884
-0.00251273148148147,0.008208676094531884
-0.002450231481481477,0.008208676094531884
-0.00238773148148147,0.008208676094531884
-0.0023252314814814767,0.008208676094531884
-0.0022627314814814697,0.008208676094531884
-0.0022002314814814766,0.008208676094531884
-0.0021377314814814696,0.008208676094531884
-0.0020752314814814765,0.008208676094531884
-0.0020127314814814695,0.008208676094531884
-0.0019502314814814764,0.008208676094531884
-0.0018877314814814694,0.008208676094531884
-0.0018252314814814763,0.008208676094531884
-0.0017627314814814693,0.008208676094531884
-0.0017002314814814762,0.008208676094531884
-0.0016377314814814692,0.008208676094531884
-0.001575231481481476,0.008208676094531884
-0.001512731481481469,0.008208676094531884
-0.001450231481481476,0.008208676094531884
-0.001387731481481469,0.008208676094531884
-0.0013252314814814758,0.008208676094531884
-0.0012627314814814689,0.008208676094531884
-0.0012002314814814757,0.008208676094531884
-0.0011377314814814687,0.008208676094531884
-0.0010752314814814756,0.008208676094531884
-0.0010127314814814686,0.008208676094531884
-0.0009502314814814755,0.008208676094531884
-0.0008877314814814685,0.008208676094531884
-0.0008252314814814754,0.008208676094531884
-0.0007627314814814684,0.008208676094531884
-0.0007002314814814753,0.008208676094531884
-0.0006377314814814683,0.008208676094531884
-0.0005752314814814752,0.008208676094531884
-0.0005127314814814682,0.008208676094531884
-0.00045023148148147507,0.008208676094531884
-0.0003877314814814681,0.011897421702716147
-0.00032523148148147496,0.011897421702716147
-0.00026273148148146797,0.011897421702716147
-0.00020023148148147485,0.011897421702716147
-0.00013773148148146785,0.011897421702716147
-7.523148148147474e-05,0.011897421702716147
-1.2731481481467743e-05,0.01558616731090041
4.976851851852537e-05,2.405893321414302
0.00011226851851853237,3.3354572146767363
0.00017476851851852548,3.3207022322439994
0.00023726851851853248,3.3207022322439994
0.0002997685185185256,3.3207022322439994
0.0003622685185185326,3.3207022322439994
0.0004247685185185257,3.3207022322439994
0.0004872685185185327,3.3207022322439994
0.0005497685185185258,3.3207022322439994
0.0006122685185185328,3.3207022322439994
0.0006747685185185259,3.3207022322439994
0.0007372685185185329,3.3207022322439994
0.000799768518518526,3.3207022322439994
0.000862268518518533,3.3207022322439994
0.0009247685185185262,3.3207022322439994
0.0009872685185185331,3.3207022322439994
0.0010497685185185263,3.3207022322439994
0.0011122685185185333,3.3207022322439994
0.0011747685185185264,3.3207022322439994
0.0012372685185185334,3.3207022322439994
0.0012997685185185265,3.3207022322439994
0.0013622685185185335,3.3207022322439994
0.0014247685185185266,3.3207022322439994
0.0014872685185185336,3.3207022322439994
0.0015497685185185267,3.317013486635815
0.0016122685185185337,3.3207022322439994
0.0016747685185185268,3.3207022322439994
0.0017372685185185338,3.3207022322439994
0.001799768518518527,3.3207022322439994
0.001862268518518534,3.3207022322439994
0.001924768518518527,3.3207022322439994
0.001987268518518534,3.3207022322439994
0.002049768518518527,3.3207022322439994
0.002112268518518534,3.3207022322439994
0.0021747685185185273,3.3207022322439994
0.0022372685185185343,3.3207022322439994
0.0022997685185185274,3.3207022322439994
0.0023622685185185344,3.3207022322439994
0.0024247685185185275,3.3207022322439994
0.0024872685185185345,3.3207022322439994
0.0025497685185185276,3.3207022322439994
0.0026122685185185346,3.3207022322439994
0.0026747685185185277,3.3207022322439994
0.0027372685185185347,3.3207022322439994
0.002799768518518528,3.3207022322439994
0.002862268518518535,3.3207022322439994
0.002924768518518528,3.3207022322439994
0.002987268518518535,3.3207022322439994
0.003049768518518528,3.3207022322439994
0.003112268518518535,3.317013486635815
0.003174768518518528,3.3207022322439994
0.003237268518518535,3.3207022322439994
0.0032997685185185283,3.3207022322439994
0.0033622685185185353,3.3207022322439994
0.0034247685185185284,3.3207022322439994
0.0034872685185185354,3.3207022322439994
0.0035497685185185285,3.3207022322439994
0.0036122685185185355,3.317013486635815
0.0036747685185185286,3.3207022322439994
0.0037372685185185356,3.3207022322439994
0.0037997685185185287,3.3207022322439994
0.0038622685185185357,3.3207022322439994
0.003924768518518529,3.3207022322439994
0.003987268518518536,3.3207022322439994
0.004049768518518529,3.3207022322439994
0.004112268518518536,3.3207022322439994
0.004174768518518529,3.3207022322439994
0.004237268518518522,3.3207022322439994
0.004299768518518529,3.3207022322439994
0.004362268518518522,3.3207022322439994
0.004424768518518529,3.3207022322439994
0.004487268518518522,3.3207022322439994
0.004549768518518529,3.3207022322439994
0.0046122685185185225,3.3207022322439994
0.0046747685185185295,3.3207022322439994
0.004737268518518523,3.317013486635815
0.00479976851851853,3.317013486635815
0.004862268518518523,3.317013486635815
0.00492476851851853,3.317013486635815
0.004987268518518523,3.3207022322439994
0.00504976851851853,3.3207022322439994
0.005112268518518523,3.317013486635815
0.00517476851851853,3.3207022322439994
0.005237268518518523,3.317013486635815
0.00529976851851853,3.3207022322439994
0.005362268518518523,3.3207022322439994
0.00542476851851853,3.3207022322439994
0.005487268518518523,3.3207022322439994
0.00554976851851853,3.3207022322439994
0.005612268518518523,3.3207022322439994
0.00567476851851853,3.3207022322439994
0.0057372685185185235,3.3207022322439994
0.0057997685185185305,3.317013486635815
0.005862268518518524,3.3207022322439994
0.005924768518518531,3.3207022322439994
0.005987268518518524,3.317013486635815
0.006049768518518531,3.3207022322439994
0.006112268518518524,3.3207022322439994
0.006174768518518531,3.3207022322439994
0.006237268518518524,3.317013486635815
0.006299768518518531,3.317013486635815
0.006362268518518524,3.317013486635815
0.006424768518518531,3.3207022322439994
0.006487268518518524,3.3207022322439994
0.006549768518518531,3.3207022322439994
0.006612268518518524,3.3207022322439994
0.006674768518518531,3.317013486635815
0.006737268518518524,3.3207022322439994
0.006799768518518531,3.3207022322439994
0.0068622685185185245,3.3207022322439994
0.0069247685185185315,3.3207022322439994
0.006987268518518525,3.3207022322439994
0.007049768518518532,3.3207022322439994
0.007112268518518525,3.3207022322439994
0.007174768518518532,3.3207022322439994
0.007237268518518525,3.3207022322439994
0.007299768518518532,3.3207022322439994
0.007362268518518525,3.3207022322439994
0.007424768518518532,3.317013486635815
0.007487268518518525,3.317013486635815
0.007549768518518532,3.3207022322439994
0.007612268518518525,3.3207022322439994
0.007674768518518532,3.3207022322439994
0.007737268518518525,3.3207022322439994
0.007799768518518532,3.3207022322439994
0.007862268518518525,3.3207022322439994
0.007924768518518532,3.3207022322439994
0.007987268518518525,3.3207022322439994
0.008049768518518532,3.3207022322439994
0.008112268518518526,3.3207022322439994
0.008174768518518533,3.3207022322439994
0.008237268518518526,3.3207022322439994
0.008299768518518533,3.3207022322439994
0.008362268518518526,3.3207022322439994
0.008424768518518533,3.317013486635815
0.008487268518518526,3.317013486635815
0.008549768518518533,3.3207022322439994
0.008612268518518526,3.3207022322439994
0.008674768518518533,3.3207022322439994
0.008737268518518526,3.3207022322439994
0.008799768518518533,3.317013486635815
0.008862268518518526,3.3207022322439994
0.008924768518518533,3.3207022322439994
0.008987268518518526,3.317013486635815
0.009049768518518533,3.3207022322439994
0.009112268518518526,3.3207022322439994
0.009174768518518533,3.3207022322439994
0.009237268518518527,3.3207022322439994
0.009299768518518534,3.3207022322439994
0.009362268518518527,3.3207022322439994
0.009424768518518534,3.3207022322439994
0.009487268518518527,3.3207022322439994
0.009549768518518534,3.3207022322439994
0.009612268518518527,3.3207022322439994
0.009674768518518534,3.3207022322439994
0.009737268518518527,3.3207022322439994
0.009799768518518534,3.3207022322439994
0.009862268518518527,3.3207022322439994
0.009924768518518534,3.3207022322439994
0.009987268518518527,3.3207022322439994
0.010049768518518534,3.3207022322439994
0.010112268518518527,3.3207022322439994
0.010174768518518534,3.3207022322439994
0.010237268518518527,3.317013486635815
0.010299768518518534,3.3207022322439994
0.010362268518518528,3.3207022322439994
0.010424768518518535,3.3207022322439994
0.010487268518518528,3.3207022322439994
0.010549768518518535,3.3207022322439994
0.010612268518518528,3.3207022322439994
0.010674768518518535,3.3207022322439994
0.010737268518518528,3.3207022322439994
0.010799768518518535,3.3207022322439994
0.010862268518518528,3.3207022322439994
0.010924768518518535,3.3207022322439994
0.010987268518518528,3.3207022322439994
0.011049768518518535,3.3207022322439994
0.011112268518518528,3.3207022322439994
0.011174768518518535,3.3207022322439994
0.011237268518518528,3.3207022322439994
0.011299768518518535,3.3207022322439994
0.011362268518518528,3.3207022322439994
0.011424768518518535,3.3207022322439994
0.011487268518518529,3.3207022322439994
