Data/acq0140.csv

#Digilent WaveForms Oscilloscope Acquisition
#Device Name: Discovery2
#Serial Number: SN:210321B282B2
#Date Time: 2026-05-13 12:41:14.816
#Sample rate: 16000Hz
#Samples: 3200
#Trigger: Source: Channel 1 Type: Edge Condition: Rising Level: 500 mV Hyst.: 5 mV HoldOff: 0 s
#Channel 1: Range: 1 V/div Offset: 0 V Sample Mode: Average

Time (s),Channel 1 (V)
-0.017704616182572616,0.008208676094531884
-0.01764211618257261,0.008208676094531884
-0.017579616182572616,0.008208676094531884
-0.01751711618257261,0.008208676094531884
-0.017454616182572616,0.008208676094531884
-0.01739211618257261,0.008208676094531884
-0.017329616182572616,0.008208676094531884
-0.01726711618257261,0.008208676094531884
-0.017204616182572616,0.008208676094531884
-0.01714211618257261,0.008208676094531884
-0.017079616182572616,0.008208676094531884
-0.01701711618257261,0.008208676094531884
-0.016954616182572615,0.008208676094531884
-0.01689211618257261,0.008208676094531884
-0.016829616182572615,0.008208676094531884
-0.01676711618257261,0.008208676094531884
-0.016704616182572615,0.008208676094531884
-0.01664211618257261,0.008208676094531884
-0.016579616182572615,0.008208676094531884
-0.016517116182572608,0.008208676094531884
-0.016454616182572615,0.008208676094531884
-0.016392116182572608,0.008208676094531884
-0.016329616182572615,0.008208676094531884
-0.016267116182572608,0.008208676094531884
-0.016204616182572615,0.008208676094531884
-0.016142116182572608,0.008208676094531884
-0.016079616182572615,0.008208676094531884
-0.016017116182572608,0.008208676094531884
-0.015954616182572615,0.008208676094531884
-0.015892116182572608,0.008208676094531884
-0.015829616182572614,0.008208676094531884
-0.015767116182572607,0.008208676094531884
-0.015704616182572614,0.008208676094531884
-0.015642116182572607,0.008208676094531884
-0.015579616182572614,0.008208676094531884
-0.015517116182572607,0.008208676094531884
-0.015454616182572614,0.008208676094531884
-0.015392116182572607,0.008208676094531884
-0.015329616182572614,0.008208676094531884
-0.015267116182572607,0.008208676094531884
-0.015204616182572614,0.008208676094531884
-0.015142116182572607,0.008208676094531884
-0.015079616182572614,0.008208676094531884
-0.015017116182572607,0.008208676094531884
-0.014954616182572614,0.008208676094531884
-0.014892116182572607,0.008208676094531884
-0.014829616182572614,0.008208676094531884
-0.014767116182572607,0.008208676094531884
-0.014704616182572613,0.008208676094531884
-0.014642116182572606,0.008208676094531884
-0.014579616182572613,0.008208676094531884
-0.014517116182572606,0.008208676094531884
-0.014454616182572613,0.008208676094531884
-0.014392116182572606,0.008208676094531884
-0.014329616182572613,0.008208676094531884
-0.014267116182572606,0.008208676094531884
-0.014204616182572613,0.008208676094531884
-0.014142116182572606,0.008208676094531884
-0.014079616182572613,0.008208676094531884
-0.014017116182572606,0.008208676094531884
-0.013954616182572613,0.008208676094531884
-0.013892116182572606,0.008208676094531884
-0.013829616182572613,0.008208676094531884
-0.013767116182572606,0.008208676094531884
-0.013704616182572613,0.008208676094531884
-0.013642116182572606,0.008208676094531884
-0.013579616182572612,0.008208676094531884
-0.013517116182572605,0.008208676094531884
-0.013454616182572612,0.008208676094531884
-0.013392116182572605,0.008208676094531884
-0.013329616182572612,0.008208676094531884
-0.013267116182572605,0.008208676094531884
-0.013204616182572612,0.008208676094531884
-0.013142116182572605,0.008208676094531884
-0.013079616182572612,0.008208676094531884
-0.013017116182572605,0.008208676094531884
-0.012954616182572612,0.008208676094531884
-0.012892116182572605,0.008208676094531884
-0.012829616182572612,0.008208676094531884
-0.012767116182572605,0.008208676094531884
-0.012704616182572612,0.008208676094531884
-0.012642116182572605,0.008208676094531884
-0.012579616182572612,0.008208676094531884
-0.012517116182572605,0.008208676094531884
-0.012454616182572611,0.008208676094531884
-0.012392116182572604,0.008208676094531884
-0.012329616182572611,0.008208676094531884
-0.012267116182572604,0.008208676094531884
-0.012204616182572611,0.008208676094531884
-0.012142116182572604,0.008208676094531884
-0.012079616182572611,0.008208676094531884
-0.012017116182572604,0.008208676094531884
-0.011954616182572611,0.008208676094531884
-0.011892116182572604,0.008208676094531884
-0.011829616182572611,0.008208676094531884
-0.011767116182572604,0.008208676094531884
-0.01170461618257261,0.008208676094531884
-0.011642116182572604,0.008208676094531884
-0.01157961618257261,0.008208676094531884
-0.011517116182572604,0.008208676094531884
-0.01145461618257261,0.008208676094531884
-0.011392116182572617,0.008208676094531884
-0.01132961618257261,0.008208676094531884
-0.011267116182572617,0.008208676094531884
-0.01120461618257261,0.008208676094531884
-0.011142116182572617,0.008208676094531884
-0.01107961618257261,0.008208676094531884
-0.011017116182572617,0.008208676094531884
-0.01095461618257261,0.008208676094531884
-0.010892116182572617,0.008208676094531884
-0.01082961618257261,0.008208676094531884
-0.010767116182572617,0.008208676094531884
-0.01070461618257261,0.008208676094531884
-0.010642116182572617,0.008208676094531884
-0.01057961618257261,0.008208676094531884
-0.010517116182572617,0.008208676094531884
-0.01045461618257261,0.008208676094531884
-0.010392116182572617,0.008208676094531884
-0.01032961618257261,0.008208676094531884
-0.010267116182572616,0.008208676094531884
-0.01020461618257261,0.004519930486347622
-0.010142116182572616,0.008208676094531884
-0.01007961618257261,0.008208676094531884
-0.010017116182572616,0.004519930486347622
-0.00995461618257261,0.008208676094531884
-0.009892116182572616,0.008208676094531884
-0.00982961618257261,0.004519930486347622
-0.009767116182572616,0.004519930486347622
-0.009704616182572609,0.004519930486347622
-0.009642116182572616,0.008208676094531884
-0.009579616182572609,0.008208676094531884
-0.009517116182572616,0.004519930486347622
-0.009454616182572609,0.004519930486347622
-0.009392116182572616,0.004519930486347622
-0.009329616182572609,0.004519930486347622
-0.009267116182572616,0.008208676094531884
-0.009204616182572609,0.004519930486347622
-0.009142116182572615,0.004519930486347622
-0.009079616182572608,0.004519930486347622
-0.009017116182572615,0.008208676094531884
-0.008954616182572608,0.008208676094531884
-0.008892116182572615,0.008208676094531884
-0.008829616182572608,0.004519930486347622
-0.008767116182572615,0.004519930486347622
-0.008704616182572608,0.004519930486347622
-0.008642116182572615,0.004519930486347622
-0.008579616182572608,0.008208676094531884
-0.008517116182572615,0.004519930486347622
-0.008454616182572608,0.008208676094531884
-0.008392116182572615,0.008208676094531884
-0.008329616182572608,0.004519930486347622
-0.008267116182572615,0.008208676094531884
-0.008204616182572608,0.004519930486347622
-0.008142116182572615,0.004519930486347622
-0.008079616182572608,0.004519930486347622
-0.008017116182572614,0.004519930486347622
-0.007954616182572607,0.004519930486347622
-0.007892116182572614,0.004519930486347622
-0.007829616182572607,0.008208676094531884
-0.007767116182572614,0.004519930486347622
-0.007704616182572607,0.004519930486347622
-0.007642116182572614,0.004519930486347622
-0.007579616182572607,0.008208676094531884
-0.007517116182572614,0.004519930486347622
-0.007454616182572607,0.004519930486347622
-0.007392116182572614,0.004519930486347622
-0.007329616182572607,0.004519930486347622
-0.007267116182572614,0.004519930486347622
-0.007204616182572607,0.004519930486347622
-0.007142116182572614,0.004519930486347622
-0.007079616182572607,0.004519930486347622
-0.007017116182572614,0.008208676094531884
-0.006954616182572607,0.004519930486347622
-0.0068921161825726135,0.008208676094531884
-0.0068296161825726065,0.008208676094531884
-0.006767116182572613,0.008208676094531884
-0.006704616182572606,0.008208676094531884
-0.006642116182572613,0.004519930486347622
-0.006579616182572606,0.008208676094531884
-0.006517116182572613,0.008208676094531884
-0.006454616182572606,0.008208676094531884
-0.006392116182572613,0.008208676094531884
-0.006329616182572606,0.008208676094531884
-0.006267116182572613,0.008208676094531884
-0.006204616182572606,0.008208676094531884
-0.006142116182572613,0.008208676094531884
-0.006079616182572606,0.008208676094531884
-0.006017116182572613,0.008208676094531884
-0.005954616182572606,0.008208676094531884
-0.005892116182572613,0.008208676094531884
-0.005829616182572606,0.008208676094531884
-0.0057671161825726125,0.008208676094531884
-0.0057046161825726055,0.008208676094531884
-0.005642116182572612,0.008208676094531884
-0.005579616182572605,0.004519930486347622
-0.005517116182572612,0.008208676094531884
-0.005454616182572605,0.008208676094531884
-0.005392116182572612,0.008208676094531884
-0.005329616182572605,0.008208676094531884
-0.005267116182572612,0.008208676094531884
-0.005204616182572605,0.008208676094531884
-0.005142116182572612,0.008208676094531884
-0.005079616182572605,0.008208676094531884
-0.005017116182572612,0.008208676094531884
-0.004954616182572605,0.008208676094531884
-0.004892116182572612,0.008208676094531884
-0.004829616182572605,0.008208676094531884
-0.004767116182572612,0.008208676094531884
-0.004704616182572605,0.008208676094531884
-0.0046421161825726115,0.008208676094531884
-0.0045796161825726045,0.008208676094531884
-0.004517116182572611,0.008208676094531884
-0.004454616182572604,0.008208676094531884
-0.004392116182572611,0.008208676094531884
-0.004329616182572604,0.008208676094531884
-0.004267116182572611,0.008208676094531884
-0.004204616182572604,0.008208676094531884
-0.004142116182572611,0.008208676094531884
-0.004079616182572604,0.008208676094531884
-0.004017116182572611,0.008208676094531884
-0.003954616182572604,0.008208676094531884
-0.003892116182572611,0.011897421702716147
-0.003829616182572604,0.008208676094531884
-0.0037671161825726107,0.008208676094531884
-0.0037046161825726037,0.008208676094531884
-0.0036421161825726106,0.008208676094531884
-0.0035796161825726175,0.008208676094531884
-0.0035171161825726105,0.008208676094531884
-0.0034546161825726174,0.008208676094531884
-0.0033921161825726104,0.008208676094531884
-0.0033296161825726173,0.008208676094531884
-0.0032671161825726103,0.008208676094531884
-0.003204616182572617,0.008208676094531884
-0.00314211618257261,0.008208676094531884
-0.003079616182572617,0.008208676094531884
-0.00301711618257261,0.008208676094531884
-0.002954616182572617,0.008208676094531884
-0.00289211618257261,0.011897421702716147
-0.002829616182572617,0.008208676094531884
-0.00276711618257261,0.008208676094531884
-0.0027046161825726167,0.008208676094531884
-0.0026421161825726097,0.008208676094531884
-0.0025796161825726166,0.008208676094531884
-0.0025171161825726096,0.008208676094531884
-0.0024546161825726165,0.008208676094531884
-0.0023921161825726095,0.008208676094531884
-0.0023296161825726164,0.011897421702716147
-0.0022671161825726094,0.008208676094531884
-0.0022046161825726163,0.008208676094531884
-0.0021421161825726093,0.008208676094531884
-0.002079616182572616,0.008208676094531884
-0.002017116182572609,0.008208676094531884
-0.001954616182572616,0.008208676094531884
-0.001892116182572609,0.008208676094531884
-0.001829616182572616,0.008208676094531884
-0.001767116182572609,0.011897421702716147
-0.0017046161825726158,0.008208676094531884
-0.0016421161825726088,0.008208676094531884
-0.0015796161825726157,0.008208676094531884
-0.0015171161825726087,0.008208676094531884
-0.0014546161825726156,0.008208676094531884
-0.0013921161825726086,0.008208676094531884
-0.0013296161825726155,0.008208676094531884
-0.0012671161825726085,0.008208676094531884
-0.0012046161825726154,0.011897421702716147
-0.0011421161825726084,0.008208676094531884
-0.0010796161825726153,0.008208676094531884
-0.0010171161825726083,0.008208676094531884
-0.0009546161825726152,0.011897421702716147
-0.0008921161825726082,0.011897421702716147
-0.000829616182572615,0.011897421702716147
-0.000767116182572608,0.008208676094531884
-0.0007046161825726149,0.011897421702716147
-0.0006421161825726079,0.011897421702716147
-0.0005796161825726148,0.011897421702716147
-0.0005171161825726078,0.008208676094531884
-0.0004546161825726147,0.011897421702716147
-0.0003921161825726077,0.011897421702716147
-0.0003296161825726146,0.01558616731090041
-0.0002671161825726076,0.01558616731090041
-0.0002046161825726145,0.01558616731090041
-0.0001421161825726075,0.01558616731090041
-7.961618257261438e-05,0.01558616731090041
-1.7116182572607386e-05,0.01558616731090041
4.538381742738573e-05,1.7935615504557147
0.00010788381742739273,3.3391459602849207
0.00017038381742738584,3.3243909778521834
0.00023288381742739284,3.3207022322439994
0.00029538381742738595,3.3207022322439994
0.00035788381742739295,3.3207022322439994
0.00042038381742738606,3.3207022322439994
0.00048288381742739306,3.3207022322439994
0.0005453838174273862,3.3207022322439994
0.0006078838174273932,3.3207022322439994
0.0006703838174273863,3.3207022322439994
0.0007328838174273933,3.3207022322439994
0.0007953838174273864,3.3207022322439994
0.0008578838174273934,3.3207022322439994
0.0009203838174273865,3.3207022322439994
0.0009828838174273935,3.3207022322439994
0.0010453838174273866,3.3207022322439994
0.0011078838174273936,3.3207022322439994
0.0011703838174273867,3.3207022322439994
0.0012328838174273937,3.3207022322439994
0.0012953838174273868,3.3207022322439994
0.0013578838174273938,3.3207022322439994
0.001420383817427387,3.3207022322439994
0.001482883817427394,3.3207022322439994
0.001545383817427387,3.3207022322439994
0.001607883817427394,3.3207022322439994
0.0016703838174273872,3.3207022322439994
0.0017328838174273942,3.3207022322439994
0.0017953838174273873,3.3207022322439994
0.0018578838174273943,3.3207022322439994
0.0019203838174273874,3.3207022322439994
0.0019828838174273944,3.3207022322439994
0.0020453838174273875,3.3207022322439994
0.0021078838174273945,3.3207022322439994
0.0021703838174273876,3.3207022322439994
0.0022328838174273946,3.3207022322439994
0.0022953838174273877,3.3207022322439994
0.0023578838174273947,3.3207022322439994
0.002420383817427388,3.3207022322439994
0.002482883817427395,3.3207022322439994
0.002545383817427388,3.3207022322439994
0.002607883817427395,3.3207022322439994
0.002670383817427388,3.3207022322439994
0.002732883817427395,3.3207022322439994
0.002795383817427388,3.3207022322439994
0.002857883817427395,3.3207022322439994
0.0029203838174273883,3.3207022322439994
0.0029828838174273953,3.3207022322439994
0.0030453838174273884,3.3207022322439994
0.0031078838174273954,3.3207022322439994
0.0031703838174273885,3.3207022322439994
0.0032328838174273955,3.3207022322439994
0.0032953838174273886,3.3207022322439994
0.0033578838174273956,3.3207022322439994
0.0034203838174273887,3.3207022322439994
0.0034828838174273957,3.3207022322439994
0.003545383817427389,3.3207022322439994
0.003607883817427396,3.3207022322439994
0.003670383817427389,3.3207022322439994
0.003732883817427396,3.3207022322439994
0.003795383817427389,3.3207022322439994
0.003857883817427396,3.3207022322439994
0.003920383817427389,3.3207022322439994
0.003982883817427396,3.3207022322439994
0.004045383817427389,3.3207022322439994
0.004107883817427396,3.3207022322439994
0.004170383817427389,3.3207022322439994
0.0042328838174273825,3.3207022322439994
0.0042953838174273895,3.3207022322439994
0.004357883817427383,3.3207022322439994
0.00442038381742739,3.3207022322439994
0.004482883817427383,3.3207022322439994
0.00454538381742739,3.3207022322439994
0.004607883817427383,3.3207022322439994
0.00467038381742739,3.3207022322439994
0.004732883817427383,3.3207022322439994
0.00479538381742739,3.3207022322439994
0.004857883817427383,3.3207022322439994
0.00492038381742739,3.3207022322439994
0.004982883817427383,3.3207022322439994
0.00504538381742739,3.3207022322439994
0.005107883817427383,3.3207022322439994
0.00517038381742739,3.3207022322439994
0.005232883817427383,3.3207022322439994
0.00529538381742739,3.3207022322439994
0.0053578838174273835,3.3207022322439994
0.0054203838174273905,3.3207022322439994
0.005482883817427384,3.3207022322439994
0.005545383817427391,3.3207022322439994
0.005607883817427384,3.3207022322439994
0.005670383817427391,3.3207022322439994
0.005732883817427384,3.3207022322439994
0.005795383817427391,3.3207022322439994
0.005857883817427384,3.3207022322439994
0.005920383817427391,3.3207022322439994
0.005982883817427384,3.3207022322439994
0.006045383817427391,3.3207022322439994
0.006107883817427384,3.3207022322439994
0.006170383817427391,3.3207022322439994
0.006232883817427384,3.3207022322439994
0.006295383817427391,3.3207022322439994
0.006357883817427384,3.3207022322439994
0.006420383817427391,3.3207022322439994
0.0064828838174273845,3.3207022322439994
0.0065453838174273915,3.3207022322439994
0.006607883817427385,3.3207022322439994
0.006670383817427392,3.3207022322439994
0.006732883817427385,3.3207022322439994
0.006795383817427392,3.3207022322439994
0.006857883817427385,3.3207022322439994
0.006920383817427392,3.3207022322439994
0.006982883817427385,3.3207022322439994
0.007045383817427392,3.3207022322439994
0.007107883817427385,3.3207022322439994
0.007170383817427392,3.3207022322439994
0.007232883817427385,3.3207022322439994
0.007295383817427392,3.3207022322439994
0.007357883817427385,3.3207022322439994
0.007420383817427392,3.3207022322439994
0.007482883817427385,3.3207022322439994
0.007545383817427392,3.3207022322439994
0.0076078838174273855,3.3207022322439994
0.0076703838174273925,3.3207022322439994
0.007732883817427386,3.3207022322439994
0.007795383817427393,3.3207022322439994
0.007857883817427386,3.3207022322439994
0.007920383817427393,3.3207022322439994
0.007982883817427386,3.3207022322439994
0.008045383817427393,3.3207022322439994
0.008107883817427386,3.3207022322439994
0.008170383817427393,3.3207022322439994
0.008232883817427386,3.3207022322439994
0.008295383817427393,3.3207022322439994
0.008357883817427386,3.3207022322439994
0.008420383817427393,3.3207022322439994
0.008482883817427386,3.3207022322439994
0.008545383817427393,3.3207022322439994
0.008607883817427386,3.3207022322439994
0.008670383817427393,3.3207022322439994
0.008732883817427387,3.3207022322439994
0.008795383817427394,3.3207022322439994
0.008857883817427387,3.3207022322439994
0.008920383817427394,3.3207022322439994
0.008982883817427387,3.3207022322439994
0.009045383817427394,3.3207022322439994
0.009107883817427387,3.3207022322439994
0.009170383817427394,3.3207022322439994
0.009232883817427387,3.3207022322439994
0.009295383817427394,3.3207022322439994
0.009357883817427387,3.3207022322439994
0.009420383817427394,3.3207022322439994
0.009482883817427387,3.3207022322439994
0.009545383817427394,3.3207022322439994
0.009607883817427387,3.3207022322439994
0.009670383817427394,3.3207022322439994
0.009732883817427387,3.3207022322439994
0.009795383817427394,3.3207022322439994
0.009857883817427388,3.3207022322439994
0.009920383817427395,3.3207022322439994
0.009982883817427388,3.3207022322439994
0.010045383817427395,3.3207022322439994
0.010107883817427388,3.3207022322439994
0.010170383817427395,3.3207022322439994
0.010232883817427388,3.3207022322439994
0.010295383817427395,3.3207022322439994
0.010357883817427388,3.3207022322439994
0.010420383817427395,3.3207022322439994
0.010482883817427388,3.3207022322439994
0.010545383817427395,3.3207022322439994
0.010607883817427388,3.3207022322439994
0.010670383817427395,3.3207022322439994
0.010732883817427388,3.3207022322439994
0.010795383817427395,3.3207022322439994
0.010857883817427388,3.3207022322439994
0.010920383817427395,3.3207022322439994
0.010982883817427389,3.3207022322439994
0.011045383817427396,3.3207022322439994
0.011107883817427389,3.3207022322439994
0.011170383817427396,3.3207022322439994
0.011232883817427389,3.3207022322439994
0.011295383817427396,3.3207022322439994
0.011357883817427389,3.3207022322439994
0.011420383817427396,3.3207022322439994
0.011482883817427389,3.3207022322439994
