Data/acq0111.csv

#Digilent WaveForms Oscilloscope Acquisition
#Device Name: Discovery2
#Serial Number: SN:210321B282B2
#Date Time: 2026-05-13 12:41:05.962
#Sample rate: 16000Hz
#Samples: 3200
#Trigger: Source: Channel 1 Type: Edge Condition: Rising Level: 500 mV Hyst.: 5 mV HoldOff: 0 s
#Channel 1: Range: 1 V/div Offset: 0 V Sample Mode: Average

Time (s),Channel 1 (V)
-0.017691797346200244,0.004519930486347622
-0.017629297346200237,0.004519930486347622
-0.017566797346200244,0.004519930486347622
-0.017504297346200237,0.008208676094531884
-0.017441797346200244,0.008208676094531884
-0.017379297346200237,0.004519930486347622
-0.017316797346200244,0.004519930486347622
-0.017254297346200237,0.004519930486347622
-0.017191797346200244,0.004519930486347622
-0.017129297346200237,0.004519930486347622
-0.017066797346200244,0.004519930486347622
-0.017004297346200237,0.004519930486347622
-0.016941797346200244,0.004519930486347622
-0.016879297346200237,0.004519930486347622
-0.016816797346200243,0.004519930486347622
-0.016754297346200236,0.004519930486347622
-0.016691797346200243,0.004519930486347622
-0.016629297346200236,0.004519930486347622
-0.016566797346200243,0.004519930486347622
-0.016504297346200236,0.004519930486347622
-0.016441797346200243,0.004519930486347622
-0.016379297346200236,0.004519930486347622
-0.016316797346200243,0.004519930486347622
-0.016254297346200236,0.004519930486347622
-0.016191797346200243,0.008208676094531884
-0.016129297346200236,0.004519930486347622
-0.016066797346200243,0.004519930486347622
-0.016004297346200236,0.004519930486347622
-0.015941797346200243,0.004519930486347622
-0.015879297346200236,0.004519930486347622
-0.015816797346200243,0.004519930486347622
-0.015754297346200236,0.004519930486347622
-0.015691797346200242,0.004519930486347622
-0.015629297346200235,0.004519930486347622
-0.015566797346200242,0.004519930486347622
-0.015504297346200235,0.004519930486347622
-0.015441797346200242,0.004519930486347622
-0.015379297346200235,0.004519930486347622
-0.015316797346200242,0.008208676094531884
-0.015254297346200235,0.004519930486347622
-0.015191797346200242,0.004519930486347622
-0.015129297346200235,0.004519930486347622
-0.015066797346200242,0.008208676094531884
-0.015004297346200235,0.004519930486347622
-0.014941797346200242,0.008208676094531884
-0.014879297346200235,0.004519930486347622
-0.014816797346200242,0.008208676094531884
-0.014754297346200235,0.004519930486347622
-0.014691797346200242,0.008208676094531884
-0.014629297346200235,0.008208676094531884
-0.014566797346200241,0.008208676094531884
-0.014504297346200234,0.008208676094531884
-0.014441797346200241,0.008208676094531884
-0.014379297346200234,0.008208676094531884
-0.014316797346200241,0.008208676094531884
-0.014254297346200234,0.008208676094531884
-0.014191797346200241,0.008208676094531884
-0.014129297346200234,0.008208676094531884
-0.014066797346200241,0.008208676094531884
-0.014004297346200234,0.008208676094531884
-0.013941797346200241,0.008208676094531884
-0.013879297346200234,0.008208676094531884
-0.01381679734620024,0.008208676094531884
-0.013754297346200234,0.008208676094531884
-0.01369179734620024,0.008208676094531884
-0.013629297346200234,0.008208676094531884
-0.01356679734620024,0.008208676094531884
-0.013504297346200234,0.008208676094531884
-0.01344179734620024,0.008208676094531884
-0.013379297346200233,0.008208676094531884
-0.01331679734620024,0.008208676094531884
-0.013254297346200233,0.008208676094531884
-0.01319179734620024,0.008208676094531884
-0.013129297346200233,0.008208676094531884
-0.01306679734620024,0.008208676094531884
-0.013004297346200233,0.008208676094531884
-0.01294179734620024,0.008208676094531884
-0.012879297346200233,0.008208676094531884
-0.01281679734620024,0.008208676094531884
-0.012754297346200233,0.008208676094531884
-0.01269179734620024,0.008208676094531884
-0.012629297346200233,0.008208676094531884
-0.01256679734620024,0.008208676094531884
-0.012504297346200233,0.008208676094531884
-0.01244179734620024,0.008208676094531884
-0.012379297346200233,0.008208676094531884
-0.01231679734620024,0.008208676094531884
-0.012254297346200232,0.008208676094531884
-0.01219179734620024,0.008208676094531884
-0.012129297346200232,0.008208676094531884
-0.01206679734620024,0.008208676094531884
-0.012004297346200232,0.008208676094531884
-0.01194179734620024,0.008208676094531884
-0.011879297346200232,0.008208676094531884
-0.011816797346200239,0.008208676094531884
-0.011754297346200232,0.008208676094531884
-0.011691797346200239,0.008208676094531884
-0.011629297346200232,0.008208676094531884
-0.011566797346200239,0.008208676094531884
-0.011504297346200232,0.008208676094531884
-0.011441797346200239,0.008208676094531884
-0.011379297346200246,0.008208676094531884
-0.011316797346200239,0.008208676094531884
-0.011254297346200245,0.008208676094531884
-0.011191797346200238,0.008208676094531884
-0.011129297346200245,0.008208676094531884
-0.011066797346200238,0.008208676094531884
-0.011004297346200245,0.008208676094531884
-0.010941797346200238,0.008208676094531884
-0.010879297346200245,0.008208676094531884
-0.010816797346200238,0.008208676094531884
-0.010754297346200245,0.008208676094531884
-0.010691797346200238,0.008208676094531884
-0.010629297346200245,0.008208676094531884
-0.010566797346200238,0.008208676094531884
-0.010504297346200245,0.008208676094531884
-0.010441797346200238,0.008208676094531884
-0.010379297346200245,0.008208676094531884
-0.010316797346200238,0.008208676094531884
-0.010254297346200245,0.008208676094531884
-0.010191797346200238,0.008208676094531884
-0.010129297346200244,0.008208676094531884
-0.010066797346200237,0.008208676094531884
-0.010004297346200244,0.008208676094531884
-0.009941797346200237,0.008208676094531884
-0.009879297346200244,0.008208676094531884
-0.009816797346200237,0.008208676094531884
-0.009754297346200244,0.008208676094531884
-0.009691797346200237,0.008208676094531884
-0.009629297346200244,0.008208676094531884
-0.009566797346200237,0.008208676094531884
-0.009504297346200244,0.008208676094531884
-0.009441797346200237,0.008208676094531884
-0.009379297346200244,0.008208676094531884
-0.009316797346200237,0.008208676094531884
-0.009254297346200244,0.008208676094531884
-0.009191797346200237,0.008208676094531884
-0.009129297346200244,0.008208676094531884
-0.009066797346200237,0.008208676094531884
-0.009004297346200243,0.008208676094531884
-0.008941797346200236,0.008208676094531884
-0.008879297346200243,0.008208676094531884
-0.008816797346200236,0.008208676094531884
-0.008754297346200243,0.011897421702716147
-0.008691797346200236,0.008208676094531884
-0.008629297346200243,0.011897421702716147
-0.008566797346200236,0.008208676094531884
-0.008504297346200243,0.008208676094531884
-0.008441797346200236,0.008208676094531884
-0.008379297346200243,0.008208676094531884
-0.008316797346200236,0.008208676094531884
-0.008254297346200243,0.008208676094531884
-0.008191797346200236,0.008208676094531884
-0.008129297346200243,0.008208676094531884
-0.008066797346200236,0.008208676094531884
-0.008004297346200243,0.008208676094531884
-0.007941797346200236,0.008208676094531884
-0.007879297346200242,0.008208676094531884
-0.007816797346200235,0.008208676094531884
-0.007754297346200242,0.008208676094531884
-0.007691797346200235,0.008208676094531884
-0.007629297346200242,0.008208676094531884
-0.007566797346200235,0.008208676094531884
-0.007504297346200242,0.008208676094531884
-0.007441797346200235,0.008208676094531884
-0.007379297346200242,0.008208676094531884
-0.007316797346200235,0.008208676094531884
-0.007254297346200242,0.008208676094531884
-0.007191797346200235,0.008208676094531884
-0.007129297346200242,0.008208676094531884
-0.007066797346200235,0.008208676094531884
-0.007004297346200242,0.008208676094531884
-0.006941797346200235,0.008208676094531884
-0.006879297346200242,0.008208676094531884
-0.006816797346200235,0.008208676094531884
-0.0067542973462002415,0.008208676094531884
-0.0066917973462002345,0.008208676094531884
-0.006629297346200241,0.008208676094531884
-0.006566797346200234,0.008208676094531884
-0.006504297346200241,0.008208676094531884
-0.006441797346200234,0.008208676094531884
-0.006379297346200241,0.008208676094531884
-0.006316797346200234,0.008208676094531884
-0.006254297346200241,0.008208676094531884
-0.006191797346200234,0.008208676094531884
-0.006129297346200241,0.008208676094531884
-0.006066797346200234,0.008208676094531884
-0.006004297346200241,0.008208676094531884
-0.005941797346200234,0.008208676094531884
-0.005879297346200241,0.008208676094531884
-0.005816797346200234,0.008208676094531884
-0.005754297346200241,0.008208676094531884
-0.005691797346200234,0.008208676094531884
-0.0056292973462002405,0.008208676094531884
-0.0055667973462002335,0.008208676094531884
-0.00550429734620024,0.008208676094531884
-0.005441797346200233,0.008208676094531884
-0.00537929734620024,0.008208676094531884
-0.005316797346200233,0.008208676094531884
-0.00525429734620024,0.008208676094531884
-0.005191797346200233,0.008208676094531884
-0.00512929734620024,0.008208676094531884
-0.005066797346200233,0.008208676094531884
-0.00500429734620024,0.008208676094531884
-0.004941797346200233,0.008208676094531884
-0.00487929734620024,0.008208676094531884
-0.004816797346200233,0.008208676094531884
-0.00475429734620024,0.008208676094531884
-0.004691797346200233,0.008208676094531884
-0.00462929734620024,0.008208676094531884
-0.004566797346200233,0.008208676094531884
-0.0045042973462002395,0.008208676094531884
-0.0044417973462002325,0.008208676094531884
-0.004379297346200239,0.008208676094531884
-0.004316797346200232,0.008208676094531884
-0.004254297346200239,0.008208676094531884
-0.004191797346200232,0.008208676094531884
-0.004129297346200239,0.008208676094531884
-0.004066797346200232,0.008208676094531884
-0.004004297346200239,0.008208676094531884
-0.003941797346200232,0.008208676094531884
-0.003879297346200239,0.008208676094531884
-0.003816797346200232,0.008208676094531884
-0.003754297346200239,0.008208676094531884
-0.003691797346200232,0.008208676094531884
-0.0036292973462002387,0.008208676094531884
-0.0035667973462002456,0.008208676094531884
-0.0035042973462002386,0.008208676094531884
-0.0034417973462002455,0.008208676094531884
-0.0033792973462002385,0.008208676094531884
-0.0033167973462002454,0.008208676094531884
-0.0032542973462002384,0.008208676094531884
-0.0031917973462002452,0.008208676094531884
-0.0031292973462002383,0.008208676094531884
-0.003066797346200245,0.008208676094531884
-0.003004297346200238,0.008208676094531884
-0.002941797346200245,0.008208676094531884
-0.002879297346200238,0.008208676094531884
-0.002816797346200245,0.008208676094531884
-0.002754297346200238,0.008208676094531884
-0.002691797346200245,0.008208676094531884
-0.002629297346200238,0.008208676094531884
-0.0025667973462002447,0.008208676094531884
-0.0025042973462002377,0.008208676094531884
-0.0024417973462002446,0.008208676094531884
-0.0023792973462002376,0.008208676094531884
-0.0023167973462002445,0.008208676094531884
-0.0022542973462002375,0.008208676094531884
-0.0021917973462002444,0.008208676094531884
-0.0021292973462002374,0.008208676094531884
-0.0020667973462002442,0.008208676094531884
-0.0020042973462002373,0.008208676094531884
-0.0019417973462002441,0.008208676094531884
-0.0018792973462002371,0.008208676094531884
-0.001816797346200244,0.008208676094531884
-0.001754297346200237,0.008208676094531884
-0.001691797346200244,0.008208676094531884
-0.001629297346200237,0.008208676094531884
-0.0015667973462002438,0.008208676094531884
-0.0015042973462002368,0.008208676094531884
-0.0014417973462002437,0.008208676094531884
-0.0013792973462002367,0.008208676094531884
-0.0013167973462002436,0.008208676094531884
-0.0012542973462002366,0.008208676094531884
-0.0011917973462002435,0.008208676094531884
-0.0011292973462002365,0.008208676094531884
-0.0010667973462002434,0.008208676094531884
-0.0010042973462002364,0.008208676094531884
-0.0009417973462002432,0.008208676094531884
-0.0008792973462002363,0.008208676094531884
-0.0008167973462002431,0.008208676094531884
-0.0007542973462002361,0.008208676094531884
-0.000691797346200243,0.008208676094531884
-0.000629297346200236,0.008208676094531884
-0.0005667973462002429,0.008208676094531884
-0.0005042973462002359,0.008208676094531884
-0.0004417973462002428,0.008208676094531884
-0.0003792973462002358,0.008208676094531884
-0.0003167973462002427,0.008208676094531884
-0.0002542973462002357,0.011897421702716147
-0.00019179734620024258,0.01558616731090041
-0.00012929734620023559,0.01558616731090041
-6.679734620024247e-05,0.01927491291908467
-4.2973462002354745e-06,0.29224208792472006
5.820265379975764e-05,3.3502121971094736
0.00012070265379976464,3.3243909778521834
0.00018320265379975775,3.3207022322439994
0.00024570265379976475,3.3207022322439994
0.00030820265379975786,3.3207022322439994
0.00037070265379976486,3.3207022322439994
0.000433202653799758,3.3207022322439994
0.000495702653799765,3.3207022322439994
0.0005582026537997581,3.3207022322439994
0.0006207026537997651,3.3207022322439994
0.0006832026537997582,3.3207022322439994
0.0007457026537997652,3.3207022322439994
0.0008082026537997583,3.3207022322439994
0.0008707026537997653,3.3207022322439994
0.0009332026537997584,3.3207022322439994
0.0009957026537997654,3.3207022322439994
0.0010582026537997585,3.3207022322439994
0.0011207026537997655,3.3207022322439994
0.0011832026537997586,3.3207022322439994
0.0012457026537997656,3.3207022322439994
0.0013082026537997588,3.3207022322439994
0.0013707026537997657,3.3207022322439994
0.0014332026537997589,3.3207022322439994
0.0014957026537997659,3.3207022322439994
0.001558202653799759,3.3207022322439994
0.001620702653799766,3.3207022322439994
0.001683202653799759,3.3207022322439994
0.001745702653799766,3.3207022322439994
0.0018082026537997592,3.3207022322439994
0.0018707026537997662,3.3207022322439994
0.0019332026537997593,3.3207022322439994
0.0019957026537997663,3.3207022322439994
0.0020582026537997594,3.3207022322439994
0.0021207026537997664,3.3207022322439994
0.0021832026537997595,3.3207022322439994
0.0022457026537997665,3.3207022322439994
0.0023082026537997596,3.3207022322439994
0.0023707026537997666,3.3207022322439994
0.0024332026537997598,3.3207022322439994
0.0024957026537997667,3.3207022322439994
0.00255820265379976,3.3207022322439994
0.002620702653799767,3.3207022322439994
0.00268320265379976,3.3207022322439994
0.002745702653799767,3.3207022322439994
0.00280820265379976,3.3207022322439994
0.002870702653799767,3.3207022322439994
0.00293320265379976,3.3207022322439994
0.002995702653799767,3.3207022322439994
0.0030582026537997603,3.3207022322439994
0.0031207026537997673,3.3207022322439994
0.0031832026537997604,3.3207022322439994
0.0032457026537997674,3.3207022322439994
0.0033082026537997605,3.3207022322439994
0.0033707026537997675,3.3207022322439994
0.0034332026537997606,3.3207022322439994
0.0034957026537997676,3.3207022322439994
0.0035582026537997608,3.3207022322439994
0.0036207026537997677,3.3207022322439994
0.003683202653799761,3.3207022322439994
0.003745702653799768,3.3207022322439994
0.003808202653799761,3.3207022322439994
0.003870702653799768,3.3207022322439994
0.003933202653799761,3.3207022322439994
0.003995702653799768,3.3207022322439994
0.004058202653799761,3.3207022322439994
0.004120702653799768,3.3207022322439994
0.004183202653799761,3.3207022322439994
0.004245702653799754,3.3207022322439994
0.004308202653799761,3.3207022322439994
0.0043707026537997545,3.3207022322439994
0.0044332026537997615,3.3207022322439994
0.004495702653799755,3.3207022322439994
0.004558202653799762,3.3207022322439994
0.004620702653799755,3.3207022322439994
0.004683202653799762,3.3207022322439994
0.004745702653799755,3.3207022322439994
0.004808202653799762,3.3207022322439994
0.004870702653799755,3.3207022322439994
0.004933202653799762,3.3207022322439994
0.004995702653799755,3.3207022322439994
0.005058202653799762,3.3207022322439994
0.005120702653799755,3.3207022322439994
0.005183202653799762,3.3207022322439994
0.005245702653799755,3.3207022322439994
0.005308202653799762,3.3207022322439994
0.005370702653799755,3.317013486635815
0.005433202653799762,3.3207022322439994
0.0054957026537997555,3.3207022322439994
0.0055582026537997625,3.3207022322439994
0.005620702653799756,3.3207022322439994
0.005683202653799763,3.3207022322439994
0.005745702653799756,3.3207022322439994
0.005808202653799763,3.3207022322439994
0.005870702653799756,3.3207022322439994
0.005933202653799763,3.3207022322439994
0.005995702653799756,3.3207022322439994
0.006058202653799763,3.3207022322439994
0.006120702653799756,3.3207022322439994
0.006183202653799763,3.3207022322439994
0.006245702653799756,3.3207022322439994
0.006308202653799763,3.3207022322439994
0.006370702653799756,3.3207022322439994
0.006433202653799763,3.3207022322439994
0.006495702653799756,3.3207022322439994
0.006558202653799763,3.3207022322439994
0.0066207026537997565,3.3207022322439994
0.0066832026537997635,3.3207022322439994
0.006745702653799757,3.3207022322439994
0.006808202653799764,3.3207022322439994
0.006870702653799757,3.3207022322439994
0.006933202653799764,3.3207022322439994
0.006995702653799757,3.3207022322439994
0.007058202653799764,3.3207022322439994
0.007120702653799757,3.3207022322439994
0.007183202653799764,3.3207022322439994
0.007245702653799757,3.3207022322439994
0.007308202653799764,3.3207022322439994
0.007370702653799757,3.3207022322439994
0.007433202653799764,3.3207022322439994
0.007495702653799757,3.3207022322439994
0.007558202653799764,3.3207022322439994
0.007620702653799757,3.3207022322439994
0.007683202653799764,3.3207022322439994
0.0077457026537997575,3.3207022322439994
0.0078082026537997645,3.3207022322439994
0.007870702653799758,3.3207022322439994
0.007933202653799765,3.3207022322439994
0.007995702653799758,3.3207022322439994
0.008058202653799765,3.3207022322439994
0.008120702653799758,3.3207022322439994
0.008183202653799765,3.3207022322439994
0.008245702653799758,3.3207022322439994
0.008308202653799765,3.3207022322439994
0.008370702653799758,3.3207022322439994
0.008433202653799765,3.3207022322439994
0.008495702653799758,3.3207022322439994
0.008558202653799765,3.3207022322439994
0.008620702653799758,3.3207022322439994
0.008683202653799765,3.3207022322439994
0.008745702653799758,3.3207022322439994
0.008808202653799765,3.3207022322439994
0.008870702653799759,3.3207022322439994
0.008933202653799766,3.3207022322439994
0.008995702653799759,3.317013486635815
0.009058202653799766,3.3207022322439994
0.009120702653799759,3.3207022322439994
0.009183202653799766,3.3207022322439994
0.009245702653799759,3.3207022322439994
0.009308202653799766,3.3207022322439994
0.009370702653799759,3.3207022322439994
0.009433202653799766,3.3207022322439994
0.009495702653799759,3.3207022322439994
0.009558202653799766,3.3207022322439994
0.00962070265379976,3.3207022322439994
0.009683202653799766,3.3207022322439994
0.00974570265379976,3.3207022322439994
0.009808202653799766,3.3207022322439994
0.00987070265379976,3.3207022322439994
0.009933202653799766,3.3207022322439994
0.00999570265379976,3.3207022322439994
0.010058202653799767,3.3207022322439994
0.01012070265379976,3.3207022322439994
0.010183202653799767,3.3207022322439994
0.01024570265379976,3.3207022322439994
0.010308202653799767,3.3207022322439994
0.01037070265379976,3.3207022322439994
0.010433202653799767,3.3207022322439994
0.01049570265379976,3.3207022322439994
0.010558202653799767,3.3207022322439994
0.01062070265379976,3.3207022322439994
0.010683202653799767,3.3207022322439994
0.01074570265379976,3.3207022322439994
0.010808202653799767,3.3207022322439994
0.01087070265379976,3.3207022322439994
0.010933202653799767,3.3207022322439994
0.01099570265379976,3.3207022322439994
0.011058202653799767,3.3207022322439994
0.01112070265379976,3.3207022322439994
0.011183202653799768,3.3207022322439994
0.01124570265379976,3.3207022322439994
0.011308202653799768,3.3207022322439994
0.01137070265379976,3.317013486635815
0.011433202653799768,3.3207022322439994
0.01149570265379976,3.317013486635815
