Data/acq0152.csv

#Digilent WaveForms Oscilloscope Acquisition
#Device Name: Discovery2
#Serial Number: SN:210321B282B2
#Date Time: 2026-05-13 12:41:17.594
#Sample rate: 16000Hz
#Samples: 3200
#Trigger: Source: Channel 1 Type: Edge Condition: Rising Level: 500 mV Hyst.: 5 mV HoldOff: 0 s
#Channel 1: Range: 1 V/div Offset: 0 V Sample Mode: Average

Time (s),Channel 1 (V)
-0.017704209183673478,0.008208676094531884
-0.01764170918367347,0.008208676094531884
-0.017579209183673478,0.008208676094531884
-0.01751670918367347,0.008208676094531884
-0.017454209183673478,0.008208676094531884
-0.01739170918367347,0.008208676094531884
-0.017329209183673477,0.008208676094531884
-0.01726670918367347,0.008208676094531884
-0.017204209183673477,0.008208676094531884
-0.01714170918367347,0.008208676094531884
-0.017079209183673477,0.008208676094531884
-0.01701670918367347,0.008208676094531884
-0.016954209183673477,0.008208676094531884
-0.01689170918367347,0.008208676094531884
-0.016829209183673477,0.008208676094531884
-0.01676670918367347,0.008208676094531884
-0.016704209183673477,0.008208676094531884
-0.01664170918367347,0.008208676094531884
-0.016579209183673477,0.008208676094531884
-0.01651670918367347,0.008208676094531884
-0.016454209183673477,0.008208676094531884
-0.01639170918367347,0.008208676094531884
-0.016329209183673477,0.008208676094531884
-0.01626670918367347,0.008208676094531884
-0.016204209183673476,0.008208676094531884
-0.01614170918367347,0.008208676094531884
-0.016079209183673476,0.008208676094531884
-0.01601670918367347,0.008208676094531884
-0.015954209183673476,0.008208676094531884
-0.01589170918367347,0.008208676094531884
-0.015829209183673476,0.008208676094531884
-0.01576670918367347,0.008208676094531884
-0.015704209183673476,0.008208676094531884
-0.01564170918367347,0.008208676094531884
-0.015579209183673476,0.008208676094531884
-0.015516709183673469,0.008208676094531884
-0.015454209183673476,0.008208676094531884
-0.015391709183673469,0.008208676094531884
-0.015329209183673476,0.004519930486347622
-0.015266709183673469,0.008208676094531884
-0.015204209183673476,0.008208676094531884
-0.015141709183673469,0.004519930486347622
-0.015079209183673475,0.008208676094531884
-0.015016709183673468,0.008208676094531884
-0.014954209183673475,0.008208676094531884
-0.014891709183673468,0.008208676094531884
-0.014829209183673475,0.008208676094531884
-0.014766709183673468,0.008208676094531884
-0.014704209183673475,0.008208676094531884
-0.014641709183673468,0.008208676094531884
-0.014579209183673475,0.008208676094531884
-0.014516709183673468,0.008208676094531884
-0.014454209183673475,0.008208676094531884
-0.014391709183673468,0.008208676094531884
-0.014329209183673475,0.008208676094531884
-0.014266709183673468,0.008208676094531884
-0.014204209183673475,0.008208676094531884
-0.014141709183673468,0.008208676094531884
-0.014079209183673475,0.008208676094531884
-0.014016709183673468,0.008208676094531884
-0.013954209183673474,0.008208676094531884
-0.013891709183673467,0.008208676094531884
-0.013829209183673474,0.008208676094531884
-0.013766709183673467,0.008208676094531884
-0.013704209183673474,0.004519930486347622
-0.013641709183673467,0.004519930486347622
-0.013579209183673474,0.004519930486347622
-0.013516709183673467,0.004519930486347622
-0.013454209183673474,0.008208676094531884
-0.013391709183673467,0.008208676094531884
-0.013329209183673474,0.008208676094531884
-0.013266709183673467,0.008208676094531884
-0.013204209183673474,0.008208676094531884
-0.013141709183673467,0.008208676094531884
-0.013079209183673474,0.008208676094531884
-0.013016709183673467,0.008208676094531884
-0.012954209183673474,0.008208676094531884
-0.012891709183673467,0.004519930486347622
-0.012829209183673473,0.004519930486347622
-0.012766709183673466,0.004519930486347622
-0.012704209183673473,0.008208676094531884
-0.012641709183673466,0.008208676094531884
-0.012579209183673473,0.008208676094531884
-0.012516709183673466,0.008208676094531884
-0.012454209183673473,0.008208676094531884
-0.012391709183673466,0.008208676094531884
-0.012329209183673473,0.008208676094531884
-0.012266709183673466,0.008208676094531884
-0.012204209183673473,0.008208676094531884
-0.012141709183673466,0.008208676094531884
-0.012079209183673473,0.008208676094531884
-0.012016709183673466,0.008208676094531884
-0.011954209183673473,0.008208676094531884
-0.011891709183673466,0.008208676094531884
-0.011829209183673473,0.008208676094531884
-0.011766709183673466,0.008208676094531884
-0.011704209183673472,0.008208676094531884
-0.011641709183673465,0.008208676094531884
-0.011579209183673472,0.008208676094531884
-0.011516709183673465,0.004519930486347622
-0.011454209183673472,0.008208676094531884
-0.011391709183673479,0.008208676094531884
-0.011329209183673472,0.004519930486347622
-0.011266709183673479,0.008208676094531884
-0.011204209183673472,0.004519930486347622
-0.011141709183673479,0.004519930486347622
-0.011079209183673472,0.004519930486347622
-0.011016709183673479,0.004519930486347622
-0.010954209183673472,0.004519930486347622
-0.010891709183673479,0.008208676094531884
-0.010829209183673472,0.008208676094531884
-0.010766709183673479,0.008208676094531884
-0.010704209183673472,0.008208676094531884
-0.010641709183673478,0.004519930486347622
-0.010579209183673471,0.004519930486347622
-0.010516709183673478,0.004519930486347622
-0.010454209183673471,0.004519930486347622
-0.010391709183673478,0.004519930486347622
-0.010329209183673471,0.004519930486347622
-0.010266709183673478,0.004519930486347622
-0.010204209183673471,0.004519930486347622
-0.010141709183673478,0.004519930486347622
-0.010079209183673471,0.004519930486347622
-0.010016709183673478,0.004519930486347622
-0.00995420918367347,0.004519930486347622
-0.009891709183673478,0.004519930486347622
-0.00982920918367347,0.004519930486347622
-0.009766709183673478,0.004519930486347622
-0.00970420918367347,0.004519930486347622
-0.009641709183673478,0.008208676094531884
-0.00957920918367347,0.004519930486347622
-0.009516709183673477,0.004519930486347622
-0.00945420918367347,0.004519930486347622
-0.009391709183673477,0.004519930486347622
-0.00932920918367347,0.004519930486347622
-0.009266709183673477,0.004519930486347622
-0.00920420918367347,0.004519930486347622
-0.009141709183673477,0.004519930486347622
-0.00907920918367347,0.004519930486347622
-0.009016709183673477,0.008208676094531884
-0.00895420918367347,0.008208676094531884
-0.008891709183673477,0.004519930486347622
-0.00882920918367347,0.004519930486347622
-0.008766709183673477,0.004519930486347622
-0.00870420918367347,0.004519930486347622
-0.008641709183673477,0.004519930486347622
-0.00857920918367347,0.008208676094531884
-0.008516709183673477,0.008208676094531884
-0.00845420918367347,0.008208676094531884
-0.008391709183673476,0.008208676094531884
-0.00832920918367347,0.008208676094531884
-0.008266709183673476,0.008208676094531884
-0.00820420918367347,0.008208676094531884
-0.008141709183673476,0.004519930486347622
-0.00807920918367347,0.004519930486347622
-0.008016709183673476,0.004519930486347622
-0.007954209183673469,0.008208676094531884
-0.007891709183673476,0.004519930486347622
-0.007829209183673469,0.008208676094531884
-0.007766709183673476,0.008208676094531884
-0.007704209183673469,0.008208676094531884
-0.007641709183673476,0.008208676094531884
-0.007579209183673469,0.008208676094531884
-0.007516709183673476,0.004519930486347622
-0.007454209183673469,0.004519930486347622
-0.0073917091836734755,0.008208676094531884
-0.0073292091836734685,0.008208676094531884
-0.007266709183673475,0.008208676094531884
-0.007204209183673468,0.008208676094531884
-0.007141709183673475,0.008208676094531884
-0.007079209183673468,0.008208676094531884
-0.007016709183673475,0.008208676094531884
-0.006954209183673468,0.008208676094531884
-0.006891709183673475,0.008208676094531884
-0.006829209183673468,0.008208676094531884
-0.006766709183673475,0.008208676094531884
-0.006704209183673468,0.004519930486347622
-0.006641709183673475,0.008208676094531884
-0.006579209183673468,0.008208676094531884
-0.006516709183673475,0.004519930486347622
-0.006454209183673468,0.008208676094531884
-0.006391709183673475,0.008208676094531884
-0.006329209183673468,0.008208676094531884
-0.0062667091836734745,0.008208676094531884
-0.0062042091836734675,0.008208676094531884
-0.006141709183673474,0.008208676094531884
-0.006079209183673467,0.008208676094531884
-0.006016709183673474,0.008208676094531884
-0.005954209183673467,0.008208676094531884
-0.005891709183673474,0.008208676094531884
-0.005829209183673467,0.008208676094531884
-0.005766709183673474,0.008208676094531884
-0.005704209183673467,0.008208676094531884
-0.005641709183673474,0.008208676094531884
-0.005579209183673467,0.008208676094531884
-0.005516709183673474,0.008208676094531884
-0.005454209183673467,0.008208676094531884
-0.005391709183673474,0.008208676094531884
-0.005329209183673467,0.008208676094531884
-0.005266709183673474,0.008208676094531884
-0.005204209183673467,0.008208676094531884
-0.0051417091836734735,0.008208676094531884
-0.0050792091836734665,0.008208676094531884
-0.005016709183673473,0.008208676094531884
-0.004954209183673466,0.008208676094531884
-0.004891709183673473,0.008208676094531884
-0.004829209183673466,0.008208676094531884
-0.004766709183673473,0.008208676094531884
-0.004704209183673466,0.008208676094531884
-0.004641709183673473,0.008208676094531884
-0.004579209183673466,0.008208676094531884
-0.004516709183673473,0.008208676094531884
-0.004454209183673466,0.008208676094531884
-0.004391709183673473,0.008208676094531884
-0.004329209183673466,0.008208676094531884
-0.004266709183673473,0.008208676094531884
-0.004204209183673466,0.008208676094531884
-0.004141709183673473,0.008208676094531884
-0.004079209183673466,0.008208676094531884
-0.0040167091836734725,0.008208676094531884
-0.0039542091836734655,0.008208676094531884
-0.0038917091836734724,0.008208676094531884
-0.0038292091836734654,0.008208676094531884
-0.0037667091836734723,0.008208676094531884
-0.0037042091836734653,0.008208676094531884
-0.003641709183673472,0.008208676094531884
-0.003579209183673479,0.008208676094531884
-0.003516709183673472,0.008208676094531884
-0.003454209183673479,0.008208676094531884
-0.003391709183673472,0.008208676094531884
-0.003329209183673479,0.008208676094531884
-0.003266709183673472,0.008208676094531884
-0.0032042091836734787,0.008208676094531884
-0.0031417091836734717,0.008208676094531884
-0.0030792091836734786,0.008208676094531884
-0.0030167091836734716,0.008208676094531884
-0.0029542091836734785,0.008208676094531884
-0.0028917091836734715,0.008208676094531884
-0.0028292091836734784,0.008208676094531884
-0.0027667091836734714,0.008208676094531884
-0.0027042091836734783,0.008208676094531884
-0.0026417091836734713,0.008208676094531884
-0.002579209183673478,0.008208676094531884
-0.002516709183673471,0.008208676094531884
-0.002454209183673478,0.008208676094531884
-0.002391709183673471,0.008208676094531884
-0.002329209183673478,0.008208676094531884
-0.002266709183673471,0.008208676094531884
-0.002204209183673478,0.008208676094531884
-0.002141709183673471,0.008208676094531884
-0.0020792091836734777,0.008208676094531884
-0.0020167091836734707,0.008208676094531884
-0.0019542091836734776,0.008208676094531884
-0.0018917091836734706,0.008208676094531884
-0.0018292091836734775,0.008208676094531884
-0.0017667091836734705,0.008208676094531884
-0.0017042091836734774,0.008208676094531884
-0.0016417091836734704,0.008208676094531884
-0.0015792091836734773,0.008208676094531884
-0.0015167091836734703,0.008208676094531884
-0.0014542091836734772,0.008208676094531884
-0.0013917091836734702,0.008208676094531884
-0.001329209183673477,0.008208676094531884
-0.00126670918367347,0.008208676094531884
-0.001204209183673477,0.008208676094531884
-0.00114170918367347,0.008208676094531884
-0.0010792091836734768,0.011897421702716147
-0.0010167091836734699,0.008208676094531884
-0.0009542091836734767,0.008208676094531884
-0.0008917091836734697,0.008208676094531884
-0.0008292091836734766,0.008208676094531884
-0.0007667091836734696,0.008208676094531884
-0.0007042091836734765,0.008208676094531884
-0.0006417091836734695,0.008208676094531884
-0.0005792091836734764,0.011897421702716147
-0.0005167091836734694,0.011897421702716147
-0.0004542091836734763,0.011897421702716147
-0.0003917091836734693,0.011897421702716147
-0.0003292091836734762,0.011897421702716147
-0.0002667091836734692,0.01558616731090041
-0.00020420918367347607,0.011897421702716147
-0.00014170918367346907,0.01558616731090041
-7.920918367347596e-05,0.01927491291908467
-1.6709183673468964e-05,0.01927491291908467
4.579081632652415e-05,1.8267602609293734
0.00010829081632653115,3.3391459602849207
0.00017079081632652426,3.3207022322439994
0.00023329081632653126,3.3207022322439994
0.0002957908163265244,3.3207022322439994
0.00035829081632653137,3.3207022322439994
0.0004207908163265245,3.3207022322439994
0.0004832908163265315,3.3207022322439994
0.0005457908163265246,3.3207022322439994
0.0006082908163265316,3.3207022322439994
0.0006707908163265247,3.3207022322439994
0.0007332908163265317,3.3207022322439994
0.0007957908163265248,3.3207022322439994
0.0008582908163265318,3.3207022322439994
0.0009207908163265249,3.3207022322439994
0.000983290816326532,3.3207022322439994
0.001045790816326525,3.3207022322439994
0.001108290816326532,3.3207022322439994
0.0011707908163265252,3.3207022322439994
0.0012332908163265321,3.3207022322439994
0.0012957908163265253,3.3207022322439994
0.0013582908163265323,3.3207022322439994
0.0014207908163265254,3.3207022322439994
0.0014832908163265324,3.3207022322439994
0.0015457908163265255,3.3207022322439994
0.0016082908163265325,3.3207022322439994
0.0016707908163265256,3.3207022322439994
0.0017332908163265326,3.3207022322439994
0.0017957908163265257,3.3207022322439994
0.0018582908163265327,3.3207022322439994
0.0019207908163265258,3.3207022322439994
0.001983290816326533,3.3207022322439994
0.002045790816326526,3.3207022322439994
0.002108290816326533,3.3207022322439994
0.002170790816326526,3.3207022322439994
0.002233290816326533,3.3207022322439994
0.002295790816326526,3.3207022322439994
0.002358290816326533,3.3207022322439994
0.0024207908163265263,3.3207022322439994
0.0024832908163265333,3.3207022322439994
0.0025457908163265264,3.3207022322439994
0.0026082908163265334,3.3207022322439994
0.0026707908163265265,3.3207022322439994
0.0027332908163265335,3.3207022322439994
0.0027957908163265266,3.3207022322439994
0.0028582908163265336,3.3207022322439994
0.0029207908163265267,3.3207022322439994
0.0029832908163265337,3.3207022322439994
0.003045790816326527,3.3207022322439994
0.003108290816326534,3.3207022322439994
0.003170790816326527,3.3207022322439994
0.003233290816326534,3.3207022322439994
0.003295790816326527,3.3207022322439994
0.003358290816326534,3.3207022322439994
0.003420790816326527,3.317013486635815
0.003483290816326534,3.3207022322439994
0.0035457908163265273,3.3207022322439994
0.0036082908163265343,3.3207022322439994
0.0036707908163265274,3.3207022322439994
0.0037332908163265344,3.3207022322439994
0.0037957908163265275,3.3207022322439994
0.0038582908163265345,3.3207022322439994
0.003920790816326528,3.3207022322439994
0.003983290816326535,3.3207022322439994
0.004045790816326528,3.3207022322439994
0.004108290816326535,3.3207022322439994
0.004170790816326528,3.3207022322439994
0.004233290816326521,3.3207022322439994
0.004295790816326528,3.3207022322439994
0.004358290816326521,3.3207022322439994
0.004420790816326528,3.3207022322439994
0.004483290816326521,3.3207022322439994
0.004545790816326528,3.3207022322439994
0.004608290816326521,3.3207022322439994
0.004670790816326528,3.3207022322439994
0.004733290816326521,3.3207022322439994
0.004795790816326528,3.3207022322439994
0.0048582908163265215,3.3207022322439994
0.0049207908163265285,3.3207022322439994
0.004983290816326522,3.3207022322439994
0.005045790816326529,3.3207022322439994
0.005108290816326522,3.3207022322439994
0.005170790816326529,3.3207022322439994
0.005233290816326522,3.3207022322439994
0.005295790816326529,3.3207022322439994
0.005358290816326522,3.3207022322439994
0.005420790816326529,3.3207022322439994
0.005483290816326522,3.3207022322439994
0.005545790816326529,3.3207022322439994
0.005608290816326522,3.3207022322439994
0.005670790816326529,3.3207022322439994
0.005733290816326522,3.3207022322439994
0.005795790816326529,3.3207022322439994
0.005858290816326522,3.3207022322439994
0.005920790816326529,3.3207022322439994
0.0059832908163265225,3.3207022322439994
0.0060457908163265295,3.3207022322439994
0.006108290816326523,3.3207022322439994
0.00617079081632653,3.3207022322439994
0.006233290816326523,3.3207022322439994
0.00629579081632653,3.3207022322439994
0.006358290816326523,3.3207022322439994
0.00642079081632653,3.3207022322439994
0.006483290816326523,3.3207022322439994
0.00654579081632653,3.3207022322439994
0.006608290816326523,3.3207022322439994
0.00667079081632653,3.3207022322439994
0.006733290816326523,3.3207022322439994
0.00679579081632653,3.3207022322439994
0.006858290816326523,3.3207022322439994
0.00692079081632653,3.3207022322439994
0.006983290816326523,3.3207022322439994
0.00704579081632653,3.3207022322439994
0.0071082908163265235,3.3207022322439994
0.0071707908163265305,3.3207022322439994
0.007233290816326524,3.3207022322439994
0.007295790816326531,3.3207022322439994
0.007358290816326524,3.3207022322439994
0.007420790816326531,3.3207022322439994
0.007483290816326524,3.3207022322439994
0.007545790816326531,3.3207022322439994
0.007608290816326524,3.3207022322439994
0.007670790816326531,3.3207022322439994
0.007733290816326524,3.3207022322439994
0.007795790816326531,3.3207022322439994
0.007858290816326524,3.3207022322439994
0.007920790816326531,3.3207022322439994
0.007983290816326524,3.3207022322439994
0.008045790816326531,3.3207022322439994
0.008108290816326524,3.3207022322439994
0.008170790816326531,3.3207022322439994
0.008233290816326524,3.3207022322439994
0.008295790816326531,3.3207022322439994
0.008358290816326525,3.3207022322439994
0.008420790816326532,3.3207022322439994
0.008483290816326525,3.3207022322439994
0.008545790816326532,3.3207022322439994
0.008608290816326525,3.3207022322439994
0.008670790816326532,3.3207022322439994
0.008733290816326525,3.3207022322439994
0.008795790816326532,3.3207022322439994
0.008858290816326525,3.3207022322439994
0.008920790816326532,3.3207022322439994
0.008983290816326525,3.3207022322439994
0.009045790816326532,3.3207022322439994
0.009108290816326525,3.3207022322439994
0.009170790816326532,3.3207022322439994
0.009233290816326525,3.3207022322439994
0.009295790816326532,3.3207022322439994
0.009358290816326525,3.3207022322439994
0.009420790816326532,3.3207022322439994
0.009483290816326526,3.3207022322439994
0.009545790816326533,3.3207022322439994
0.009608290816326526,3.3207022322439994
0.009670790816326533,3.3207022322439994
0.009733290816326526,3.3207022322439994
0.009795790816326533,3.3207022322439994
0.009858290816326526,3.3207022322439994
0.009920790816326533,3.3207022322439994
0.009983290816326526,3.3207022322439994
0.010045790816326533,3.3207022322439994
0.010108290816326526,3.3207022322439994
0.010170790816326533,3.3207022322439994
0.010233290816326526,3.3207022322439994
0.010295790816326533,3.3207022322439994
0.010358290816326526,3.3207022322439994
0.010420790816326533,3.3207022322439994
0.010483290816326526,3.3207022322439994
0.010545790816326533,3.3207022322439994
0.010608290816326527,3.3207022322439994
0.010670790816326534,3.3207022322439994
0.010733290816326527,3.3207022322439994
0.010795790816326534,3.3207022322439994
0.010858290816326527,3.3207022322439994
0.010920790816326534,3.3207022322439994
0.010983290816326527,3.3207022322439994
0.011045790816326534,3.3207022322439994
0.011108290816326527,3.3207022322439994
0.011170790816326534,3.3207022322439994
0.011233290816326527,3.3207022322439994
0.011295790816326534,3.3207022322439994
0.011358290816326527,3.3207022322439994
0.011420790816326534,3.3207022322439994
0.011483290816326527,3.3207022322439994
