Data/acq0046.csv

#Digilent WaveForms Oscilloscope Acquisition
#Device Name: Discovery2
#Serial Number: SN:210321B282B2
#Date Time: 2026-05-13 12:40:49.321
#Sample rate: 16000Hz
#Samples: 3200
#Trigger: Source: Channel 1 Type: Edge Condition: Rising Level: 500 mV Hyst.: 5 mV HoldOff: 0 s
#Channel 1: Range: 1 V/div Offset: 0 V Sample Mode: Average

Time (s),Channel 1 (V)
-0.01770143581081081,0.008208676094531884
-0.017638935810810802,0.004519930486347622
-0.01757643581081081,0.008208676094531884
-0.017513935810810802,0.008208676094531884
-0.01745143581081081,0.008208676094531884
-0.0173889358108108,0.008208676094531884
-0.01732643581081081,0.008208676094531884
-0.0172639358108108,0.008208676094531884
-0.01720143581081081,0.008208676094531884
-0.0171389358108108,0.008208676094531884
-0.01707643581081081,0.008208676094531884
-0.0170139358108108,0.008208676094531884
-0.016951435810810808,0.008208676094531884
-0.0168889358108108,0.008208676094531884
-0.016826435810810808,0.008208676094531884
-0.0167639358108108,0.008208676094531884
-0.016701435810810808,0.008208676094531884
-0.0166389358108108,0.008208676094531884
-0.016576435810810808,0.008208676094531884
-0.0165139358108108,0.008208676094531884
-0.016451435810810808,0.008208676094531884
-0.0163889358108108,0.008208676094531884
-0.016326435810810808,0.008208676094531884
-0.0162639358108108,0.008208676094531884
-0.016201435810810808,0.008208676094531884
-0.0161389358108108,0.008208676094531884
-0.016076435810810807,0.008208676094531884
-0.0160139358108108,0.008208676094531884
-0.015951435810810807,0.008208676094531884
-0.0158889358108108,0.008208676094531884
-0.015826435810810807,0.008208676094531884
-0.0157639358108108,0.008208676094531884
-0.015701435810810807,0.008208676094531884
-0.0156389358108108,0.008208676094531884
-0.015576435810810807,0.008208676094531884
-0.0155139358108108,0.011897421702716147
-0.015451435810810807,0.008208676094531884
-0.0153889358108108,0.008208676094531884
-0.015326435810810807,0.008208676094531884
-0.0152639358108108,0.008208676094531884
-0.015201435810810807,0.008208676094531884
-0.0151389358108108,0.008208676094531884
-0.015076435810810807,0.008208676094531884
-0.0150139358108108,0.008208676094531884
-0.014951435810810806,0.008208676094531884
-0.0148889358108108,0.008208676094531884
-0.014826435810810806,0.008208676094531884
-0.0147639358108108,0.008208676094531884
-0.014701435810810806,0.008208676094531884
-0.0146389358108108,0.008208676094531884
-0.014576435810810806,0.008208676094531884
-0.014513935810810799,0.008208676094531884
-0.014451435810810806,0.008208676094531884
-0.014388935810810799,0.008208676094531884
-0.014326435810810806,0.008208676094531884
-0.014263935810810799,0.008208676094531884
-0.014201435810810806,0.008208676094531884
-0.014138935810810799,0.008208676094531884
-0.014076435810810806,0.008208676094531884
-0.014013935810810799,0.008208676094531884
-0.013951435810810806,0.008208676094531884
-0.013888935810810799,0.008208676094531884
-0.013826435810810805,0.008208676094531884
-0.013763935810810798,0.008208676094531884
-0.013701435810810805,0.008208676094531884
-0.013638935810810798,0.008208676094531884
-0.013576435810810805,0.008208676094531884
-0.013513935810810798,0.008208676094531884
-0.013451435810810805,0.008208676094531884
-0.013388935810810798,0.008208676094531884
-0.013326435810810805,0.008208676094531884
-0.013263935810810798,0.008208676094531884
-0.013201435810810805,0.008208676094531884
-0.013138935810810798,0.008208676094531884
-0.013076435810810805,0.008208676094531884
-0.013013935810810798,0.008208676094531884
-0.012951435810810805,0.008208676094531884
-0.012888935810810798,0.008208676094531884
-0.012826435810810805,0.008208676094531884
-0.012763935810810798,0.008208676094531884
-0.012701435810810804,0.008208676094531884
-0.012638935810810797,0.008208676094531884
-0.012576435810810804,0.008208676094531884
-0.012513935810810797,0.008208676094531884
-0.012451435810810804,0.008208676094531884
-0.012388935810810797,0.008208676094531884
-0.012326435810810804,0.008208676094531884
-0.012263935810810797,0.008208676094531884
-0.012201435810810804,0.008208676094531884
-0.012138935810810797,0.008208676094531884
-0.012076435810810804,0.008208676094531884
-0.012013935810810797,0.008208676094531884
-0.011951435810810804,0.008208676094531884
-0.011888935810810797,0.008208676094531884
-0.011826435810810804,0.008208676094531884
-0.011763935810810797,0.008208676094531884
-0.011701435810810804,0.008208676094531884
-0.011638935810810797,0.011897421702716147
-0.011576435810810803,0.008208676094531884
-0.011513935810810796,0.011897421702716147
-0.011451435810810803,0.011897421702716147
-0.01138893581081081,0.008208676094531884
-0.011326435810810803,0.008208676094531884
-0.01126393581081081,0.008208676094531884
-0.011201435810810803,0.011897421702716147
-0.01113893581081081,0.008208676094531884
-0.011076435810810803,0.011897421702716147
-0.01101393581081081,0.008208676094531884
-0.010951435810810803,0.011897421702716147
-0.01088893581081081,0.008208676094531884
-0.010826435810810803,0.008208676094531884
-0.01076393581081081,0.008208676094531884
-0.010701435810810803,0.008208676094531884
-0.01063893581081081,0.008208676094531884
-0.010576435810810803,0.008208676094531884
-0.01051393581081081,0.008208676094531884
-0.010451435810810802,0.008208676094531884
-0.01038893581081081,0.008208676094531884
-0.010326435810810802,0.008208676094531884
-0.01026393581081081,0.008208676094531884
-0.010201435810810802,0.008208676094531884
-0.010138935810810809,0.008208676094531884
-0.010076435810810802,0.008208676094531884
-0.010013935810810809,0.008208676094531884
-0.009951435810810802,0.008208676094531884
-0.009888935810810809,0.008208676094531884
-0.009826435810810802,0.008208676094531884
-0.009763935810810809,0.008208676094531884
-0.009701435810810802,0.008208676094531884
-0.009638935810810809,0.008208676094531884
-0.009576435810810802,0.008208676094531884
-0.009513935810810809,0.008208676094531884
-0.009451435810810802,0.008208676094531884
-0.009388935810810808,0.008208676094531884
-0.009326435810810801,0.008208676094531884
-0.009263935810810808,0.008208676094531884
-0.009201435810810801,0.008208676094531884
-0.009138935810810808,0.008208676094531884
-0.009076435810810801,0.008208676094531884
-0.009013935810810808,0.008208676094531884
-0.008951435810810801,0.008208676094531884
-0.008888935810810808,0.008208676094531884
-0.008826435810810801,0.008208676094531884
-0.008763935810810808,0.008208676094531884
-0.0087014358108108,0.008208676094531884
-0.008638935810810808,0.008208676094531884
-0.0085764358108108,0.008208676094531884
-0.008513935810810808,0.008208676094531884
-0.0084514358108108,0.008208676094531884
-0.008388935810810808,0.008208676094531884
-0.0083264358108108,0.008208676094531884
-0.008263935810810807,0.008208676094531884
-0.0082014358108108,0.008208676094531884
-0.008138935810810807,0.008208676094531884
-0.0080764358108108,0.008208676094531884
-0.008013935810810807,0.008208676094531884
-0.0079514358108108,0.008208676094531884
-0.007888935810810807,0.008208676094531884
-0.0078264358108108,0.008208676094531884
-0.007763935810810807,0.008208676094531884
-0.0077014358108108,0.008208676094531884
-0.007638935810810807,0.008208676094531884
-0.0075764358108108,0.008208676094531884
-0.007513935810810807,0.008208676094531884
-0.0074514358108108,0.008208676094531884
-0.007388935810810807,0.008208676094531884
-0.0073264358108108,0.008208676094531884
-0.0072639358108108065,0.008208676094531884
-0.0072014358108107995,0.008208676094531884
-0.007138935810810806,0.008208676094531884
-0.007076435810810799,0.008208676094531884
-0.007013935810810806,0.008208676094531884
-0.006951435810810799,0.004519930486347622
-0.006888935810810806,0.008208676094531884
-0.006826435810810799,0.008208676094531884
-0.006763935810810806,0.008208676094531884
-0.006701435810810799,0.008208676094531884
-0.006638935810810806,0.008208676094531884
-0.006576435810810799,0.008208676094531884
-0.006513935810810806,0.008208676094531884
-0.006451435810810799,0.008208676094531884
-0.006388935810810806,0.008208676094531884
-0.006326435810810799,0.008208676094531884
-0.006263935810810806,0.008208676094531884
-0.006201435810810799,0.008208676094531884
-0.0061389358108108055,0.008208676094531884
-0.0060764358108107985,0.008208676094531884
-0.006013935810810805,0.008208676094531884
-0.005951435810810798,0.008208676094531884
-0.005888935810810805,0.008208676094531884
-0.005826435810810798,0.008208676094531884
-0.005763935810810805,0.008208676094531884
-0.005701435810810798,0.008208676094531884
-0.005638935810810805,0.008208676094531884
-0.005576435810810798,0.008208676094531884
-0.005513935810810805,0.008208676094531884
-0.005451435810810798,0.008208676094531884
-0.005388935810810805,0.008208676094531884
-0.005326435810810798,0.008208676094531884
-0.005263935810810805,0.008208676094531884
-0.005201435810810798,0.008208676094531884
-0.005138935810810805,0.008208676094531884
-0.005076435810810798,0.008208676094531884
-0.0050139358108108045,0.008208676094531884
-0.0049514358108107975,0.008208676094531884
-0.004888935810810804,0.008208676094531884
-0.004826435810810797,0.008208676094531884
-0.004763935810810804,0.008208676094531884
-0.004701435810810797,0.008208676094531884
-0.004638935810810804,0.008208676094531884
-0.004576435810810797,0.008208676094531884
-0.004513935810810804,0.008208676094531884
-0.004451435810810797,0.008208676094531884
-0.004388935810810804,0.008208676094531884
-0.004326435810810797,0.008208676094531884
-0.004263935810810804,0.008208676094531884
-0.004201435810810797,0.008208676094531884
-0.004138935810810804,0.008208676094531884
-0.004076435810810797,0.008208676094531884
-0.004013935810810804,0.008208676094531884
-0.003951435810810797,0.008208676094531884
-0.0038889358108108035,0.008208676094531884
-0.0038264358108107965,0.008208676094531884
-0.0037639358108108034,0.008208676094531884
-0.0037014358108107964,0.008208676094531884
-0.0036389358108108033,0.008208676094531884
-0.00357643581081081,0.008208676094531884
-0.003513935810810803,0.008208676094531884
-0.00345143581081081,0.008208676094531884
-0.003388935810810803,0.008208676094531884
-0.00332643581081081,0.008208676094531884
-0.003263935810810803,0.008208676094531884
-0.00320143581081081,0.008208676094531884
-0.003138935810810803,0.008208676094531884
-0.0030764358108108097,0.008208676094531884
-0.0030139358108108028,0.008208676094531884
-0.0029514358108108096,0.008208676094531884
-0.0028889358108108026,0.008208676094531884
-0.0028264358108108095,0.008208676094531884
-0.0027639358108108025,0.008208676094531884
-0.0027014358108108094,0.008208676094531884
-0.0026389358108108024,0.008208676094531884
-0.0025764358108108093,0.008208676094531884
-0.0025139358108108023,0.008208676094531884
-0.002451435810810809,0.008208676094531884
-0.002388935810810802,0.008208676094531884
-0.002326435810810809,0.008208676094531884
-0.002263935810810802,0.008208676094531884
-0.002201435810810809,0.008208676094531884
-0.002138935810810802,0.008208676094531884
-0.002076435810810809,0.008208676094531884
-0.002013935810810802,0.004519930486347622
-0.0019514358108108087,0.008208676094531884
-0.0018889358108108018,0.008208676094531884
-0.0018264358108108086,0.008208676094531884
-0.0017639358108108016,0.008208676094531884
-0.0017014358108108085,0.004519930486347622
-0.0016389358108108015,0.004519930486347622
-0.0015764358108108084,0.008208676094531884
-0.0015139358108108014,0.008208676094531884
-0.0014514358108108083,0.004519930486347622
-0.0013889358108108013,0.008208676094531884
-0.0013264358108108082,0.004519930486347622
-0.0012639358108108012,0.004519930486347622
-0.001201435810810808,0.004519930486347622
-0.001138935810810801,0.008208676094531884
-0.001076435810810808,0.008208676094531884
-0.001013935810810801,0.008208676094531884
-0.0009514358108108079,0.004519930486347622
-0.0008889358108108009,0.004519930486347622
-0.0008264358108108077,0.008208676094531884
-0.0007639358108108008,0.008208676094531884
-0.0007014358108108076,0.004519930486347622
-0.0006389358108108006,0.008208676094531884
-0.0005764358108108075,0.008208676094531884
-0.0005139358108108005,0.008208676094531884
-0.0004514358108108074,0.008208676094531884
-0.0003889358108108004,0.008208676094531884
-0.0003264358108108073,0.011897421702716147
-0.0002639358108108003,0.011897421702716147
-0.0002014358108108072,0.011897421702716147
-0.0001389358108108002,0.011897421702716147
-7.643581081080708e-05,0.011897421702716147
-1.3935810810800087e-05,0.01558616731090041
4.856418918919303e-05,2.1993235673559837
0.00011106418918920002,3.3354572146767363
0.00017356418918919314,3.3207022322439994
0.00023606418918920014,3.3207022322439994
0.00029856418918919325,3.3207022322439994
0.00036106418918920025,3.3207022322439994
0.00042356418918919336,3.3207022322439994
0.00048606418918920036,3.3207022322439994
0.0005485641891891935,3.3207022322439994
0.0006110641891892005,3.3207022322439994
0.0006735641891891936,3.3207022322439994
0.0007360641891892006,3.3207022322439994
0.0007985641891891937,3.3207022322439994
0.0008610641891892007,3.3207022322439994
0.0009235641891891938,3.3207022322439994
0.0009860641891892008,3.3207022322439994
0.001048564189189194,3.3207022322439994
0.001111064189189201,3.3207022322439994
0.001173564189189194,3.3207022322439994
0.001236064189189201,3.3207022322439994
0.0012985641891891941,3.3207022322439994
0.0013610641891892011,3.3207022322439994
0.0014235641891891943,3.3207022322439994
0.0014860641891892012,3.3207022322439994
0.0015485641891891944,3.3207022322439994
0.0016110641891892014,3.3207022322439994
0.0016735641891891945,3.3207022322439994
0.0017360641891892015,3.3207022322439994
0.0017985641891891946,3.3207022322439994
0.0018610641891892016,3.3207022322439994
0.0019235641891891947,3.3207022322439994
0.0019860641891892017,3.3207022322439994
0.002048564189189195,3.3207022322439994
0.002111064189189202,3.3207022322439994
0.002173564189189195,3.3207022322439994
0.002236064189189202,3.3207022322439994
0.002298564189189195,3.3207022322439994
0.002361064189189202,3.3207022322439994
0.002423564189189195,3.3207022322439994
0.002486064189189202,3.3207022322439994
0.0025485641891891953,3.3207022322439994
0.0026110641891892022,3.3207022322439994
0.0026735641891891954,3.3207022322439994
0.0027360641891892024,3.3207022322439994
0.0027985641891891955,3.3207022322439994
0.0028610641891892025,3.3207022322439994
0.0029235641891891956,3.3207022322439994
0.0029860641891892026,3.3207022322439994
0.0030485641891891957,3.3207022322439994
0.0031110641891892027,3.3207022322439994
0.003173564189189196,3.3207022322439994
0.003236064189189203,3.3207022322439994
0.003298564189189196,3.3207022322439994
0.003361064189189203,3.3207022322439994
0.003423564189189196,3.3207022322439994
0.003486064189189203,3.3207022322439994
0.003548564189189196,3.3207022322439994
0.003611064189189203,3.3207022322439994
0.0036735641891891962,3.3207022322439994
0.0037360641891892032,3.3207022322439994
0.0037985641891891964,3.3207022322439994
0.0038610641891892034,3.3207022322439994
0.0039235641891891965,3.3207022322439994
0.0039860641891892035,3.3207022322439994
0.004048564189189197,3.3207022322439994
0.004111064189189204,3.3207022322439994
0.004173564189189197,3.3207022322439994
0.00423606418918919,3.317013486635815
0.004298564189189197,3.3207022322439994
0.00436106418918919,3.3207022322439994
0.004423564189189197,3.3207022322439994
0.00448606418918919,3.3207022322439994
0.004548564189189197,3.3207022322439994
0.00461106418918919,3.3207022322439994
0.004673564189189197,3.3207022322439994
0.00473606418918919,3.3207022322439994
0.004798564189189197,3.3207022322439994
0.00486106418918919,3.3207022322439994
0.004923564189189197,3.3207022322439994
0.0049860641891891905,3.3207022322439994
0.0050485641891891975,3.3207022322439994
0.005111064189189191,3.3207022322439994
0.005173564189189198,3.3207022322439994
0.005236064189189191,3.3207022322439994
0.005298564189189198,3.3207022322439994
0.005361064189189191,3.3207022322439994
0.005423564189189198,3.3207022322439994
0.005486064189189191,3.3207022322439994
0.005548564189189198,3.3207022322439994
0.005611064189189191,3.3207022322439994
0.005673564189189198,3.3207022322439994
0.005736064189189191,3.3207022322439994
0.005798564189189198,3.3207022322439994
0.005861064189189191,3.3207022322439994
0.005923564189189198,3.3207022322439994
0.005986064189189191,3.3207022322439994
0.006048564189189198,3.3207022322439994
0.0061110641891891915,3.3207022322439994
0.0061735641891891985,3.3207022322439994
0.006236064189189192,3.3207022322439994
0.006298564189189199,3.3207022322439994
0.006361064189189192,3.3207022322439994
0.006423564189189199,3.3207022322439994
0.006486064189189192,3.3207022322439994
0.006548564189189199,3.3207022322439994
0.006611064189189192,3.3207022322439994
0.006673564189189199,3.3207022322439994
0.006736064189189192,3.3207022322439994
0.006798564189189199,3.3207022322439994
0.006861064189189192,3.3207022322439994
0.006923564189189199,3.3207022322439994
0.006986064189189192,3.3207022322439994
0.007048564189189199,3.3207022322439994
0.007111064189189192,3.3207022322439994
0.007173564189189199,3.3207022322439994
0.0072360641891891925,3.317013486635815
0.0072985641891891995,3.317013486635815
0.007361064189189193,3.3207022322439994
0.0074235641891892,3.3207022322439994
0.007486064189189193,3.317013486635815
0.0075485641891892,3.3207022322439994
0.007611064189189193,3.3207022322439994
0.0076735641891892,3.3207022322439994
0.007736064189189193,3.3207022322439994
0.0077985641891892,3.3207022322439994
0.007861064189189193,3.3207022322439994
0.0079235641891892,3.3207022322439994
0.007986064189189193,3.3207022322439994
0.0080485641891892,3.3207022322439994
0.008111064189189193,3.3207022322439994
0.0081735641891892,3.3207022322439994
0.008236064189189193,3.3207022322439994
0.0082985641891892,3.3207022322439994
0.008361064189189193,3.3207022322439994
0.0084235641891892,3.3207022322439994
0.008486064189189194,3.3207022322439994
0.0085485641891892,3.3207022322439994
0.008611064189189194,3.3207022322439994
0.0086735641891892,3.3207022322439994
0.008736064189189194,3.3207022322439994
0.0087985641891892,3.3207022322439994
0.008861064189189194,3.3207022322439994
0.008923564189189201,3.3207022322439994
0.008986064189189194,3.3207022322439994
0.009048564189189201,3.3207022322439994
0.009111064189189194,3.3207022322439994
0.009173564189189201,3.3207022322439994
0.009236064189189194,3.3207022322439994
0.009298564189189201,3.3207022322439994
0.009361064189189194,3.3207022322439994
0.009423564189189201,3.3207022322439994
0.009486064189189194,3.3207022322439994
0.009548564189189201,3.3207022322439994
0.009611064189189195,3.3207022322439994
0.009673564189189202,3.3207022322439994
0.009736064189189195,3.3207022322439994
0.009798564189189202,3.3207022322439994
0.009861064189189195,3.3207022322439994
0.009923564189189202,3.3207022322439994
0.009986064189189195,3.3207022322439994
0.010048564189189202,3.3207022322439994
0.010111064189189195,3.3207022322439994
0.010173564189189202,3.3207022322439994
0.010236064189189195,3.3207022322439994
0.010298564189189202,3.3207022322439994
0.010361064189189195,3.3207022322439994
0.010423564189189202,3.3207022322439994
0.010486064189189195,3.3207022322439994
0.010548564189189202,3.3207022322439994
0.010611064189189195,3.3207022322439994
0.010673564189189202,3.3207022322439994
0.010736064189189196,3.3207022322439994
0.010798564189189203,3.3207022322439994
0.010861064189189196,3.3207022322439994
0.010923564189189203,3.3207022322439994
0.010986064189189196,3.3207022322439994
0.011048564189189203,3.3207022322439994
0.011111064189189196,3.3207022322439994
0.011173564189189203,3.3207022322439994
0.011236064189189196,3.3207022322439994
0.011298564189189203,3.3207022322439994
0.011361064189189196,3.3207022322439994
0.011423564189189203,3.3207022322439994
0.011486064189189196,3.3207022322439994
0.011548564189189203,3.3207022322439994
0.011611064189189196,3.3207022322439994
