Data/acq0199.csv

#Digilent WaveForms Oscilloscope Acquisition
#Device Name: Discovery2
#Serial Number: SN:210321B282B2
#Date Time: 2026-05-13 12:41:30.217
#Sample rate: 16000Hz
#Samples: 3200
#Trigger: Source: Channel 1 Type: Edge Condition: Rising Level: 500 mV Hyst.: 5 mV HoldOff: 0 s
#Channel 1: Range: 1 V/div Offset: 0 V Sample Mode: Average

Time (s),Channel 1 (V)
-0.017690942472460225,0.008208676094531884
-0.017628442472460218,0.008208676094531884
-0.017565942472460225,0.008208676094531884
-0.017503442472460218,0.008208676094531884
-0.017440942472460225,0.008208676094531884
-0.017378442472460218,0.008208676094531884
-0.017315942472460225,0.008208676094531884
-0.017253442472460218,0.008208676094531884
-0.017190942472460224,0.008208676094531884
-0.017128442472460217,0.008208676094531884
-0.017065942472460224,0.008208676094531884
-0.017003442472460217,0.008208676094531884
-0.016940942472460224,0.008208676094531884
-0.016878442472460217,0.008208676094531884
-0.016815942472460224,0.008208676094531884
-0.016753442472460217,0.008208676094531884
-0.016690942472460224,0.008208676094531884
-0.016628442472460217,0.008208676094531884
-0.016565942472460224,0.008208676094531884
-0.016503442472460217,0.008208676094531884
-0.016440942472460224,0.008208676094531884
-0.016378442472460217,0.008208676094531884
-0.016315942472460224,0.008208676094531884
-0.016253442472460217,0.008208676094531884
-0.016190942472460224,0.008208676094531884
-0.016128442472460217,0.008208676094531884
-0.016065942472460223,0.008208676094531884
-0.016003442472460216,0.008208676094531884
-0.015940942472460223,0.008208676094531884
-0.015878442472460216,0.008208676094531884
-0.015815942472460223,0.008208676094531884
-0.015753442472460216,0.008208676094531884
-0.015690942472460223,0.008208676094531884
-0.015628442472460216,0.008208676094531884
-0.015565942472460223,0.008208676094531884
-0.015503442472460216,0.008208676094531884
-0.015440942472460223,0.008208676094531884
-0.015378442472460216,0.008208676094531884
-0.015315942472460223,0.008208676094531884
-0.015253442472460216,0.008208676094531884
-0.015190942472460223,0.008208676094531884
-0.015128442472460216,0.008208676094531884
-0.015065942472460223,0.008208676094531884
-0.015003442472460216,0.008208676094531884
-0.014940942472460222,0.008208676094531884
-0.014878442472460215,0.008208676094531884
-0.014815942472460222,0.008208676094531884
-0.014753442472460215,0.008208676094531884
-0.014690942472460222,0.008208676094531884
-0.014628442472460215,0.008208676094531884
-0.014565942472460222,0.008208676094531884
-0.014503442472460215,0.008208676094531884
-0.014440942472460222,0.008208676094531884
-0.014378442472460215,0.008208676094531884
-0.014315942472460222,0.008208676094531884
-0.014253442472460215,0.008208676094531884
-0.014190942472460222,0.008208676094531884
-0.014128442472460215,0.008208676094531884
-0.014065942472460222,0.008208676094531884
-0.014003442472460215,0.008208676094531884
-0.013940942472460222,0.008208676094531884
-0.013878442472460215,0.008208676094531884
-0.013815942472460221,0.008208676094531884
-0.013753442472460214,0.008208676094531884
-0.013690942472460221,0.008208676094531884
-0.013628442472460214,0.008208676094531884
-0.013565942472460221,0.008208676094531884
-0.013503442472460214,0.008208676094531884
-0.013440942472460221,0.008208676094531884
-0.013378442472460214,0.004519930486347622
-0.013315942472460221,0.008208676094531884
-0.013253442472460214,0.008208676094531884
-0.013190942472460221,0.008208676094531884
-0.013128442472460214,0.008208676094531884
-0.01306594247246022,0.008208676094531884
-0.013003442472460214,0.008208676094531884
-0.01294094247246022,0.004519930486347622
-0.012878442472460214,0.004519930486347622
-0.01281594247246022,0.008208676094531884
-0.012753442472460214,0.008208676094531884
-0.01269094247246022,0.008208676094531884
-0.012628442472460213,0.008208676094531884
-0.01256594247246022,0.008208676094531884
-0.012503442472460213,0.008208676094531884
-0.01244094247246022,0.008208676094531884
-0.012378442472460213,0.004519930486347622
-0.01231594247246022,0.008208676094531884
-0.012253442472460213,0.008208676094531884
-0.01219094247246022,0.008208676094531884
-0.012128442472460213,0.008208676094531884
-0.01206594247246022,0.008208676094531884
-0.012003442472460213,0.004519930486347622
-0.01194094247246022,0.008208676094531884
-0.011878442472460213,0.008208676094531884
-0.01181594247246022,0.004519930486347622
-0.011753442472460213,0.008208676094531884
-0.01169094247246022,0.008208676094531884
-0.011628442472460213,0.008208676094531884
-0.01156594247246022,0.008208676094531884
-0.011503442472460212,0.008208676094531884
-0.01144094247246022,0.008208676094531884
-0.011378442472460226,0.004519930486347622
-0.01131594247246022,0.004519930486347622
-0.011253442472460226,0.008208676094531884
-0.011190942472460219,0.004519930486347622
-0.011128442472460226,0.004519930486347622
-0.011065942472460219,0.004519930486347622
-0.011003442472460226,0.004519930486347622
-0.010940942472460219,0.004519930486347622
-0.010878442472460226,0.004519930486347622
-0.010815942472460219,0.004519930486347622
-0.010753442472460226,0.004519930486347622
-0.010690942472460219,0.004519930486347622
-0.010628442472460226,0.008208676094531884
-0.010565942472460219,0.004519930486347622
-0.010503442472460225,0.004519930486347622
-0.010440942472460218,0.004519930486347622
-0.010378442472460225,0.004519930486347622
-0.010315942472460218,0.004519930486347622
-0.010253442472460225,0.004519930486347622
-0.010190942472460218,0.004519930486347622
-0.010128442472460225,0.004519930486347622
-0.010065942472460218,0.004519930486347622
-0.010003442472460225,0.004519930486347622
-0.009940942472460218,0.004519930486347622
-0.009878442472460225,0.008208676094531884
-0.009815942472460218,0.004519930486347622
-0.009753442472460225,0.004519930486347622
-0.009690942472460218,0.004519930486347622
-0.009628442472460225,0.008208676094531884
-0.009565942472460218,0.004519930486347622
-0.009503442472460225,0.004519930486347622
-0.009440942472460218,0.004519930486347622
-0.009378442472460224,0.004519930486347622
-0.009315942472460217,0.004519930486347622
-0.009253442472460224,0.008208676094531884
-0.009190942472460217,0.004519930486347622
-0.009128442472460224,0.008208676094531884
-0.009065942472460217,0.008208676094531884
-0.009003442472460224,0.004519930486347622
-0.008940942472460217,0.008208676094531884
-0.008878442472460224,0.008208676094531884
-0.008815942472460217,0.008208676094531884
-0.008753442472460224,0.008208676094531884
-0.008690942472460217,0.008208676094531884
-0.008628442472460224,0.008208676094531884
-0.008565942472460217,0.008208676094531884
-0.008503442472460224,0.008208676094531884
-0.008440942472460217,0.008208676094531884
-0.008378442472460224,0.008208676094531884
-0.008315942472460217,0.008208676094531884
-0.008253442472460223,0.008208676094531884
-0.008190942472460216,0.008208676094531884
-0.008128442472460223,0.008208676094531884
-0.008065942472460216,0.008208676094531884
-0.008003442472460223,0.008208676094531884
-0.007940942472460216,0.004519930486347622
-0.007878442472460223,0.008208676094531884
-0.007815942472460216,0.008208676094531884
-0.007753442472460223,0.008208676094531884
-0.007690942472460216,0.008208676094531884
-0.007628442472460223,0.008208676094531884
-0.007565942472460216,0.008208676094531884
-0.007503442472460223,0.008208676094531884
-0.007440942472460216,0.008208676094531884
-0.007378442472460223,0.008208676094531884
-0.007315942472460216,0.008208676094531884
-0.0072534424724602226,0.008208676094531884
-0.0071909424724602156,0.008208676094531884
-0.0071284424724602224,0.008208676094531884
-0.0070659424724602155,0.008208676094531884
-0.007003442472460222,0.008208676094531884
-0.006940942472460215,0.008208676094531884
-0.006878442472460222,0.008208676094531884
-0.006815942472460215,0.008208676094531884
-0.006753442472460222,0.008208676094531884
-0.006690942472460215,0.008208676094531884
-0.006628442472460222,0.008208676094531884
-0.006565942472460215,0.008208676094531884
-0.006503442472460222,0.008208676094531884
-0.006440942472460215,0.008208676094531884
-0.006378442472460222,0.008208676094531884
-0.006315942472460215,0.008208676094531884
-0.006253442472460222,0.008208676094531884
-0.006190942472460215,0.008208676094531884
-0.0061284424724602216,0.008208676094531884
-0.0060659424724602146,0.008208676094531884
-0.0060034424724602214,0.008208676094531884
-0.0059409424724602145,0.004519930486347622
-0.005878442472460221,0.008208676094531884
-0.005815942472460214,0.008208676094531884
-0.005753442472460221,0.008208676094531884
-0.005690942472460214,0.008208676094531884
-0.005628442472460221,0.008208676094531884
-0.005565942472460214,0.008208676094531884
-0.005503442472460221,0.008208676094531884
-0.005440942472460214,0.008208676094531884
-0.005378442472460221,0.008208676094531884
-0.005315942472460214,0.008208676094531884
-0.005253442472460221,0.008208676094531884
-0.005190942472460214,0.008208676094531884
-0.005128442472460221,0.008208676094531884
-0.005065942472460214,0.008208676094531884
-0.0050034424724602206,0.008208676094531884
-0.0049409424724602136,0.008208676094531884
-0.0048784424724602204,0.008208676094531884
-0.0048159424724602135,0.004519930486347622
-0.00475344247246022,0.008208676094531884
-0.004690942472460213,0.008208676094531884
-0.00462844247246022,0.008208676094531884
-0.004565942472460213,0.008208676094531884
-0.00450344247246022,0.008208676094531884
-0.004440942472460213,0.008208676094531884
-0.00437844247246022,0.008208676094531884
-0.004315942472460213,0.008208676094531884
-0.00425344247246022,0.008208676094531884
-0.004190942472460213,0.008208676094531884
-0.00412844247246022,0.008208676094531884
-0.004065942472460213,0.008208676094531884
-0.00400344247246022,0.008208676094531884
-0.003940942472460213,0.008208676094531884
-0.0038784424724602196,0.008208676094531884
-0.0038159424724602126,0.008208676094531884
-0.0037534424724602194,0.008208676094531884
-0.0036909424724602125,0.008208676094531884
-0.0036284424724602193,0.008208676094531884
-0.0035659424724602262,0.008208676094531884
-0.0035034424724602192,0.008208676094531884
-0.003440942472460226,0.008208676094531884
-0.003378442472460219,0.008208676094531884
-0.003315942472460226,0.008208676094531884
-0.003253442472460219,0.008208676094531884
-0.003190942472460226,0.008208676094531884
-0.003128442472460219,0.008208676094531884
-0.0030659424724602258,0.008208676094531884
-0.0030034424724602188,0.008208676094531884
-0.0029409424724602257,0.008208676094531884
-0.0028784424724602187,0.008208676094531884
-0.0028159424724602256,0.008208676094531884
-0.0027534424724602186,0.008208676094531884
-0.0026909424724602254,0.008208676094531884
-0.0026284424724602184,0.008208676094531884
-0.0025659424724602253,0.008208676094531884
-0.0025034424724602183,0.008208676094531884
-0.0024409424724602252,0.008208676094531884
-0.0023784424724602182,0.008208676094531884
-0.002315942472460225,0.008208676094531884
-0.002253442472460218,0.008208676094531884
-0.002190942472460225,0.008208676094531884
-0.002128442472460218,0.008208676094531884
-0.002065942472460225,0.008208676094531884
-0.002003442472460218,0.008208676094531884
-0.0019409424724602248,0.008208676094531884
-0.0018784424724602178,0.008208676094531884
-0.0018159424724602247,0.008208676094531884
-0.0017534424724602177,0.008208676094531884
-0.0016909424724602246,0.008208676094531884
-0.0016284424724602176,0.008208676094531884
-0.0015659424724602244,0.008208676094531884
-0.0015034424724602174,0.008208676094531884
-0.0014409424724602243,0.008208676094531884
-0.0013784424724602173,0.008208676094531884
-0.0013159424724602242,0.008208676094531884
-0.0012534424724602172,0.008208676094531884
-0.0011909424724602241,0.008208676094531884
-0.0011284424724602171,0.008208676094531884
-0.001065942472460224,0.008208676094531884
-0.001003442472460217,0.008208676094531884
-0.0009409424724602239,0.008208676094531884
-0.0008784424724602169,0.008208676094531884
-0.0008159424724602238,0.008208676094531884
-0.0007534424724602168,0.008208676094531884
-0.0006909424724602237,0.008208676094531884
-0.0006284424724602167,0.008208676094531884
-0.0005659424724602236,0.008208676094531884
-0.0005034424724602166,0.008208676094531884
-0.00044094247246022344,0.008208676094531884
-0.00037844247246021645,0.008208676094531884
-0.00031594247246022333,0.008208676094531884
-0.00025344247246021634,0.008208676094531884
-0.00019094247246022322,0.008208676094531884
-0.00012844247246021623,0.008208676094531884
-6.594247246022311e-05,0.011897421702716147
-3.442472460216117e-06,0.33650703522293124
5.9057527539777e-05,3.3502121971094736
0.000121557527539784,3.3243909778521834
0.0001840575275397771,3.3207022322439994
0.0002465575275397841,3.3207022322439994
0.0003090575275397772,3.3207022322439994
0.0003715575275397842,3.3207022322439994
0.00043405752753977733,3.3207022322439994
0.0004965575275397843,3.3207022322439994
0.0005590575275397774,3.3207022322439994
0.0006215575275397844,3.3207022322439994
0.0006840575275397776,3.3207022322439994
0.0007465575275397845,3.3207022322439994
0.0008090575275397777,3.3207022322439994
0.0008715575275397847,3.3207022322439994
0.0009340575275397778,3.3207022322439994
0.0009965575275397848,3.3207022322439994
0.0010590575275397779,3.3207022322439994
0.0011215575275397849,3.3207022322439994
0.001184057527539778,3.3207022322439994
0.001246557527539785,3.3207022322439994
0.0013090575275397781,3.3207022322439994
0.001371557527539785,3.3207022322439994
0.0014340575275397782,3.3207022322439994
0.0014965575275397852,3.3207022322439994
0.0015590575275397783,3.3207022322439994
0.0016215575275397853,3.3207022322439994
0.0016840575275397784,3.3207022322439994
0.0017465575275397854,3.3207022322439994
0.0018090575275397786,3.3207022322439994
0.0018715575275397855,3.3207022322439994
0.0019340575275397787,3.3207022322439994
0.0019965575275397857,3.3207022322439994
0.0020590575275397788,3.3207022322439994
0.0021215575275397858,3.3207022322439994
0.002184057527539779,3.3207022322439994
0.002246557527539786,3.3207022322439994
0.002309057527539779,3.3207022322439994
0.002371557527539786,3.3207022322439994
0.002434057527539779,3.3207022322439994
0.002496557527539786,3.3207022322439994
0.0025590575275397792,3.3207022322439994
0.002621557527539786,3.3207022322439994
0.0026840575275397793,3.3207022322439994
0.0027465575275397863,3.3207022322439994
0.0028090575275397794,3.3207022322439994
0.0028715575275397864,3.3207022322439994
0.0029340575275397796,3.3207022322439994
0.0029965575275397865,3.3207022322439994
0.0030590575275397797,3.3207022322439994
0.0031215575275397867,3.3207022322439994
0.0031840575275397798,3.3207022322439994
0.0032465575275397868,3.3207022322439994
0.00330905752753978,3.3207022322439994
0.003371557527539787,3.3207022322439994
0.00343405752753978,3.3207022322439994
0.003496557527539787,3.3207022322439994
0.00355905752753978,3.3207022322439994
0.003621557527539787,3.3207022322439994
0.0036840575275397802,3.3207022322439994
0.003746557527539787,3.3207022322439994
0.0038090575275397803,3.3207022322439994
0.0038715575275397873,3.3207022322439994
0.0039340575275397804,3.3207022322439994
0.0039965575275397874,3.3207022322439994
0.0040590575275397806,3.3207022322439994
0.0041215575275397875,3.3207022322439994
0.004184057527539781,3.3207022322439994
0.004246557527539774,3.3207022322439994
0.004309057527539781,3.3207022322439994
0.004371557527539774,3.3207022322439994
0.004434057527539781,3.3207022322439994
0.004496557527539774,3.3207022322439994
0.004559057527539781,3.3207022322439994
0.004621557527539774,3.3207022322439994
0.004684057527539781,3.3207022322439994
0.004746557527539774,3.3207022322439994
0.004809057527539781,3.3207022322439994
0.004871557527539774,3.3207022322439994
0.004934057527539781,3.3207022322439994
0.0049965575275397744,3.3207022322439994
0.0050590575275397814,3.3207022322439994
0.0051215575275397746,3.3207022322439994
0.0051840575275397816,3.3207022322439994
0.005246557527539775,3.3207022322439994
0.005309057527539782,3.3207022322439994
0.005371557527539775,3.3207022322439994
0.005434057527539782,3.3207022322439994
0.005496557527539775,3.3207022322439994
0.005559057527539782,3.3207022322439994
0.005621557527539775,3.3207022322439994
0.005684057527539782,3.3207022322439994
0.005746557527539775,3.3207022322439994
0.005809057527539782,3.3207022322439994
0.005871557527539775,3.3207022322439994
0.005934057527539782,3.3207022322439994
0.005996557527539775,3.3207022322439994
0.006059057527539782,3.3207022322439994
0.0061215575275397754,3.3207022322439994
0.0061840575275397824,3.3207022322439994
0.0062465575275397756,3.317013486635815
0.0063090575275397826,3.3207022322439994
0.006371557527539776,3.3207022322439994
0.006434057527539783,3.3207022322439994
0.006496557527539776,3.3207022322439994
0.006559057527539783,3.3207022322439994
0.006621557527539776,3.3207022322439994
0.006684057527539783,3.3207022322439994
0.006746557527539776,3.3207022322439994
0.006809057527539783,3.3207022322439994
0.006871557527539776,3.3207022322439994
0.006934057527539783,3.3207022322439994
0.006996557527539776,3.3207022322439994
0.007059057527539783,3.3207022322439994
0.007121557527539776,3.3207022322439994
0.007184057527539783,3.3207022322439994
0.0072465575275397764,3.3207022322439994
0.0073090575275397834,3.3207022322439994
0.0073715575275397766,3.3207022322439994
0.0074340575275397835,3.3207022322439994
0.007496557527539777,3.3207022322439994
0.007559057527539784,3.3207022322439994
0.007621557527539777,3.3207022322439994
0.007684057527539784,3.3207022322439994
0.007746557527539777,3.317013486635815
0.007809057527539784,3.3207022322439994
0.007871557527539777,3.3207022322439994
0.007934057527539784,3.3207022322439994
0.007996557527539777,3.3207022322439994
0.008059057527539784,3.3207022322439994
0.008121557527539777,3.3207022322439994
0.008184057527539784,3.3207022322439994
0.008246557527539777,3.3207022322439994
0.008309057527539784,3.3207022322439994
0.008371557527539777,3.3207022322439994
0.008434057527539784,3.3207022322439994
0.008496557527539778,3.3207022322439994
0.008559057527539785,3.3207022322439994
0.008621557527539778,3.3207022322439994
0.008684057527539785,3.3207022322439994
0.008746557527539778,3.3207022322439994
0.008809057527539785,3.3207022322439994
0.008871557527539778,3.3207022322439994
0.008934057527539785,3.3207022322439994
0.008996557527539778,3.3207022322439994
0.009059057527539785,3.3207022322439994
0.009121557527539778,3.3207022322439994
0.009184057527539785,3.3207022322439994
0.009246557527539778,3.3207022322439994
0.009309057527539785,3.3207022322439994
0.009371557527539778,3.3207022322439994
0.009434057527539785,3.3207022322439994
0.009496557527539778,3.3207022322439994
0.009559057527539785,3.3207022322439994
0.009621557527539779,3.3207022322439994
0.009684057527539786,3.3207022322439994
0.009746557527539779,3.3207022322439994
0.009809057527539786,3.3207022322439994
0.009871557527539779,3.3207022322439994
0.009934057527539786,3.3207022322439994
0.009996557527539779,3.3207022322439994
0.010059057527539786,3.3207022322439994
0.010121557527539779,3.3207022322439994
0.010184057527539786,3.3207022322439994
0.010246557527539779,3.3207022322439994
0.010309057527539786,3.3207022322439994
0.01037155752753978,3.3207022322439994
0.010434057527539786,3.3207022322439994
0.01049655752753978,3.3207022322439994
0.010559057527539786,3.3207022322439994
0.01062155752753978,3.3207022322439994
0.010684057527539786,3.3207022322439994
0.01074655752753978,3.3207022322439994
0.010809057527539787,3.3207022322439994
0.01087155752753978,3.3207022322439994
0.010934057527539787,3.3207022322439994
0.01099655752753978,3.3207022322439994
0.011059057527539787,3.3207022322439994
0.01112155752753978,3.3207022322439994
0.011184057527539787,3.3207022322439994
0.01124655752753978,3.3207022322439994
0.011309057527539787,3.3207022322439994
0.01137155752753978,3.3207022322439994
0.011434057527539787,3.3207022322439994
