Data/acq0148.csv

#Digilent WaveForms Oscilloscope Acquisition
#Device Name: Discovery2
#Serial Number: SN:210321B282B2
#Date Time: 2026-05-13 12:41:16.691
#Sample rate: 16000Hz
#Samples: 3200
#Trigger: Source: Channel 1 Type: Edge Condition: Rising Level: 500 mV Hyst.: 5 mV HoldOff: 0 s
#Channel 1: Range: 1 V/div Offset: 0 V Sample Mode: Average

Time (s),Channel 1 (V)
-0.01770589048672566,0.004519930486347622
-0.017643390486725655,0.008208676094531884
-0.01758089048672566,0.008208676094531884
-0.017518390486725655,0.008208676094531884
-0.01745589048672566,0.004519930486347622
-0.017393390486725654,0.008208676094531884
-0.01733089048672566,0.008208676094531884
-0.017268390486725654,0.008208676094531884
-0.01720589048672566,0.008208676094531884
-0.017143390486725654,0.008208676094531884
-0.01708089048672566,0.008208676094531884
-0.017018390486725654,0.004519930486347622
-0.01695589048672566,0.004519930486347622
-0.016893390486725654,0.008208676094531884
-0.01683089048672566,0.008208676094531884
-0.016768390486725654,0.008208676094531884
-0.01670589048672566,0.008208676094531884
-0.016643390486725654,0.008208676094531884
-0.01658089048672566,0.008208676094531884
-0.016518390486725654,0.008208676094531884
-0.01645589048672566,0.008208676094531884
-0.016393390486725654,0.008208676094531884
-0.01633089048672566,0.008208676094531884
-0.016268390486725653,0.008208676094531884
-0.01620589048672566,0.008208676094531884
-0.016143390486725653,0.008208676094531884
-0.01608089048672566,0.008208676094531884
-0.016018390486725653,0.008208676094531884
-0.01595589048672566,0.008208676094531884
-0.015893390486725653,0.008208676094531884
-0.01583089048672566,0.004519930486347622
-0.015768390486725653,0.008208676094531884
-0.01570589048672566,0.004519930486347622
-0.015643390486725653,0.008208676094531884
-0.01558089048672566,0.008208676094531884
-0.015518390486725653,0.008208676094531884
-0.01545589048672566,0.008208676094531884
-0.015393390486725653,0.008208676094531884
-0.01533089048672566,0.008208676094531884
-0.015268390486725653,0.008208676094531884
-0.01520589048672566,0.008208676094531884
-0.015143390486725652,0.008208676094531884
-0.01508089048672566,0.008208676094531884
-0.015018390486725652,0.008208676094531884
-0.01495589048672566,0.008208676094531884
-0.014893390486725652,0.008208676094531884
-0.014830890486725659,0.008208676094531884
-0.014768390486725652,0.008208676094531884
-0.014705890486725659,0.008208676094531884
-0.014643390486725652,0.008208676094531884
-0.014580890486725659,0.008208676094531884
-0.014518390486725652,0.008208676094531884
-0.014455890486725659,0.008208676094531884
-0.014393390486725652,0.008208676094531884
-0.014330890486725659,0.008208676094531884
-0.014268390486725652,0.008208676094531884
-0.014205890486725659,0.008208676094531884
-0.014143390486725652,0.008208676094531884
-0.014080890486725658,0.008208676094531884
-0.014018390486725651,0.008208676094531884
-0.013955890486725658,0.008208676094531884
-0.013893390486725651,0.008208676094531884
-0.013830890486725658,0.008208676094531884
-0.013768390486725651,0.008208676094531884
-0.013705890486725658,0.008208676094531884
-0.013643390486725651,0.008208676094531884
-0.013580890486725658,0.008208676094531884
-0.013518390486725651,0.008208676094531884
-0.013455890486725658,0.008208676094531884
-0.013393390486725651,0.008208676094531884
-0.013330890486725658,0.008208676094531884
-0.01326839048672565,0.008208676094531884
-0.013205890486725658,0.008208676094531884
-0.01314339048672565,0.008208676094531884
-0.013080890486725658,0.008208676094531884
-0.01301839048672565,0.008208676094531884
-0.012955890486725657,0.008208676094531884
-0.01289339048672565,0.008208676094531884
-0.012830890486725657,0.008208676094531884
-0.01276839048672565,0.008208676094531884
-0.012705890486725657,0.008208676094531884
-0.01264339048672565,0.008208676094531884
-0.012580890486725657,0.008208676094531884
-0.01251839048672565,0.004519930486347622
-0.012455890486725657,0.008208676094531884
-0.01239339048672565,0.008208676094531884
-0.012330890486725657,0.004519930486347622
-0.01226839048672565,0.008208676094531884
-0.012205890486725657,0.008208676094531884
-0.01214339048672565,0.008208676094531884
-0.012080890486725657,0.008208676094531884
-0.01201839048672565,0.008208676094531884
-0.011955890486725657,0.008208676094531884
-0.01189339048672565,0.008208676094531884
-0.011830890486725656,0.008208676094531884
-0.01176839048672565,0.008208676094531884
-0.011705890486725656,0.008208676094531884
-0.01164339048672565,0.008208676094531884
-0.011580890486725656,0.008208676094531884
-0.01151839048672565,0.008208676094531884
-0.011455890486725656,0.008208676094531884
-0.011393390486725663,0.008208676094531884
-0.011330890486725656,0.008208676094531884
-0.011268390486725663,0.008208676094531884
-0.011205890486725656,0.008208676094531884
-0.011143390486725663,0.008208676094531884
-0.011080890486725656,0.008208676094531884
-0.011018390486725663,0.008208676094531884
-0.010955890486725656,0.008208676094531884
-0.010893390486725663,0.008208676094531884
-0.010830890486725656,0.008208676094531884
-0.010768390486725662,0.008208676094531884
-0.010705890486725655,0.008208676094531884
-0.010643390486725662,0.008208676094531884
-0.010580890486725655,0.008208676094531884
-0.010518390486725662,0.008208676094531884
-0.010455890486725655,0.008208676094531884
-0.010393390486725662,0.008208676094531884
-0.010330890486725655,0.008208676094531884
-0.010268390486725662,0.008208676094531884
-0.010205890486725655,0.008208676094531884
-0.010143390486725662,0.008208676094531884
-0.010080890486725655,0.008208676094531884
-0.010018390486725662,0.008208676094531884
-0.009955890486725655,0.008208676094531884
-0.009893390486725662,0.008208676094531884
-0.009830890486725655,0.008208676094531884
-0.009768390486725662,0.008208676094531884
-0.009705890486725655,0.008208676094531884
-0.009643390486725661,0.008208676094531884
-0.009580890486725654,0.008208676094531884
-0.009518390486725661,0.008208676094531884
-0.009455890486725654,0.008208676094531884
-0.009393390486725661,0.008208676094531884
-0.009330890486725654,0.008208676094531884
-0.009268390486725661,0.008208676094531884
-0.009205890486725654,0.008208676094531884
-0.009143390486725661,0.008208676094531884
-0.009080890486725654,0.008208676094531884
-0.009018390486725661,0.008208676094531884
-0.008955890486725654,0.008208676094531884
-0.00889339048672566,0.008208676094531884
-0.008830890486725654,0.008208676094531884
-0.00876839048672566,0.008208676094531884
-0.008705890486725654,0.008208676094531884
-0.00864339048672566,0.008208676094531884
-0.008580890486725654,0.008208676094531884
-0.00851839048672566,0.008208676094531884
-0.008455890486725653,0.008208676094531884
-0.00839339048672566,0.008208676094531884
-0.008330890486725653,0.008208676094531884
-0.00826839048672566,0.008208676094531884
-0.008205890486725653,0.008208676094531884
-0.00814339048672566,0.008208676094531884
-0.008080890486725653,0.008208676094531884
-0.00801839048672566,0.008208676094531884
-0.007955890486725653,0.008208676094531884
-0.00789339048672566,0.008208676094531884
-0.007830890486725653,0.008208676094531884
-0.00776839048672566,0.008208676094531884
-0.007705890486725653,0.008208676094531884
-0.00764339048672566,0.008208676094531884
-0.007580890486725653,0.008208676094531884
-0.00751839048672566,0.008208676094531884
-0.007455890486725653,0.008208676094531884
-0.0073933904867256595,0.008208676094531884
-0.0073308904867256525,0.008208676094531884
-0.007268390486725659,0.008208676094531884
-0.007205890486725652,0.008208676094531884
-0.007143390486725659,0.008208676094531884
-0.007080890486725652,0.008208676094531884
-0.007018390486725659,0.008208676094531884
-0.006955890486725652,0.008208676094531884
-0.006893390486725659,0.008208676094531884
-0.006830890486725652,0.008208676094531884
-0.006768390486725659,0.008208676094531884
-0.006705890486725652,0.008208676094531884
-0.006643390486725659,0.008208676094531884
-0.006580890486725652,0.004519930486347622
-0.006518390486725659,0.008208676094531884
-0.006455890486725652,0.008208676094531884
-0.006393390486725659,0.004519930486347622
-0.006330890486725652,0.004519930486347622
-0.0062683904867256585,0.008208676094531884
-0.0062058904867256515,0.008208676094531884
-0.006143390486725658,0.008208676094531884
-0.006080890486725651,0.008208676094531884
-0.006018390486725658,0.008208676094531884
-0.005955890486725651,0.008208676094531884
-0.005893390486725658,0.008208676094531884
-0.005830890486725651,0.004519930486347622
-0.005768390486725658,0.008208676094531884
-0.005705890486725651,0.008208676094531884
-0.005643390486725658,0.008208676094531884
-0.005580890486725651,0.008208676094531884
-0.005518390486725658,0.008208676094531884
-0.005455890486725651,0.008208676094531884
-0.005393390486725658,0.008208676094531884
-0.005330890486725651,0.008208676094531884
-0.005268390486725658,0.008208676094531884
-0.005205890486725651,0.008208676094531884
-0.0051433904867256575,0.008208676094531884
-0.0050808904867256505,0.008208676094531884
-0.005018390486725657,0.008208676094531884
-0.00495589048672565,0.004519930486347622
-0.004893390486725657,0.008208676094531884
-0.00483089048672565,0.008208676094531884
-0.004768390486725657,0.008208676094531884
-0.00470589048672565,0.008208676094531884
-0.004643390486725657,0.008208676094531884
-0.00458089048672565,0.008208676094531884
-0.004518390486725657,0.008208676094531884
-0.00445589048672565,0.008208676094531884
-0.004393390486725657,0.004519930486347622
-0.00433089048672565,0.004519930486347622
-0.004268390486725657,0.008208676094531884
-0.00420589048672565,0.008208676094531884
-0.004143390486725657,0.008208676094531884
-0.00408089048672565,0.008208676094531884
-0.0040183904867256565,0.008208676094531884
-0.0039558904867256495,0.008208676094531884
-0.0038933904867256564,0.004519930486347622
-0.0038308904867256494,0.008208676094531884
-0.0037683904867256562,0.008208676094531884
-0.0037058904867256492,0.008208676094531884
-0.003643390486725656,0.008208676094531884
-0.003580890486725663,0.008208676094531884
-0.003518390486725656,0.004519930486347622
-0.003455890486725663,0.008208676094531884
-0.003393390486725656,0.008208676094531884
-0.003330890486725663,0.004519930486347622
-0.003268390486725656,0.008208676094531884
-0.0032058904867256627,0.008208676094531884
-0.0031433904867256557,0.008208676094531884
-0.0030808904867256626,0.004519930486347622
-0.0030183904867256556,0.008208676094531884
-0.0029558904867256625,0.008208676094531884
-0.0028933904867256555,0.008208676094531884
-0.0028308904867256623,0.008208676094531884
-0.0027683904867256554,0.008208676094531884
-0.0027058904867256622,0.004519930486347622
-0.0026433904867256552,0.008208676094531884
-0.002580890486725662,0.008208676094531884
-0.002518390486725655,0.008208676094531884
-0.002455890486725662,0.008208676094531884
-0.002393390486725655,0.008208676094531884
-0.002330890486725662,0.008208676094531884
-0.002268390486725655,0.008208676094531884
-0.002205890486725662,0.008208676094531884
-0.002143390486725655,0.008208676094531884
-0.0020808904867256617,0.008208676094531884
-0.0020183904867256547,0.008208676094531884
-0.0019558904867256616,0.008208676094531884
-0.0018933904867256546,0.008208676094531884
-0.0018308904867256615,0.008208676094531884
-0.0017683904867256545,0.008208676094531884
-0.0017058904867256613,0.008208676094531884
-0.0016433904867256544,0.004519930486347622
-0.0015808904867256612,0.004519930486347622
-0.0015183904867256542,0.008208676094531884
-0.0014558904867256611,0.008208676094531884
-0.0013933904867256541,0.008208676094531884
-0.001330890486725661,0.008208676094531884
-0.001268390486725654,0.008208676094531884
-0.001205890486725661,0.008208676094531884
-0.001143390486725654,0.008208676094531884
-0.0010808904867256608,0.008208676094531884
-0.0010183904867256538,0.008208676094531884
-0.0009558904867256607,0.004519930486347622
-0.0008933904867256537,0.008208676094531884
-0.0008308904867256606,0.008208676094531884
-0.0007683904867256536,0.008208676094531884
-0.0007058904867256605,0.008208676094531884
-0.0006433904867256535,0.008208676094531884
-0.0005808904867256603,0.008208676094531884
-0.0005183904867256534,0.008208676094531884
-0.00045589048672566024,0.008208676094531884
-0.00039339048672565324,0.008208676094531884
-0.0003308904867256601,0.011897421702716147
-0.00026839048672565313,0.011897421702716147
-0.00020589048672566002,0.011897421702716147
-0.00014339048672565302,0.011897421702716147
-8.08904867256599e-05,0.011897421702716147
-1.839048672565291e-05,0.011897421702716147
4.4109513274340206e-05,1.6792104366020029
0.0001066095132743472,3.3391459602849207
0.00016910951327434032,3.3243909778521834
0.0002316095132743473,3.3207022322439994
0.00029410951327434043,3.3207022322439994
0.0003566095132743474,3.3207022322439994
0.00041910951327434054,3.3207022322439994
0.00048160951327434753,3.3207022322439994
0.0005441095132743407,3.3207022322439994
0.0006066095132743476,3.3207022322439994
0.0006691095132743408,3.3207022322439994
0.0007316095132743478,3.3207022322439994
0.0007941095132743409,3.3207022322439994
0.0008566095132743479,3.3207022322439994
0.000919109513274341,3.3207022322439994
0.000981609513274348,3.3207022322439994
0.001044109513274341,3.3207022322439994
0.001106609513274348,3.3207022322439994
0.0011691095132743412,3.3207022322439994
0.0012316095132743482,3.3207022322439994
0.0012941095132743413,3.3207022322439994
0.0013566095132743483,3.3207022322439994
0.0014191095132743414,3.3207022322439994
0.0014816095132743484,3.3207022322439994
0.0015441095132743415,3.3207022322439994
0.0016066095132743485,3.3207022322439994
0.0016691095132743416,3.3207022322439994
0.0017316095132743486,3.317013486635815
0.0017941095132743418,3.3207022322439994
0.0018566095132743488,3.3207022322439994
0.0019191095132743419,3.3207022322439994
0.001981609513274349,3.317013486635815
0.002044109513274342,3.3207022322439994
0.002106609513274349,3.3207022322439994
0.002169109513274342,3.3207022322439994
0.002231609513274349,3.3207022322439994
0.002294109513274342,3.3207022322439994
0.002356609513274349,3.3207022322439994
0.0024191095132743423,3.3207022322439994
0.0024816095132743493,3.3207022322439994
0.0025441095132743424,3.3207022322439994
0.0026066095132743494,3.3207022322439994
0.0026691095132743425,3.3207022322439994
0.0027316095132743495,3.3207022322439994
0.0027941095132743426,3.3207022322439994
0.0028566095132743496,3.3207022322439994
0.0029191095132743428,3.3207022322439994
0.0029816095132743498,3.3207022322439994
0.003044109513274343,3.3207022322439994
0.00310660951327435,3.3207022322439994
0.003169109513274343,3.3207022322439994
0.00323160951327435,3.3207022322439994
0.003294109513274343,3.3207022322439994
0.00335660951327435,3.3207022322439994
0.003419109513274343,3.3207022322439994
0.00348160951327435,3.3207022322439994
0.0035441095132743433,3.3207022322439994
0.0036066095132743503,3.3207022322439994
0.0036691095132743434,3.3207022322439994
0.0037316095132743504,3.3207022322439994
0.0037941095132743435,3.3207022322439994
0.0038566095132743505,3.3207022322439994
0.003919109513274344,3.3207022322439994
0.003981609513274351,3.3207022322439994
0.004044109513274344,3.3207022322439994
0.004106609513274351,3.3207022322439994
0.004169109513274344,3.3207022322439994
0.004231609513274337,3.3207022322439994
0.004294109513274344,3.317013486635815
0.004356609513274337,3.3207022322439994
0.004419109513274344,3.317013486635815
0.004481609513274337,3.3207022322439994
0.004544109513274344,3.3207022322439994
0.004606609513274337,3.3207022322439994
0.004669109513274344,3.3207022322439994
0.004731609513274337,3.3207022322439994
0.004794109513274344,3.3207022322439994
0.0048566095132743375,3.3207022322439994
0.0049191095132743445,3.317013486635815
0.004981609513274338,3.3207022322439994
0.005044109513274345,3.3207022322439994
0.005106609513274338,3.3207022322439994
0.005169109513274345,3.3207022322439994
0.005231609513274338,3.3207022322439994
0.005294109513274345,3.3207022322439994
0.005356609513274338,3.3207022322439994
0.005419109513274345,3.3207022322439994
0.005481609513274338,3.3207022322439994
0.005544109513274345,3.3207022322439994
0.005606609513274338,3.317013486635815
0.005669109513274345,3.3207022322439994
0.005731609513274338,3.3207022322439994
0.005794109513274345,3.317013486635815
0.005856609513274338,3.3207022322439994
0.005919109513274345,3.3207022322439994
0.0059816095132743385,3.3207022322439994
0.0060441095132743455,3.317013486635815
0.006106609513274339,3.317013486635815
0.006169109513274346,3.3207022322439994
0.006231609513274339,3.3207022322439994
0.006294109513274346,3.3207022322439994
0.006356609513274339,3.3207022322439994
0.006419109513274346,3.3207022322439994
0.006481609513274339,3.3207022322439994
0.006544109513274346,3.3207022322439994
0.006606609513274339,3.317013486635815
0.006669109513274346,3.3207022322439994
0.006731609513274339,3.3207022322439994
0.006794109513274346,3.317013486635815
0.006856609513274339,3.3207022322439994
0.006919109513274346,3.3207022322439994
0.006981609513274339,3.3207022322439994
0.007044109513274346,3.3207022322439994
0.0071066095132743395,3.3207022322439994
0.0071691095132743465,3.3207022322439994
0.00723160951327434,3.3207022322439994
0.007294109513274347,3.3207022322439994
0.00735660951327434,3.3207022322439994
0.007419109513274347,3.3207022322439994
0.00748160951327434,3.3207022322439994
0.007544109513274347,3.3207022322439994
0.00760660951327434,3.3207022322439994
0.007669109513274347,3.3207022322439994
0.00773160951327434,3.3207022322439994
0.007794109513274347,3.3207022322439994
0.00785660951327434,3.3207022322439994
0.007919109513274347,3.3207022322439994
0.00798160951327434,3.3207022322439994
0.008044109513274347,3.3207022322439994
0.00810660951327434,3.3207022322439994
0.008169109513274347,3.3207022322439994
0.00823160951327434,3.3207022322439994
0.008294109513274348,3.3207022322439994
0.00835660951327434,3.3207022322439994
0.008419109513274348,3.3207022322439994
0.00848160951327434,3.3207022322439994
0.008544109513274348,3.3207022322439994
0.008606609513274341,3.3207022322439994
0.008669109513274348,3.3207022322439994
0.008731609513274341,3.3207022322439994
0.008794109513274348,3.3207022322439994
0.008856609513274341,3.3207022322439994
0.008919109513274348,3.3207022322439994
0.008981609513274341,3.3207022322439994
0.009044109513274348,3.3207022322439994
0.009106609513274341,3.3207022322439994
0.009169109513274348,3.3207022322439994
0.009231609513274341,3.3207022322439994
0.009294109513274348,3.3207022322439994
0.009356609513274342,3.3207022322439994
0.009419109513274349,3.3207022322439994
0.009481609513274342,3.3207022322439994
0.009544109513274349,3.3207022322439994
0.009606609513274342,3.3207022322439994
0.009669109513274349,3.3207022322439994
0.009731609513274342,3.3207022322439994
0.009794109513274349,3.3207022322439994
0.009856609513274342,3.3207022322439994
0.009919109513274349,3.3207022322439994
0.009981609513274342,3.3207022322439994
0.010044109513274349,3.3207022322439994
0.010106609513274342,3.3207022322439994
0.01016910951327435,3.3207022322439994
0.010231609513274342,3.3207022322439994
0.01029410951327435,3.3207022322439994
0.010356609513274342,3.3207022322439994
0.01041910951327435,3.3207022322439994
0.010481609513274343,3.3207022322439994
0.01054410951327435,3.3207022322439994
0.010606609513274343,3.3207022322439994
0.01066910951327435,3.3207022322439994
0.010731609513274343,3.317013486635815
0.01079410951327435,3.317013486635815
0.010856609513274343,3.3207022322439994
0.01091910951327435,3.3207022322439994
0.010981609513274343,3.3207022322439994
0.01104410951327435,3.317013486635815
0.011106609513274343,3.3207022322439994
0.01116910951327435,3.3207022322439994
0.011231609513274343,3.3207022322439994
0.01129410951327435,3.3207022322439994
0.011356609513274343,3.3207022322439994
0.01141910951327435,3.317013486635815
0.011481609513274343,3.3207022322439994
0.01154410951327435,3.3207022322439994
