Data/acq0072.csv

#Digilent WaveForms Oscilloscope Acquisition
#Device Name: Discovery2
#Serial Number: SN:210321B282B2
#Date Time: 2026-05-13 12:40:56.292
#Sample rate: 16000Hz
#Samples: 3200
#Trigger: Source: Channel 1 Type: Edge Condition: Rising Level: 500 mV Hyst.: 5 mV HoldOff: 0 s
#Channel 1: Range: 1 V/div Offset: 0 V Sample Mode: Average

Time (s),Channel 1 (V)
-0.017701002454991815,0.008208676094531884
-0.01763850245499181,0.008208676094531884
-0.017576002454991815,0.008208676094531884
-0.01751350245499181,0.008208676094531884
-0.017451002454991815,0.008208676094531884
-0.017388502454991808,0.008208676094531884
-0.017326002454991815,0.008208676094531884
-0.017263502454991808,0.008208676094531884
-0.017201002454991815,0.008208676094531884
-0.017138502454991808,0.008208676094531884
-0.017076002454991815,0.008208676094531884
-0.017013502454991808,0.008208676094531884
-0.016951002454991815,0.008208676094531884
-0.016888502454991808,0.008208676094531884
-0.016826002454991815,0.004519930486347622
-0.016763502454991808,0.008208676094531884
-0.016701002454991815,0.008208676094531884
-0.016638502454991808,0.008208676094531884
-0.016576002454991814,0.008208676094531884
-0.016513502454991807,0.008208676094531884
-0.016451002454991814,0.008208676094531884
-0.016388502454991807,0.008208676094531884
-0.016326002454991814,0.004519930486347622
-0.016263502454991807,0.008208676094531884
-0.016201002454991814,0.008208676094531884
-0.016138502454991807,0.008208676094531884
-0.016076002454991814,0.008208676094531884
-0.016013502454991807,0.008208676094531884
-0.015951002454991814,0.004519930486347622
-0.015888502454991807,0.008208676094531884
-0.015826002454991814,0.008208676094531884
-0.015763502454991807,0.008208676094531884
-0.015701002454991814,0.004519930486347622
-0.015638502454991807,0.008208676094531884
-0.015576002454991814,0.008208676094531884
-0.015513502454991807,0.008208676094531884
-0.015451002454991813,0.008208676094531884
-0.015388502454991806,0.004519930486347622
-0.015326002454991813,0.008208676094531884
-0.015263502454991806,0.008208676094531884
-0.015201002454991813,0.008208676094531884
-0.015138502454991806,0.004519930486347622
-0.015076002454991813,0.008208676094531884
-0.015013502454991806,0.008208676094531884
-0.014951002454991813,0.008208676094531884
-0.014888502454991806,0.008208676094531884
-0.014826002454991813,0.004519930486347622
-0.014763502454991806,0.008208676094531884
-0.014701002454991813,0.008208676094531884
-0.014638502454991806,0.008208676094531884
-0.014576002454991813,0.008208676094531884
-0.014513502454991806,0.008208676094531884
-0.014451002454991813,0.008208676094531884
-0.014388502454991806,0.008208676094531884
-0.014326002454991812,0.008208676094531884
-0.014263502454991805,0.004519930486347622
-0.014201002454991812,0.004519930486347622
-0.014138502454991805,0.004519930486347622
-0.014076002454991812,0.008208676094531884
-0.014013502454991805,0.008208676094531884
-0.013951002454991812,0.008208676094531884
-0.013888502454991805,0.008208676094531884
-0.013826002454991812,0.008208676094531884
-0.013763502454991805,0.008208676094531884
-0.013701002454991812,0.008208676094531884
-0.013638502454991805,0.008208676094531884
-0.013576002454991812,0.008208676094531884
-0.013513502454991805,0.008208676094531884
-0.013451002454991812,0.004519930486347622
-0.013388502454991805,0.008208676094531884
-0.013326002454991812,0.008208676094531884
-0.013263502454991805,0.008208676094531884
-0.013201002454991811,0.008208676094531884
-0.013138502454991804,0.004519930486347622
-0.013076002454991811,0.004519930486347622
-0.013013502454991804,0.004519930486347622
-0.012951002454991811,0.008208676094531884
-0.012888502454991804,0.008208676094531884
-0.012826002454991811,0.008208676094531884
-0.012763502454991804,0.008208676094531884
-0.012701002454991811,0.004519930486347622
-0.012638502454991804,0.008208676094531884
-0.012576002454991811,0.004519930486347622
-0.012513502454991804,0.004519930486347622
-0.01245100245499181,0.008208676094531884
-0.012388502454991804,0.004519930486347622
-0.01232600245499181,0.008208676094531884
-0.012263502454991804,0.008208676094531884
-0.01220100245499181,0.008208676094531884
-0.012138502454991804,0.008208676094531884
-0.01207600245499181,0.008208676094531884
-0.012013502454991803,0.008208676094531884
-0.01195100245499181,0.008208676094531884
-0.011888502454991803,0.008208676094531884
-0.01182600245499181,0.008208676094531884
-0.011763502454991803,0.008208676094531884
-0.01170100245499181,0.008208676094531884
-0.011638502454991803,0.008208676094531884
-0.01157600245499181,0.008208676094531884
-0.011513502454991803,0.008208676094531884
-0.01145100245499181,0.008208676094531884
-0.011388502454991817,0.008208676094531884
-0.01132600245499181,0.008208676094531884
-0.011263502454991817,0.008208676094531884
-0.01120100245499181,0.008208676094531884
-0.011138502454991817,0.008208676094531884
-0.01107600245499181,0.008208676094531884
-0.011013502454991816,0.008208676094531884
-0.01095100245499181,0.008208676094531884
-0.010888502454991816,0.008208676094531884
-0.01082600245499181,0.008208676094531884
-0.010763502454991816,0.008208676094531884
-0.01070100245499181,0.008208676094531884
-0.010638502454991816,0.008208676094531884
-0.010576002454991809,0.008208676094531884
-0.010513502454991816,0.008208676094531884
-0.010451002454991809,0.008208676094531884
-0.010388502454991816,0.008208676094531884
-0.010326002454991809,0.008208676094531884
-0.010263502454991816,0.008208676094531884
-0.010201002454991809,0.008208676094531884
-0.010138502454991816,0.008208676094531884
-0.010076002454991809,0.008208676094531884
-0.010013502454991816,0.008208676094531884
-0.009951002454991809,0.008208676094531884
-0.009888502454991815,0.008208676094531884
-0.009826002454991808,0.008208676094531884
-0.009763502454991815,0.008208676094531884
-0.009701002454991808,0.008208676094531884
-0.009638502454991815,0.008208676094531884
-0.009576002454991808,0.008208676094531884
-0.009513502454991815,0.008208676094531884
-0.009451002454991808,0.008208676094531884
-0.009388502454991815,0.008208676094531884
-0.009326002454991808,0.008208676094531884
-0.009263502454991815,0.008208676094531884
-0.009201002454991808,0.008208676094531884
-0.009138502454991815,0.008208676094531884
-0.009076002454991808,0.008208676094531884
-0.009013502454991815,0.008208676094531884
-0.008951002454991808,0.008208676094531884
-0.008888502454991815,0.008208676094531884
-0.008826002454991808,0.008208676094531884
-0.008763502454991814,0.008208676094531884
-0.008701002454991807,0.008208676094531884
-0.008638502454991814,0.008208676094531884
-0.008576002454991807,0.008208676094531884
-0.008513502454991814,0.008208676094531884
-0.008451002454991807,0.008208676094531884
-0.008388502454991814,0.008208676094531884
-0.008326002454991807,0.008208676094531884
-0.008263502454991814,0.008208676094531884
-0.008201002454991807,0.008208676094531884
-0.008138502454991814,0.008208676094531884
-0.008076002454991807,0.008208676094531884
-0.008013502454991814,0.008208676094531884
-0.007951002454991807,0.008208676094531884
-0.007888502454991814,0.008208676094531884
-0.007826002454991807,0.008208676094531884
-0.007763502454991814,0.008208676094531884
-0.007701002454991807,0.008208676094531884
-0.0076385024549918135,0.008208676094531884
-0.0075760024549918065,0.008208676094531884
-0.007513502454991813,0.008208676094531884
-0.007451002454991806,0.008208676094531884
-0.007388502454991813,0.008208676094531884
-0.007326002454991806,0.008208676094531884
-0.007263502454991813,0.008208676094531884
-0.007201002454991806,0.008208676094531884
-0.007138502454991813,0.008208676094531884
-0.007076002454991806,0.008208676094531884
-0.007013502454991813,0.008208676094531884
-0.006951002454991806,0.011897421702716147
-0.006888502454991813,0.008208676094531884
-0.006826002454991806,0.008208676094531884
-0.006763502454991813,0.008208676094531884
-0.006701002454991806,0.008208676094531884
-0.006638502454991813,0.008208676094531884
-0.006576002454991806,0.008208676094531884
-0.0065135024549918125,0.008208676094531884
-0.0064510024549918055,0.008208676094531884
-0.006388502454991812,0.008208676094531884
-0.006326002454991805,0.008208676094531884
-0.006263502454991812,0.008208676094531884
-0.006201002454991805,0.008208676094531884
-0.006138502454991812,0.008208676094531884
-0.006076002454991805,0.008208676094531884
-0.006013502454991812,0.008208676094531884
-0.005951002454991805,0.008208676094531884
-0.005888502454991812,0.008208676094531884
-0.005826002454991805,0.008208676094531884
-0.005763502454991812,0.008208676094531884
-0.005701002454991805,0.008208676094531884
-0.005638502454991812,0.008208676094531884
-0.005576002454991805,0.008208676094531884
-0.005513502454991812,0.008208676094531884
-0.005451002454991805,0.008208676094531884
-0.0053885024549918115,0.008208676094531884
-0.0053260024549918045,0.008208676094531884
-0.005263502454991811,0.011897421702716147
-0.005201002454991804,0.011897421702716147
-0.005138502454991811,0.011897421702716147
-0.005076002454991804,0.011897421702716147
-0.005013502454991811,0.011897421702716147
-0.004951002454991804,0.011897421702716147
-0.004888502454991811,0.011897421702716147
-0.004826002454991804,0.011897421702716147
-0.004763502454991811,0.008208676094531884
-0.004701002454991804,0.011897421702716147
-0.004638502454991811,0.011897421702716147
-0.004576002454991804,0.011897421702716147
-0.004513502454991811,0.011897421702716147
-0.004451002454991804,0.011897421702716147
-0.004388502454991811,0.008208676094531884
-0.004326002454991804,0.011897421702716147
-0.0042635024549918105,0.008208676094531884
-0.0042010024549918035,0.008208676094531884
-0.00413850245499181,0.008208676094531884
-0.004076002454991803,0.008208676094531884
-0.00401350245499181,0.008208676094531884
-0.003951002454991803,0.008208676094531884
-0.00388850245499181,0.008208676094531884
-0.003826002454991803,0.008208676094531884
-0.00376350245499181,0.008208676094531884
-0.003701002454991803,0.011897421702716147
-0.00363850245499181,0.008208676094531884
-0.003576002454991817,0.008208676094531884
-0.00351350245499181,0.011897421702716147
-0.0034510024549918167,0.008208676094531884
-0.0033885024549918097,0.008208676094531884
-0.0033260024549918166,0.008208676094531884
-0.0032635024549918096,0.008208676094531884
-0.0032010024549918165,0.008208676094531884
-0.0031385024549918095,0.008208676094531884
-0.0030760024549918163,0.008208676094531884
-0.0030135024549918094,0.011897421702716147
-0.0029510024549918162,0.011897421702716147
-0.0028885024549918092,0.011897421702716147
-0.002826002454991816,0.011897421702716147
-0.002763502454991809,0.011897421702716147
-0.002701002454991816,0.011897421702716147
-0.002638502454991809,0.008208676094531884
-0.002576002454991816,0.008208676094531884
-0.002513502454991809,0.008208676094531884
-0.002451002454991816,0.008208676094531884
-0.002388502454991809,0.008208676094531884
-0.0023260024549918157,0.008208676094531884
-0.0022635024549918087,0.008208676094531884
-0.0022010024549918156,0.008208676094531884
-0.0021385024549918086,0.008208676094531884
-0.0020760024549918155,0.008208676094531884
-0.0020135024549918085,0.008208676094531884
-0.0019510024549918153,0.008208676094531884
-0.0018885024549918084,0.011897421702716147
-0.0018260024549918152,0.008208676094531884
-0.0017635024549918082,0.008208676094531884
-0.0017010024549918151,0.008208676094531884
-0.0016385024549918081,0.008208676094531884
-0.001576002454991815,0.008208676094531884
-0.001513502454991808,0.008208676094531884
-0.001451002454991815,0.008208676094531884
-0.001388502454991808,0.008208676094531884
-0.0013260024549918148,0.008208676094531884
-0.0012635024549918078,0.008208676094531884
-0.0012010024549918147,0.008208676094531884
-0.0011385024549918077,0.008208676094531884
-0.0010760024549918146,0.008208676094531884
-0.0010135024549918076,0.008208676094531884
-0.0009510024549918145,0.008208676094531884
-0.0008885024549918075,0.008208676094531884
-0.0008260024549918143,0.008208676094531884
-0.0007635024549918074,0.011897421702716147
-0.0007010024549918142,0.008208676094531884
-0.0006385024549918072,0.008208676094531884
-0.0005760024549918141,0.008208676094531884
-0.0005135024549918071,0.008208676094531884
-0.000451002454991814,0.011897421702716147
-0.000388502454991807,0.011897421702716147
-0.0003260024549918139,0.011897421702716147
-0.0002635024549918069,0.011897421702716147
-0.0002010024549918138,0.011897421702716147
-0.0001385024549918068,0.011897421702716147
-7.600245499181368e-05,0.011897421702716147
-1.350245499180669e-05,0.01558616731090041
4.899754500818643e-05,2.2694097339114845
0.00011149754500819342,3.3354572146767363
0.00017399754500818654,3.3207022322439994
0.00023649754500819353,3.3207022322439994
0.00029899754500818665,3.3207022322439994
0.00036149754500819364,3.3207022322439994
0.00042399754500818676,3.3207022322439994
0.00048649754500819375,3.3207022322439994
0.0005489975450081869,3.3207022322439994
0.0006114975450081939,3.3207022322439994
0.000673997545008187,3.3207022322439994
0.000736497545008194,3.3207022322439994
0.0007989975450081871,3.3207022322439994
0.0008614975450081941,3.3207022322439994
0.0009239975450081872,3.3207022322439994
0.0009864975450081942,3.3207022322439994
0.0010489975450081873,3.3207022322439994
0.0011114975450081943,3.3207022322439994
0.0011739975450081874,3.3207022322439994
0.0012364975450081944,3.3207022322439994
0.0012989975450081875,3.3207022322439994
0.0013614975450081945,3.3207022322439994
0.0014239975450081876,3.3207022322439994
0.0014864975450081946,3.3207022322439994
0.0015489975450081878,3.3207022322439994
0.0016114975450081948,3.3207022322439994
0.0016739975450081879,3.3207022322439994
0.0017364975450081949,3.3207022322439994
0.001798997545008188,3.3207022322439994
0.001861497545008195,3.3207022322439994
0.001923997545008188,3.3207022322439994
0.001986497545008195,3.3207022322439994
0.002048997545008188,3.3207022322439994
0.002111497545008195,3.3207022322439994
0.0021739975450081883,3.3207022322439994
0.0022364975450081953,3.3207022322439994
0.0022989975450081884,3.3207022322439994
0.0023614975450081954,3.3207022322439994
0.0024239975450081885,3.3207022322439994
0.0024864975450081955,3.3207022322439994
0.0025489975450081886,3.3207022322439994
0.0026114975450081956,3.3207022322439994
0.0026739975450081888,3.3207022322439994
0.0027364975450081958,3.3207022322439994
0.002798997545008189,3.3207022322439994
0.002861497545008196,3.3207022322439994
0.002923997545008189,3.3207022322439994
0.002986497545008196,3.3207022322439994
0.003048997545008189,3.3207022322439994
0.003111497545008196,3.3207022322439994
0.003173997545008189,3.3207022322439994
0.003236497545008196,3.3207022322439994
0.0032989975450081893,3.3207022322439994
0.0033614975450081963,3.3207022322439994
0.0034239975450081894,3.3207022322439994
0.0034864975450081964,3.3207022322439994
0.0035489975450081895,3.3207022322439994
0.0036114975450081965,3.3207022322439994
0.0036739975450081896,3.3207022322439994
0.0037364975450081966,3.3207022322439994
0.0037989975450081898,3.3207022322439994
0.0038614975450081968,3.3207022322439994
0.00392399754500819,3.3207022322439994
0.003986497545008197,3.3207022322439994
0.00404899754500819,3.3207022322439994
0.004111497545008197,3.3207022322439994
0.00417399754500819,3.3207022322439994
0.004236497545008183,3.3207022322439994
0.00429899754500819,3.3207022322439994
0.004361497545008183,3.3207022322439994
0.00442399754500819,3.3207022322439994
0.004486497545008183,3.3207022322439994
0.00454899754500819,3.3207022322439994
0.0046114975450081835,3.3207022322439994
0.0046739975450081905,3.3207022322439994
0.004736497545008184,3.3207022322439994
0.004798997545008191,3.3243909778521834
0.004861497545008184,3.3207022322439994
0.004923997545008191,3.3207022322439994
0.004986497545008184,3.3207022322439994
0.005048997545008191,3.3207022322439994
0.005111497545008184,3.3243909778521834
0.005173997545008191,3.3207022322439994
0.005236497545008184,3.3207022322439994
0.005298997545008191,3.3207022322439994
0.005361497545008184,3.3243909778521834
0.005423997545008191,3.3207022322439994
0.005486497545008184,3.3207022322439994
0.005548997545008191,3.3207022322439994
0.005611497545008184,3.3207022322439994
0.005673997545008191,3.3207022322439994
0.0057364975450081845,3.3207022322439994
0.0057989975450081915,3.3207022322439994
0.005861497545008185,3.3207022322439994
0.005923997545008192,3.3207022322439994
0.005986497545008185,3.3207022322439994
0.006048997545008192,3.3207022322439994
0.006111497545008185,3.3243909778521834
0.006173997545008192,3.3207022322439994
0.006236497545008185,3.3207022322439994
0.006298997545008192,3.3207022322439994
0.006361497545008185,3.3207022322439994
0.006423997545008192,3.3207022322439994
0.006486497545008185,3.3207022322439994
0.006548997545008192,3.3207022322439994
0.006611497545008185,3.3207022322439994
0.006673997545008192,3.3207022322439994
0.006736497545008185,3.3207022322439994
0.006798997545008192,3.3207022322439994
0.0068614975450081855,3.3207022322439994
0.0069239975450081925,3.3207022322439994
0.006986497545008186,3.3207022322439994
0.007048997545008193,3.3207022322439994
0.007111497545008186,3.3207022322439994
0.007173997545008193,3.3207022322439994
0.007236497545008186,3.3207022322439994
0.007298997545008193,3.3207022322439994
0.007361497545008186,3.3207022322439994
0.007423997545008193,3.3207022322439994
0.007486497545008186,3.3207022322439994
0.007548997545008193,3.3207022322439994
0.007611497545008186,3.3207022322439994
0.007673997545008193,3.3207022322439994
0.007736497545008186,3.3207022322439994
0.007798997545008193,3.3207022322439994
0.007861497545008186,3.3207022322439994
0.007923997545008193,3.3207022322439994
0.007986497545008187,3.3207022322439994
0.008048997545008194,3.3207022322439994
0.008111497545008187,3.3207022322439994
0.008173997545008194,3.3207022322439994
0.008236497545008187,3.3207022322439994
0.008298997545008194,3.3207022322439994
0.008361497545008187,3.3207022322439994
0.008423997545008194,3.3207022322439994
0.008486497545008187,3.3207022322439994
0.008548997545008194,3.3207022322439994
0.008611497545008187,3.3207022322439994
0.008673997545008194,3.3207022322439994
0.008736497545008187,3.3207022322439994
0.008798997545008194,3.3207022322439994
0.008861497545008187,3.3207022322439994
0.008923997545008194,3.3207022322439994
0.008986497545008187,3.3207022322439994
0.009048997545008194,3.3207022322439994
0.009111497545008188,3.3207022322439994
0.009173997545008195,3.3207022322439994
0.009236497545008188,3.3207022322439994
0.009298997545008195,3.3207022322439994
0.009361497545008188,3.3207022322439994
0.009423997545008195,3.3207022322439994
0.009486497545008188,3.3207022322439994
0.009548997545008195,3.3207022322439994
0.009611497545008188,3.3207022322439994
0.009673997545008195,3.3207022322439994
0.009736497545008188,3.3207022322439994
0.009798997545008195,3.3207022322439994
0.009861497545008188,3.3207022322439994
0.009923997545008195,3.3207022322439994
0.009986497545008188,3.3207022322439994
0.010048997545008195,3.3207022322439994
0.010111497545008188,3.3207022322439994
0.010173997545008195,3.3207022322439994
0.010236497545008189,3.3207022322439994
0.010298997545008196,3.3207022322439994
0.010361497545008189,3.3207022322439994
0.010423997545008196,3.3207022322439994
0.010486497545008189,3.3207022322439994
0.010548997545008196,3.3207022322439994
0.010611497545008189,3.3207022322439994
0.010673997545008196,3.3207022322439994
0.010736497545008189,3.3207022322439994
0.010798997545008196,3.3207022322439994
0.010861497545008189,3.3207022322439994
0.010923997545008196,3.3207022322439994
0.01098649754500819,3.3207022322439994
0.011048997545008196,3.3207022322439994
0.01111149754500819,3.3207022322439994
0.011173997545008196,3.3207022322439994
0.01123649754500819,3.3207022322439994
0.011298997545008196,3.3207022322439994
0.01136149754500819,3.3207022322439994
0.011423997545008197,3.3207022322439994
