RawData/acq0013.csv

#Digilent WaveForms Oscilloscope Acquisition
#Device Name: Discovery2
#Serial Number: SN:210321B282B2
#Date Time: 2026-05-20 12:12:59.403
#Sample rate: 800000Hz
#Samples: 8192
#Trigger: Source: Channel 1 Type: Edge Condition: Rising Level: 250 mV Hyst.: Auto HoldOff: 0 s
#Channel 1: Range: 200 mV/div Offset: 0 V Sample Mode: Average

Time (s),Channel 1 (V)
-0.0011190625000000003,0.1532571157721722
-0.0011178124999999999,0.15392851816145514
-0.0011165624999999995,0.1545999205507376
-0.0011153125,0.15359281696681365
-0.0011140624999999996,0.15392851816145514
-0.0011128125,0.15392851816145514
-0.0011115624999999997,0.15459992055073807
-0.0011103125000000002,0.1532571157721728
-0.0011090624999999998,0.1532571157721722
-0.0011078124999999994,0.15392851816145484
-0.0011065625,0.1532571157721722
-0.0011053124999999995,0.1539285181614553
-0.0011040625,0.1542642193560966
-0.0011028124999999996,0.15459992055073807
-0.0011015625000000001,0.1542642193560966
-0.0011003124999999997,0.15392851816145514
-0.0010990625000000002,0.15359281696681382
-0.0010978124999999998,0.15359281696681365
-0.0010965624999999994,0.15459992055073807
-0.0010953125,0.15459992055073807
-0.0010940624999999995,0.15426421935609644
-0.0010928125,0.15392851816145514
-0.0010915624999999997,0.15392851816145514
-0.0010903125000000001,0.15493562174537912
-0.0010890624999999998,0.1542642193560966
-0.0010878125000000002,0.1539285181614553
-0.0010865624999999999,0.15392851816145514
-0.0010853124999999995,0.15426421935609708
-0.0010840625,0.15527132294002102
-0.0010828124999999996,0.15459992055073807
-0.0010815625,0.1532571157721722
-0.0010803124999999997,0.15493562174537956
-0.0010790625000000002,0.15459992055073823
-0.0010778124999999998,0.15493562174537956
-0.0010765625000000003,0.1542642193560969
-0.0010753124999999999,0.15459992055073807
-0.0010740624999999995,0.15459992055073807
-0.0010728125,0.15459992055073807
-0.0010715624999999996,0.1542642193560966
-0.0010703125,0.15459992055073807
-0.0010690624999999997,0.1542642193560966
-0.0010678125000000002,0.15493562174537925
-0.0010665624999999998,0.1562784265239454
-0.0010653124999999994,0.15493562174537986
-0.0010640625,0.15560702413466249
-0.0010628124999999995,0.15459992055073837
-0.0010615625,0.15527132294002102
-0.0010603124999999996,0.15493562174537956
-0.0010590625,0.15594272532930395
-0.0010578124999999997,0.15527132294002102
-0.0010565625000000002,0.1566141277185863
-0.0010553124999999998,0.15594272532930395
-0.0010540624999999994,0.15527132294002102
-0.0010528125,0.15527132294002102
-0.0010515624999999995,0.15560702413466296
-0.0010503125,0.1566141277185869
-0.0010490624999999996,0.1566141277185869
-0.0010478125000000001,0.1566141277185869
-0.0010465624999999997,0.1562784265239454
-0.0010453125000000002,0.15661412771858674
-0.0010440624999999999,0.15728553010786983
-0.0010428124999999995,0.15661412771858707
-0.0010415625,0.15694982891322837
-0.0010403124999999996,0.15694982891322837
-0.0010390625,0.1562784265239454
-0.0010378124999999997,0.15694982891322837
-0.0010365625000000002,0.15728553010786966
-0.0010353124999999998,0.15728553010786983
-0.0010340625000000003,0.1569498289132285
-0.0010328124999999999,0.15594272532930395
-0.0010315624999999995,0.15795693249715262
-0.0010303125,0.15762123130251132
-0.0010290624999999996,0.15762123130251132
-0.0010278125,0.15694982891322837
-0.0010265624999999997,0.15762123130251132
-0.0010253125000000002,0.15762123130251132
-0.0010240624999999998,0.15829263369179425
-0.0010228124999999994,0.15795693249715295
-0.0010215625,0.15829263369179425
-0.0010203124999999995,0.15829263369179425
-0.0010190625,0.15829263369179425
-0.0010178124999999996,0.15829263369179425
-0.0010165625,0.1586283348864357
-0.0010153124999999997,0.1586283348864357
-0.0010140625000000002,0.15829263369179442
-0.0010128124999999998,0.15829263369179425
-0.0010115624999999994,0.1592997372757185
-0.0010103125,0.15896403608107718
-0.0010090624999999995,0.15963543847036013
-0.0010078125,0.15963543847036013
-0.0010065624999999996,0.15929973727571867
-0.0010053125000000001,0.1599711396650016
-0.0010040624999999997,0.15963543847036013
-0.0010028125000000002,0.15963543847036013
-0.0010015624999999998,0.16030684085964308
-0.0010003124999999995,0.15929973727571897
-0.0009990625,0.1599711396650016
-0.0009978124999999996,0.1599711396650016
-0.0009965625,0.160978243248926
-0.0009953124999999997,0.1599711396650016
-0.0009940625000000002,0.16064254205428424
-0.0009928124999999998,0.16064254205428455
-0.0009915625000000003,0.16131394444356717
-0.0009903124999999999,0.160978243248926
-0.0009890624999999995,0.16097824324892632
-0.0009878125,0.16164964563820894
-0.0009865624999999996,0.16131394444356748
-0.0009853125,0.16131394444356748
-0.0009840624999999997,0.16164964563820894
-0.0009828125000000002,0.16131394444356761
-0.0009815624999999998,0.16164964563820894
-0.0009803124999999994,0.16198534683285012
-0.0009790625,0.16131394444356748
-0.0009778124999999995,0.16265674922213305
-0.0009765625,0.16198534683285043
-0.0009753124999999996,0.16265674922213336
-0.0009740625000000001,0.1623210480274919
-0.0009728124999999997,0.16265674922213336
-0.0009715625000000002,0.16299245041677468
-0.0009703124999999998,0.1623210480274919
-0.0009690624999999994,0.16299245041677532
-0.0009678124999999999,0.16399955400069924
-0.0009665624999999995,0.16332815161141648
-0.0009653125,0.16366385280605777
-0.0009640624999999996,0.1633281516114163
-0.0009628125000000001,0.16399955400069924
-0.0009615624999999997,0.16366385280605777
-0.0009603125000000002,0.1643352551953404
-0.0009590624999999998,0.1643352551953407
-0.0009578124999999995,0.1646709563899822
-0.0009565625,0.1646709563899822
-0.0009553124999999996,0.1643352551953407
-0.0009540625,0.16534235877926512
-0.0009528124999999997,0.16399955400069924
-0.0009515625000000002,0.1646709563899819
-0.0009503124999999998,0.1656780599739066
-0.0009490625000000003,0.16634946236318923
-0.0009478124999999999,0.16500665758462366
-0.0009465624999999995,0.16467095638998203
-0.0009453125,0.1643352551953407
-0.0009440624999999996,0.16601376116854807
-0.0009428125000000001,0.1656780599739066
-0.0009415624999999997,0.16534235877926512
-0.0009403125000000002,0.16601376116854777
-0.0009390624999999998,0.16601376116854807
-0.0009378125000000003,0.16601376116854807
-0.0009365624999999999,0.16702086475247246
-0.0009353124999999995,0.1666851635578313
-0.0009340625,0.16735656594711396
-0.0009328124999999996,0.16802796833639688
-0.0009315625000000001,0.166685163557831
-0.0009303124999999997,0.16634946236318954
-0.0009290625000000002,0.16702086475247216
-0.0009278124999999998,0.16735656594711396
-0.0009265624999999994,0.16903507192032083
-0.0009253124999999999,0.16802796833639688
-0.0009240624999999995,0.1676922671417559
-0.0009228125,0.16869937072567984
-0.0009215624999999996,0.16769226714175542
-0.0009203125000000001,0.16869937072567984
-0.0009190624999999997,0.1690350719203213
-0.0009178125000000002,0.16937077311496262
-0.0009165624999999998,0.16970647430960423
-0.0009153124999999995,0.16903507192032113
-0.0009140624999999999,0.16869937072567984
-0.0009128124999999996,0.16937077311496307
-0.0009115625,0.17004217550424572
-0.0009103124999999997,0.17004217550424572
-0.0009090625000000001,0.17004217550424572
-0.0009078124999999998,0.16937077311496276
-0.0009065625000000003,0.1703778766988867
-0.0009053124999999999,0.17104927908817014
-0.0009040624999999995,0.17104927908816983
-0.0009028125,0.17037787669888718
-0.0009015624999999996,0.17104927908817014
-0.0009003125000000001,0.1713849802828116
-0.0008990624999999997,0.1713849802828116
-0.0008978125000000002,0.17205638267209422
-0.0008965624999999998,0.17172068147745306
-0.0008953125000000003,0.17138498028281174
-0.0008940624999999999,0.17172068147745306
-0.0008928124999999995,0.17272778506137748
-0.0008915625,0.17272778506137748
-0.0008903124999999996,0.17272778506137748
-0.0008890625000000001,0.17272778506137748
-0.0008878124999999997,0.1733991874506604
-0.0008865625000000002,0.17306348625601908
-0.0008853124999999998,0.17272778506137748
-0.0008840624999999994,0.17306348625601925
-0.0008828124999999999,0.1737348886453019
-0.0008815624999999995,0.17373488864530173
-0.0008803125,0.1733991874506604
-0.0008790624999999996,0.17407058983994336
-0.0008778125000000001,0.1747419922292263
-0.0008765624999999997,0.17440629103458483
-0.0008753125000000002,0.17440629103458483
-0.0008740624999999998,0.1747419922292263
-0.0008728124999999995,0.17541339461850894
-0.0008715624999999999,0.1747419922292263
-0.0008703124999999996,0.17407058983994383
-0.0008690625,0.17507769342386775
-0.0008678124999999997,0.1747419922292263
-0.0008665625000000001,0.17608479700779156
-0.0008653124999999998,0.17541339461850924
-0.0008640625000000002,0.17574909581315057
-0.0008628124999999999,0.1757490958131507
-0.0008615624999999995,0.17642049820243366
-0.0008603125,0.17642049820243366
-0.0008590624999999996,0.17642049820243366
-0.0008578125000000001,0.17642049820243366
-0.0008565624999999997,0.17742760178635805
-0.0008553125000000002,0.17675619939707543
-0.0008540624999999998,0.17642049820243366
-0.0008528125000000003,0.17809900417564023
-0.0008515624999999999,0.17843470537028247
-0.0008503124999999995,0.1780990041756407
-0.0008490625,0.17742760178635805
-0.0008478124999999996,0.17742760178635805
-0.0008465625000000001,0.17877040656492393
-0.0008453124999999997,0.17910610775956542
-0.0008440625000000002,0.17944180895420675
-0.0008428124999999998,0.17843470537028247
-0.0008415624999999994,0.1780990041756413
-0.0008403124999999999,0.17877040656492393
-0.0008390624999999995,0.17944180895420672
-0.0008378125,0.17910610775956542
-0.0008365624999999996,0.18011321134348982
-0.0008353125000000001,0.17977751014884835
-0.0008340624999999997,0.17977751014884835
-0.0008328125000000002,0.17977751014884835
-0.0008315624999999998,0.18078461373277277
-0.0008303124999999995,0.18011321134348998
-0.0008290624999999999,0.18044891253813128
-0.0008278124999999996,0.18044891253813128
-0.0008265625,0.18044891253813128
-0.0008253124999999997,0.1814560161220557
-0.0008240625000000001,0.18112031492741437
-0.0008228124999999998,0.18212741851133865
-0.0008215625000000002,0.1811203149274147
-0.0008203124999999999,0.18246311970598011
-0.0008190624999999995,0.18212741851133865
-0.0008178125,0.18212741851133865
-0.0008165624999999996,0.18246311970598011
-0.0008153125000000001,0.18313452209526304
-0.0008140624999999997,0.18246311970598011
-0.0008128125000000002,0.18279882090062144
-0.0008115624999999998,0.183805924484546
-0.0008103125000000003,0.183805924484546
-0.0008090624999999999,0.183805924484546
-0.0008078124999999995,0.18279882090062158
-0.0008065625,0.18279882090062158
-0.0008053124999999996,0.18414162567918746
-0.0008040625000000001,0.183805924484546
-0.0008028124999999997,0.18481302806847041
-0.0008015625000000002,0.18414162567918776
-0.0008003124999999998,0.18447732687382895
-0.0007990624999999994,0.18481302806847041
-0.0007978124999999999,0.18481302806847041
-0.0007965624999999995,0.18481302806847041
-0.0007953125,0.18481302806847041
-0.0007940624999999996,0.1858201316523948
-0.0007928125000000001,0.18481302806847041
-0.0007915624999999997,0.1861558328470363
-0.0007903125000000002,0.1861558328470363
-0.0007890624999999998,0.1861558328470363
-0.0007878124999999995,0.1858201316523948
-0.0007865624999999999,0.1858201316523948
-0.0007853124999999996,0.18582013165239541
-0.0007840625,0.1871629364309607
-0.0007828124999999997,0.1871629364309607
-0.0007815625000000001,0.18749863762560204
-0.0007803124999999998,0.18783433882024364
-0.0007790625000000002,0.18716293643096102
-0.0007778124999999999,0.1871629364309607
-0.0007765624999999995,0.18884144240416775
-0.0007753125,0.1881700400148851
-0.0007740624999999996,0.18783433882024364
-0.0007728125000000001,0.18850574120952657
-0.0007715624999999997,0.18884144240416806
-0.0007703125000000002,0.18884144240416806
-0.0007690624999999998,0.18884144240416806
-0.0007678125000000003,0.18884144240416806
-0.0007665624999999999,0.18951284479345099
-0.0007653124999999995,0.18951284479345082
-0.0007640625,0.18917714359880952
-0.0007628124999999996,0.19018424718273394
-0.0007615625000000001,0.18984854598809248
-0.0007603124999999997,0.18984854598809248
-0.0007590625000000002,0.1901842471827338
-0.0007578124999999998,0.19018424718273394
-0.0007565624999999994,0.1915270519613
-0.0007553124999999999,0.19186275315594128
-0.0007540624999999995,0.19085564957201703
-0.0007528125,0.19119135076665833
-0.0007515624999999996,0.19119135076665833
-0.0007503125000000001,0.19119135076665833
-0.0007490624999999997,0.19152705196129982
-0.0007478125000000002,0.19186275315594115
-0.0007465624999999998,0.19119135076665833
-0.0007453124999999994,0.19219845435058275
-0.0007440624999999999,0.19219845435058275
-0.0007428124999999995,0.1928698567398657
-0.0007415625,0.1928698567398657
-0.0007403124999999997,0.1928698567398657
-0.0007390625000000001,0.19354125912914832
-0.0007378124999999998,0.1928698567398657
-0.0007365625000000002,0.19354125912914832
-0.0007353124999999999,0.19421266151843158
-0.0007340624999999995,0.19421266151843142
-0.0007328125,0.1938769603237901
-0.0007315624999999996,0.19421266151843158
-0.0007303125000000001,0.19421266151843158
-0.0007290624999999997,0.19454836271307305
-0.0007278125000000002,0.19454836271307305
-0.0007265624999999998,0.19454836271307305
-0.0007253125000000003,0.19488406390771434
-0.0007240624999999999,0.19589116749163893
-0.0007228124999999995,0.1958911674916391
-0.0007215625,0.1962268686862804
-0.0007203124999999996,0.195219765102356
-0.0007190625000000001,0.19589116749163893
-0.0007178124999999997,0.19589116749163893
-0.0007165625000000002,0.1955554662969976
-0.0007153124999999998,0.19589116749163893
-0.0007140624999999994,0.1975696734648461
-0.0007128124999999999,0.1972339722702048
-0.0007115624999999995,0.19656256988092233
-0.0007103125,0.19756967346484627
-0.0007090624999999996,0.19756967346484627
-0.0007078125000000001,0.19790537465948776
-0.0007065624999999997,0.19790537465948776
-0.0007053125000000002,0.1982410758541291
-0.0007040624999999998,0.19824107585412923
-0.0007028124999999994,0.19790537465948807
-0.0007015624999999999,0.1985767770487707
-0.0007003124999999995,0.19891247824341185
-0.0006990625,0.19824107585412923
-0.0006978124999999996,0.1985767770487707
-0.0006965625000000001,0.19824107585412937
-0.0006953124999999998,0.19891247824341216
-0.0006940625000000002,0.1999195818273361
-0.0006928124999999999,0.19991958182733657
-0.0006915624999999995,0.19924817943805392
-0.0006903125,0.19991958182733657
-0.0006890624999999996,0.1995838806326951
-0.0006878125000000001,0.20025528302197804
-0.0006865624999999997,0.20059098421661953
-0.0006853125000000002,0.20059098421661953
-0.0006840624999999998,0.200926685411261
-0.0006828125000000003,0.2005909842166197
-0.0006815624999999999,0.19991958182733657
-0.0006803124999999995,0.2015980878005436
-0.0006790625,0.200926685411261
-0.0006778124999999996,0.20159808780054392
-0.0006765625000000001,0.20193378899518538
-0.0006753124999999997,0.20193378899518538
-0.0006740625000000002,0.20159808780054406
-0.0006728124999999998,0.20226949018982687
-0.0006715624999999994,0.2015980878005444
-0.0006703124999999999,0.20260519138446834
-0.0006690624999999995,0.20327659377375112
-0.0006678125,0.2029408925791098
-0.0006665624999999996,0.20260519138446834
-0.0006653125000000001,0.20361229496839275
-0.0006640624999999997,0.20394799616303422
-0.0006628125000000002,0.20294089257911024
-0.0006615624999999998,0.20361229496839275
-0.0006603124999999994,0.20394799616303452
-0.0006590624999999999,0.20461939855231714
-0.0006578124999999995,0.20394799616303422
-0.0006565625,0.20394799616303422
-0.0006553124999999996,0.20394799616303422
-0.0006540625000000001,0.20461939855231714
-0.0006528124999999997,0.20461939855231714
-0.0006515625000000002,0.2052908009415998
-0.0006503124999999998,0.20461939855231714
-0.0006490624999999995,0.2052908009416001
-0.0006478125,0.2052908009416001
-0.0006465624999999996,0.20428369735767568
-0.0006453125,0.20629790452552452
-0.0006440624999999997,0.20562650213624156
-0.0006428125000000002,0.2062979045255242
-0.0006415624999999998,0.20596220333088305
-0.0006403125000000003,0.20663360572016568
-0.0006390624999999999,0.20663360572016598
-0.0006378124999999995,0.20596220333088366
-0.0006365625,0.2073050081094489
-0.0006353124999999996,0.20663360572016598
-0.0006340625000000001,0.20696930691480744
-0.0006328124999999997,0.2073050081094489
-0.0006315625000000002,0.2073050081094489
-0.0006303124999999998,0.20663360572016598
-0.0006290624999999994,0.2076407093040907
-0.0006278124999999999,0.20831211169337333
-0.0006265624999999995,0.20831211169337316
-0.0006253125,0.20797641049873186
-0.0006240624999999996,0.20797641049873186
-0.0006228125000000001,0.20831211169337333
-0.0006215624999999997,0.20864781288801482
-0.0006203125000000002,0.20931921527729744
-0.0006190624999999998,0.20898351408265628
-0.0006178124999999994,0.20931921527729744
-0.0006165624999999999,0.20864781288801482
-0.0006153124999999995,0.2099906176665805
-0.0006140625,0.2096549164719392
-0.0006128124999999996,0.2096549164719392
-0.0006115625000000001,0.20931921527729774
-0.0006103124999999997,0.20999061766658067
-0.0006090625000000002,0.20965491647193935
-0.0006078124999999998,0.20999061766658067
-0.0006065624999999995,0.21032631886122233
-0.0006053125,0.21066202005586362
-0.0006040624999999996,0.2109977212505051
-0.0006028125,0.21066202005586362
-0.0006015624999999997,0.21066202005586362
-0.0006003125000000002,0.21099772125050492
-0.0005990624999999998,0.2109977212505051
-0.0005978125000000003,0.21200482483442906
-0.0005965624999999999,0.21133342244514658
-0.0005953124999999995,0.21166912363978835
-0.0005940625,0.21234052602907097
-0.0005928124999999996,0.21166912363978804
-0.0005915625000000001,0.21234052602907097
-0.0005903124999999997,0.21166912363978804
-0.0005890625000000002,0.212676227223712
-0.0005878124999999998,0.21301192841835392
-0.0005865625000000003,0.2126762272237126
-0.0005853124999999999,0.21301192841835392
-0.0005840624999999995,0.2133476296129954
-0.0005828125,0.2133476296129954
-0.0005815624999999996,0.21401903200227834
-0.0005803125000000001,0.2133476296129954
-0.0005790624999999997,0.2143547331969198
-0.0005778125000000002,0.2140190320022785
-0.0005765624999999998,0.21401903200227834
-0.0005753124999999994,0.21368333080763716
-0.0005740624999999999,0.2143547331969198
-0.0005728124999999995,0.21401903200227881
-0.0005715625,0.21502613558620273
-0.0005703124999999996,0.21469043439156127
-0.0005690625000000001,0.21603323917012715
-0.0005678124999999997,0.2143547331969198
-0.0005665625000000002,0.21569753797548508
-0.0005653124999999998,0.2156975379754857
-0.0005640624999999995,0.2156975379754857
-0.0005628124999999999,0.2156975379754857
-0.0005615624999999996,0.21603323917012715
-0.0005603125,0.21603323917012715
-0.0005590624999999997,0.2163689403647686
-0.0005578125000000001,0.2160332391701273
-0.0005565624999999998,0.2163689403647686
-0.0005553125000000003,0.21670464155940994
-0.0005540624999999999,0.2163689403647686
-0.0005528124999999995,0.21636894036476922
-0.0005515625,0.2177117451433345
-0.0005503124999999996,0.21704034275405157
-0.0005490625000000001,0.21704034275405157
-0.0005478124999999997,0.21704034275405157
-0.0005465625000000002,0.21838314753261684
-0.0005453124999999998,0.2177117451433345
-0.0005440625000000003,0.21704034275405187
-0.0005428124999999999,0.21804744633797596
-0.0005415624999999995,0.21804744633797626
-0.0005403125,0.2187188487272589
-0.0005390624999999996,0.2187188487272589
-0.0005378125000000001,0.21838314753261745
-0.0005365624999999997,0.21838314753261745
-0.0005353125000000002,0.21838314753261745
-0.0005340624999999998,0.21838314753261745
-0.0005328124999999994,0.21905454992190038
-0.0005315624999999999,0.21905454992190038
-0.0005303124999999995,0.2193902511165417
-0.0005290625,0.21905454992190038
-0.0005278124999999996,0.21972595231118333
-0.0005265625000000001,0.21939025111654187
