RawData/acq0001.csv

#Digilent WaveForms Oscilloscope Acquisition
#Device Name: Discovery2
#Serial Number: SN:210321B282B2
#Date Time: 2026-05-20 12:12:24.963
#Sample rate: 800000Hz
#Samples: 8192
#Trigger: Source: Channel 1 Type: Edge Condition: Rising Level: 250 mV Hyst.: Auto HoldOff: 0 s
#Channel 1: Range: 200 mV/div Offset: 0 V Sample Mode: Average

Time (s),Channel 1 (V)
-0.00111875,-0.0004940313736212371
-0.0011174999999999996,0.00017737101566170366
-0.0011162499999999992,-0.00015833017897930873
-0.0011149999999999997,0.0008487734049446444
-0.0011137499999999993,-0.0008297325682627074
-0.0011124999999999998,0.00017737101566170366
-0.0011112499999999994,-0.0004940313736212371
-0.0011099999999999999,-0.00015833017897991936
-0.0011087499999999995,-0.0001583301789797667
-0.0011074999999999991,0.000513072210302716
-0.0011062499999999996,-0.0004940313736212371
-0.0011049999999999992,0.0005130722103030214
-0.0011037499999999997,0.00017737101566170366
-0.0011024999999999993,0.000513072210303174
-0.0011012499999999998,-0.0008297325682627074
-0.0010999999999999994,0.000513072210303174
-0.00109875,-0.0001583301789794614
-0.0010974999999999995,-0.0001583301789797667
-0.0010962499999999991,-0.00015833017897961404
-0.0010949999999999996,0.00017737101566170366
-0.0010937499999999992,0.00017737101566170366
-0.0010924999999999997,0.00017737101566170366
-0.0010912499999999993,-0.0001583301789797667
-0.0010899999999999998,0.000177371015661551
-0.0010887499999999994,-0.0001583301789797667
-0.0010875,0.0005130722103028687
-0.0010862499999999995,0.000513072210303174
-0.0010849999999999992,-0.0004940313736215424
-0.0010837499999999996,-0.0011654337629041778
-0.0010824999999999993,0.00017737101566170366
-0.0010812499999999997,-0.0004940313736212371
-0.0010799999999999994,0.000513072210303174
-0.0010787499999999998,0.0001773710156618563
-0.0010774999999999995,0.00017737101566170366
-0.00107625,-0.00015833017897961404
-0.0010749999999999996,-0.0001583301789797667
-0.0010737499999999992,-0.0001583301789794614
-0.0010724999999999997,0.000513072210303174
-0.0010712499999999993,-0.0004940313736212371
-0.0010699999999999998,-0.0004940313736212371
-0.0010687499999999994,-0.0001583301789797667
-0.0010674999999999999,0.0008487734049441864
-0.0010662499999999995,-0.0001583301789797667
-0.001064999999999999,-0.0004940313736212371
-0.0010637499999999996,-0.0004940313736212371
-0.0010624999999999992,0.001184474599585504
-0.0010612499999999997,-0.0001583301789797667
-0.0010599999999999993,0.00017737101566170366
-0.0010587499999999998,0.00017737101566170366
-0.0010574999999999994,-0.0001583301789797667
-0.00105625,-0.0001583301789797667
-0.0010549999999999995,0.00017737101566170366
-0.0010537499999999991,-0.0011654337629037198
-0.0010524999999999996,-0.0001583301789797667
-0.0010512499999999992,-0.0004940313736209317
-0.0010499999999999997,0.00017737101566170366
-0.0010487499999999993,-0.0004940313736212371
-0.0010474999999999998,-0.0008297325682625548
-0.0010462499999999994,0.00017737101566170366
-0.001045,-0.00015833017897961404
-0.0010437499999999995,-0.0001583301789797667
-0.0010424999999999992,0.0008487734049443391
-0.0010412499999999996,0.00017737101566170366
-0.0010399999999999993,-0.0001583301789797667
-0.0010387499999999997,-0.0001583301789797667
-0.0010374999999999994,-0.0001583301789797667
-0.0010362499999999998,0.0008487734049441864
-0.0010349999999999995,-0.0004940313736212371
-0.00103375,-0.00015833017897991936
-0.0010324999999999996,0.00017737101566170366
-0.0010312499999999992,0.000513072210302716
-0.0010299999999999997,-0.0004940313736212371
-0.0010287499999999993,0.00017737101566170366
-0.0010274999999999998,0.00017737101566170366
-0.0010262499999999994,0.00017737101566170366
-0.0010249999999999999,0.0005130722103030214
-0.0010237499999999995,0.00017737101566170366
-0.001022499999999999,0.00017737101566170366
-0.0010212499999999996,0.00017737101566170366
-0.0010199999999999992,0.00017737101566170366
-0.0010187499999999997,0.00017737101566170366
-0.0010174999999999993,-0.0008297325682627074
-0.0010162499999999998,-0.0001583301789797667
-0.0010149999999999994,-0.0001583301789797667
-0.00101375,0.0005130722103028687
-0.0010124999999999995,-0.0008297325682627074
-0.0010112499999999991,-0.0008297325682620968
-0.0010099999999999996,0.000513072210303174
-0.0010087499999999992,-0.0004940313736212371
-0.0010074999999999997,-0.0004940313736212371
-0.0010062499999999993,-0.0004940313736212371
-0.0010049999999999998,0.000513072210303174
-0.0010037499999999994,0.00017737101566170366
-0.0010025,0.0005130722103030214
-0.0010012499999999995,0.00017737101566170366
-0.0009999999999999992,0.00017737101566170366
-0.0009987499999999996,0.00017737101566170366
-0.0009974999999999993,-0.0004940313736212371
-0.0009962499999999997,-0.0001583301789797667
-0.0009949999999999994,0.00017737101566170366
-0.0009937499999999998,0.00017737101566170366
-0.0009924999999999995,-0.0001583301789797667
-0.00099125,0.000177371015661551
-0.0009899999999999996,0.00017737101566170366
-0.0009887499999999992,0.00017737101566170366
-0.0009874999999999997,0.00017737101566170366
-0.0009862499999999993,-0.0001583301789797667
-0.0009849999999999998,-0.0008297325682627074
-0.0009837499999999994,0.000513072210303174
-0.0009824999999999999,0.000513072210303174
-0.0009812499999999995,-0.0004940313736212371
-0.000979999999999999,0.00017737101566170366
-0.0009787499999999996,0.00017737101566170366
-0.0009774999999999992,0.000177371015661551
-0.0009762499999999997,-0.0001583301789797667
-0.0009749999999999993,-0.0004940313736212371
-0.0009737499999999998,0.0008487734049446444
-0.0009724999999999994,-0.0001583301789797667
-0.0009712499999999999,-0.0008297325682624021
-0.0009699999999999995,0.00017737101566170366
-0.0009687499999999991,0.0008487734049443391
-0.0009674999999999996,0.00017737101566170366
-0.0009662499999999992,-0.0004940313736210844
-0.0009649999999999997,-0.0001583301789797667
-0.0009637499999999993,-0.0001583301789797667
-0.0009624999999999998,0.00017737101566170366
-0.0009612499999999994,0.00017737101566170366
-0.0009599999999999999,-0.0004940313736209317
-0.0009587499999999995,0.0008487734049446444
-0.0009574999999999992,-0.00015833017897961404
-0.0009562499999999996,0.00017737101566170366
-0.0009549999999999993,-0.0001583301789797667
-0.0009537499999999997,-0.0004940313736212371
-0.0009524999999999994,-0.0001583301789797667
-0.0009512499999999998,0.000177371015661551
-0.0009499999999999995,0.000513072210303174
-0.0009487499999999999,-0.0011654337629034145
-0.0009474999999999996,0.00017737101566170366
-0.0009462499999999992,-0.00015833017897961404
-0.0009449999999999997,0.00017737101566170366
-0.0009437499999999993,-0.0008297325682627074
-0.0009424999999999998,0.00017737101566170366
-0.0009412499999999994,0.000513072210303174
-0.0009399999999999999,-0.0001583301789794614
-0.0009387499999999995,-0.0008297325682627074
-0.0009375,-0.000158330178980072
-0.0009362499999999996,-0.0001583301789797667
-0.0009349999999999992,0.0005130722103030214
-0.0009337499999999997,0.00017737101566170366
-0.0009324999999999993,-0.0001583301789797667
-0.0009312499999999998,-0.0004940313736212371
-0.0009299999999999994,-0.0001583301789797667
-0.0009287499999999999,0.0005130722103028687
-0.0009274999999999995,-0.0001583301789797667
-0.0009262499999999991,-0.00015833017897961404
-0.0009249999999999996,0.00017737101566170366
-0.0009237499999999992,-0.0001583301789797667
-0.0009224999999999997,-0.0001583301789797667
-0.0009212499999999993,0.00017737101566170366
-0.0009199999999999998,0.000513072210303174
-0.0009187499999999994,-0.0001583301789797667
-0.0009174999999999999,0.0005130722103028687
-0.0009162499999999995,-0.0004940313736212371
-0.0009149999999999991,0.00017737101566170366
-0.0009137499999999996,0.00017737101566170366
-0.0009124999999999992,-0.0004940313736210844
-0.0009112499999999997,-0.0001583301789797667
-0.0009099999999999994,-0.0004940313736212371
-0.0009087499999999998,0.00017737101566139835
-0.0009074999999999995,-0.0001583301789797667
-0.0009062499999999999,0.000177371015661551
-0.0009049999999999996,0.000513072210303174
-0.0009037499999999992,0.000177371015661551
-0.0009024999999999997,-0.0001583301789797667
-0.0009012499999999993,-0.0008297325682627074
-0.0008999999999999998,0.00017737101566170366
-0.0008987499999999994,-0.0001583301789797667
-0.0008974999999999999,0.0005130722103028687
-0.0008962499999999995,-0.0004940313736212371
-0.000895,-0.00015833017897991936
-0.0008937499999999996,-0.0001583301789797667
-0.0008924999999999992,0.0008487734049443391
-0.0008912499999999997,0.00017737101566170366
-0.0008899999999999993,-0.0001583301789797667
-0.0008887499999999998,0.00017737101566170366
-0.0008874999999999994,0.00017737101566170366
-0.0008862499999999999,-0.00015833017897961404
-0.0008849999999999995,-0.0001583301789797667
-0.0008837499999999991,-0.0015011349575450375
-0.0008824999999999996,-0.0001583301789797667
-0.0008812499999999992,-0.00015833017897930873
-0.0008799999999999997,0.0008487734049446444
-0.0008787499999999993,0.0008487734049446444
-0.0008774999999999998,0.000513072210303174
-0.0008762499999999994,-0.0001583301789797667
-0.0008749999999999999,-0.0004940313736210844
-0.0008737499999999995,0.00017737101566170366
-0.0008724999999999991,0.0001773710156618563
-0.0008712499999999996,0.000513072210303174
-0.0008699999999999992,0.000513072210303174
-0.0008687499999999997,0.000513072210303174
-0.0008674999999999993,-0.0004940313736212371
-0.0008662499999999998,-0.00015833017897991936
-0.0008649999999999994,-0.0004940313736212371
-0.0008637499999999999,0.00017737101566139835
-0.0008624999999999996,0.00017737101566170366
-0.0008612499999999992,-0.0001583301789794614
-0.0008599999999999997,0.000513072210303174
-0.0008587499999999993,0.00017737101566170366
-0.0008574999999999998,0.00017737101566170366
-0.0008562499999999994,0.00017737101566170366
-0.0008549999999999999,-0.00015833017897961404
-0.0008537499999999995,-0.0001583301789797667
-0.0008525,-0.0004940313736210844
-0.0008512499999999996,-0.0004940313736212371
-0.0008499999999999992,0.000513072210303174
-0.0008487499999999997,0.000513072210303174
-0.0008474999999999993,0.00017737101566170366
-0.0008462499999999998,0.000513072210303174
-0.0008449999999999994,0.00017737101566170366
-0.0008437499999999999,-0.00015833017897961404
-0.0008424999999999995,0.00017737101566170366
-0.0008412499999999991,-0.00015833017897961404
-0.0008399999999999996,0.00017737101566170366
-0.0008387499999999992,0.0008487734049441864
-0.0008374999999999997,-0.0001583301789797667
-0.0008362499999999993,-0.0004940313736212371
-0.0008349999999999998,0.00017737101566170366
-0.0008337499999999994,-0.0001583301789797667
-0.0008324999999999999,0.000177371015661551
-0.0008312499999999995,-0.0001583301789797667
-0.0008299999999999991,0.0008487734049444917
-0.0008287499999999996,0.000513072210303174
-0.0008274999999999992,-0.0008297325682624021
-0.0008262499999999997,-0.0001583301789797667
-0.0008249999999999993,-0.0008297325682627074
-0.0008237499999999998,0.0001773710156612457
-0.0008224999999999994,0.0011844745995861147
-0.0008212499999999999,0.00017737101566216162
-0.0008199999999999995,0.000513072210303174
-0.0008187499999999992,0.000177371015661551
-0.0008174999999999997,-0.0001583301789797667
-0.0008162499999999993,0.00017737101566170366
-0.0008149999999999998,0.00017737101566170366
-0.0008137499999999994,0.00017737101566170366
-0.0008124999999999999,0.00017737101566170366
-0.0008112499999999995,-0.0001583301789797667
-0.00081,-0.0001583301789797667
-0.0008087499999999996,0.000513072210303174
-0.0008074999999999992,0.00017737101566200897
-0.0008062499999999997,0.0008487734049446444
-0.0008049999999999993,-0.0001583301789797667
-0.0008037499999999998,-0.0004940313736212371
-0.0008024999999999994,-0.0011654337629041778
-0.0008012499999999999,-0.00015833017898022467
-0.0007999999999999995,0.000513072210303174
-0.0007987499999999991,0.0008487734049441864
-0.0007974999999999996,-0.0001583301789797667
-0.0007962499999999992,0.0001773710156618563
-0.0007949999999999997,0.000513072210303174
-0.0007937499999999993,0.00017737101566170366
-0.0007924999999999998,0.000513072210303174
-0.0007912499999999994,-0.0001583301789797667
-0.0007899999999999999,0.000177371015661551
-0.0007887499999999995,-0.0004940313736212371
-0.0007874999999999991,-0.0004940313736207791
-0.0007862499999999996,0.000513072210303174
-0.0007849999999999992,0.00017737101566139835
-0.0007837499999999997,-0.0004940313736212371
-0.0007824999999999993,-0.0004940313736212371
-0.0007812499999999998,0.00017737101566139835
-0.0007799999999999994,-0.0001583301789797667
-0.0007787499999999999,0.0008487734049441864
-0.0007774999999999995,0.0008487734049446444
-0.0007762499999999992,-0.0008297325682624021
-0.0007749999999999996,-0.0001583301789797667
-0.0007737499999999993,-0.0004940313736212371
-0.0007724999999999997,-0.0001583301789797667
-0.0007712499999999994,-0.0004940313736212371
-0.0007699999999999999,0.00017737101566139835
-0.0007687499999999995,0.000513072210303174
-0.0007675,-0.0001583301789794614
-0.0007662499999999996,0.00017737101566170366
-0.0007649999999999992,-0.00015833017897930873
-0.0007637499999999997,0.0008487734049446444
-0.0007624999999999993,-0.0001583301789797667
-0.0007612499999999998,-0.0008297325682627074
-0.0007599999999999994,0.000513072210303174
-0.0007587499999999999,-0.0001583301789794614
-0.0007574999999999995,0.00017737101566170366
-0.0007562499999999991,-0.00015833017897961404
-0.0007549999999999996,0.00017737101566170366
-0.0007537499999999992,0.0005130722103028687
-0.0007524999999999997,-0.0001583301789797667
-0.0007512499999999993,0.00017737101566170366
-0.0007499999999999998,-0.0001583301789797667
-0.0007487499999999994,-0.0001583301789797667
-0.0007474999999999999,0.0005130722103028687
-0.0007462499999999995,-0.0004940313736212371
-0.0007449999999999991,0.0005130722103030214
-0.0007437499999999996,0.00017737101566170366
-0.0007424999999999992,-0.0001583301789797667
-0.0007412499999999997,-0.0001583301789797667
-0.0007399999999999993,0.00017737101566170366
-0.0007387499999999998,0.00017737101566170366
-0.0007374999999999994,-0.0004940313736212371
-0.0007362499999999999,-0.0011654337629038725
-0.0007349999999999995,0.00017737101566170366
-0.0007337499999999992,-0.0001583301789797667
-0.0007324999999999996,-0.0001583301789797667
-0.0007312499999999993,0.000513072210303174
-0.0007299999999999997,-0.0001583301789797667
-0.0007287499999999994,0.00017737101566170366
-0.0007274999999999998,0.0005130722103030214
-0.0007262499999999995,-0.0008297325682627074
-0.000725,-0.0008297325682627074
-0.0007237499999999996,0.00017737101566170366
-0.0007224999999999992,-0.00015833017897991936
-0.0007212499999999997,-0.0004940313736212371
-0.0007199999999999993,-0.0001583301789797667
-0.0007187499999999998,0.0008487734049446444
-0.0007174999999999994,-0.0004940313736212371
-0.0007162499999999999,0.00017737101566139835
-0.0007149999999999995,-0.0004940313736212371
-0.0007137499999999991,-0.0004940313736210844
-0.0007124999999999996,-0.0001583301789797667
-0.0007112499999999992,0.0008487734049443391
-0.0007099999999999997,0.00017737101566170366
-0.0007087499999999993,-0.0001583301789797667
-0.0007074999999999998,0.0008487734049446444
-0.0007062499999999994,-0.0004940313736212371
-0.0007049999999999999,0.00017737101566139835
-0.0007037499999999995,-0.0008297325682627074
-0.0007024999999999991,0.000177371015661551
-0.0007012499999999996,-0.0001583301789797667
-0.0006999999999999992,0.0008487734049441864
-0.0006987499999999997,-0.0001583301789797667
-0.0006974999999999993,-0.0001583301789797667
-0.0006962499999999998,-0.0011654337629037198
-0.0006949999999999994,0.00017737101566170366
-0.0006937499999999999,0.00017737101566170366
-0.0006924999999999995,-0.0004940313736212371
-0.0006912499999999992,0.0005130722103030214
-0.0006899999999999996,0.00017737101566170366
-0.0006887499999999993,0.0008487734049446444
-0.0006874999999999997,0.000513072210303174
-0.0006862499999999994,-0.0004940313736212371
-0.0006849999999999998,-0.00015833017897991936
-0.0006837499999999995,0.00017737101566170366
-0.0006825,0.00017737101566170366
-0.0006812499999999996,0.00017737101566170366
-0.0006799999999999992,0.000513072210302716
-0.0006787499999999997,-0.0004940313736212371
-0.0006774999999999993,-0.0008297325682627074
-0.0006762499999999998,-0.0001583301789797667
-0.0006749999999999994,0.00017737101566170366
-0.0006737499999999999,0.00017737101566170366
-0.0006724999999999995,-0.0004940313736212371
-0.0006712499999999991,-0.00015833017897961404
-0.0006699999999999996,0.00017737101566170366
-0.0006687499999999992,0.000177371015661551
-0.0006674999999999997,-0.0001583301789797667
-0.0006662499999999993,-0.0004940313736212371
-0.0006649999999999998,0.00017737101566170366
-0.0006637499999999994,0.000513072210303174
-0.0006624999999999999,0.000513072210303174
-0.0006612499999999995,-0.0004940313736212371
-0.0006599999999999991,0.0001773710156618563
-0.0006587499999999996,0.000513072210303174
-0.0006574999999999992,0.00017737101566170366
-0.0006562499999999997,0.00017737101566170366
-0.0006549999999999993,-0.0001583301789797667
-0.0006537499999999998,-0.0001583301789797667
-0.0006524999999999994,-0.0008297325682627074
-0.0006512499999999999,-0.000158330178980072
-0.0006499999999999995,0.00017737101566170366
-0.0006487499999999992,-0.00015833017897991936
-0.0006474999999999996,-0.0004940313736212371
-0.0006462499999999993,0.0008487734049446444
-0.0006449999999999997,0.000513072210303174
-0.0006437499999999994,-0.0004940313736212371
-0.0006424999999999998,0.00017737101566139835
-0.0006412499999999995,0.00017737101566170366
-0.0006399999999999999,0.0008487734049443391
-0.0006387499999999996,0.00017737101566170366
-0.0006374999999999992,-0.0008297325682624021
-0.0006362499999999997,-0.0001583301789797667
-0.0006349999999999993,0.000513072210303174
-0.0006337499999999998,0.00017737101566170366
-0.0006324999999999994,0.00017737101566170366
-0.0006312499999999999,-0.0004940313736209317
-0.0006299999999999995,0.0008487734049446444
-0.0006287499999999991,-0.00015833017897961404
-0.0006274999999999996,0.00017737101566170366
-0.0006262499999999992,-0.0001583301789797667
-0.0006249999999999997,-0.0001583301789797667
-0.0006237499999999993,0.00017737101566170366
-0.0006224999999999998,-0.0001583301789797667
-0.0006212499999999994,-0.0001583301789797667
-0.0006199999999999999,-0.0001583301789797667
-0.0006187499999999995,-0.0001583301789797667
-0.0006174999999999991,-0.0001583301789794614
-0.0006162499999999996,0.000513072210303174
-0.0006149999999999992,-0.0004940313736206264
-0.0006137499999999997,0.0008487734049446444
-0.0006124999999999993,-0.0004940313736212371
-0.0006112499999999998,-0.0004940313736212371
-0.0006099999999999994,0.00017737101566170366
-0.0006087499999999999,-0.00015833017897961404
-0.0006074999999999995,0.00017737101566170366
-0.0006062499999999992,-0.0004940313736209317
-0.0006049999999999996,0.00017737101566170366
-0.0006037499999999993,-0.0001583301789797667
-0.0006024999999999997,0.000513072210303174
-0.0006012499999999994,-0.0001583301789797667
-0.0005999999999999998,-0.0001583301789797667
-0.0005987499999999995,0.00017737101566170366
-0.0005974999999999999,-0.0004940313736209317
-0.0005962499999999996,-0.0001583301789797667
-0.0005949999999999992,0.00017737101566216162
-0.0005937499999999997,0.0011844745995861147
-0.0005924999999999993,0.00017737101566170366
-0.0005912499999999998,0.00017737101566170366
-0.0005899999999999994,-0.0004940313736212371
-0.0005887499999999999,0.000513072210302716
-0.0005874999999999995,-0.0001583301789797667
-0.00058625,0.0005130722103028687
-0.0005849999999999996,-0.0011654337629041778
-0.0005837499999999992,-0.0011654337629035671
-0.0005824999999999997,0.00017737101566170366
-0.0005812499999999993,-0.0004940313736212371
-0.0005799999999999998,0.00017737101566170366
-0.0005787499999999994,0.00017737101566170366
-0.0005774999999999999,0.0005130722103030214
