RawData/acq0005.csv

#Digilent WaveForms Oscilloscope Acquisition
#Device Name: Discovery2
#Serial Number: SN:210321B282B2
#Date Time: 2026-05-20 12:12:39.465
#Sample rate: 800000Hz
#Samples: 8192
#Trigger: Source: Channel 1 Type: Edge Condition: Rising Level: 250 mV Hyst.: Auto HoldOff: 0 s
#Channel 1: Range: 200 mV/div Offset: 0 V Sample Mode: Average

Time (s),Channel 1 (V)
-0.0011196875,0.14016476918115484
-0.0011184374999999996,0.1418432751543622
-0.0011171874999999993,0.14150757395972044
-0.0011159374999999997,0.1408361715704378
-0.0011146874999999994,0.14117187276507925
-0.0011134374999999998,0.14217897634900367
-0.0011121874999999995,0.1418432751543622
-0.0011109375,0.14318607993292748
-0.0011096874999999996,0.1431860799329281
-0.0011084374999999992,0.14352178112756925
-0.0011071874999999997,0.1428503787382866
-0.0011059374999999993,0.14352178112756972
-0.0011046874999999998,0.14385748232221102
-0.0011034374999999994,0.14452888471149397
-0.0011021874999999999,0.14486458590613543
-0.0011009374999999995,0.14486458590613543
-0.0010996875,0.14520028710077676
-0.0010984374999999996,0.1452002871007769
-0.0010971874999999992,0.14553598829541867
-0.0010959374999999997,0.14620739068470132
-0.0010946874999999993,0.14620739068470162
-0.0010934374999999998,0.14687879307398427
-0.0010921874999999994,0.14654309187934278
-0.0010909375,0.14822159785254935
-0.0010896874999999995,0.14687879307398427
-0.0010884375,0.1475501954632669
-0.0010871874999999996,0.1475501954632672
-0.0010859374999999992,0.14822159785255043
-0.0010846874999999997,0.14889300024183308
-0.0010834374999999993,0.14822159785255012
-0.0010821874999999998,0.14889300024183308
-0.0010809374999999994,0.14889300024183308
-0.0010796875,0.14956440263111573
-0.0010784374999999995,0.14956440263111603
-0.0010771875,0.1492287014364747
-0.0010759374999999996,0.15023580502039896
-0.0010746874999999993,0.15023580502039896
-0.0010734374999999997,0.15023580502039896
-0.0010721874999999994,0.15057150621504042
-0.0010709374999999998,0.15124290860432338
-0.0010696874999999995,0.15124290860432338
-0.0010684375,0.1515786097989647
-0.0010671874999999996,0.15157860979896484
-0.0010659374999999992,0.15124290860432354
-0.0010646874999999997,0.15157860979896484
-0.0010634374999999993,0.15225001218824763
-0.0010621874999999998,0.1519143109936063
-0.0010609374999999994,0.15258571338288926
-0.0010596874999999999,0.15292141457753072
-0.0010584374999999995,0.15292141457753072
-0.0010571875,0.15292141457753072
-0.0010559374999999996,0.1532571157721722
-0.0010546874999999992,0.15392851816145497
-0.0010534374999999997,0.15359281696681365
-0.0010521874999999993,0.15459992055073807
-0.0010509374999999998,0.15459992055073807
-0.0010496874999999994,0.15493562174537956
-0.0010484374999999999,0.15459992055073823
-0.0010471874999999995,0.15459992055073807
-0.0010459375,0.15426421935609674
-0.0010446874999999996,0.15560702413466249
-0.0010434374999999992,0.15493562174537973
-0.0010421874999999997,0.15527132294002102
-0.0010409374999999993,0.1562784265239454
-0.0010396874999999998,0.15493562174537956
-0.0010384374999999994,0.1566141277185869
-0.0010371875,0.15627842652394558
-0.0010359374999999995,0.15694982891322837
-0.0010346875,0.1579569324971523
-0.0010334374999999996,0.15728553010786983
-0.0010321874999999993,0.15728553010786966
-0.0010309374999999997,0.15694982891322837
-0.0010296874999999994,0.15728553010786983
-0.0010284374999999998,0.15728553010786983
-0.0010271874999999995,0.15829263369179425
-0.0010259375,0.15896403608107687
-0.0010246874999999996,0.15829263369179425
-0.0010234374999999992,0.15829263369179425
-0.0010221874999999997,0.15829263369179425
-0.0010209374999999993,0.15862833488643618
-0.0010196874999999998,0.15963543847036013
-0.0010184374999999994,0.15896403608107718
-0.0010171874999999999,0.15963543847036013
-0.0010159374999999995,0.16064254205428455
-0.0010146875,0.1599711396650019
-0.0010134374999999996,0.1599711396650016
-0.0010121874999999992,0.16030684085964308
-0.0010109374999999997,0.16030684085964308
-0.0010096874999999993,0.1603068408596434
-0.0010084374999999998,0.160978243248926
-0.0010071874999999994,0.16164964563820894
-0.0010059374999999999,0.16131394444356748
-0.0010046874999999995,0.16131394444356748
-0.0010034375,0.16097824324892618
-0.0010021874999999996,0.16164964563820894
-0.0010009374999999992,0.16198534683285026
-0.0009996874999999997,0.16164964563820894
-0.0009984374999999993,0.16265674922213336
-0.0009971874999999998,0.1623210480274919
-0.0009959374999999994,0.1633281516114163
-0.0009946875,0.16232104802749237
-0.0009934374999999995,0.16265674922213336
-0.0009921875,0.163328151611416
-0.0009909374999999996,0.1633281516114163
-0.0009896874999999992,0.16366385280605777
-0.0009884374999999997,0.16366385280605777
-0.0009871874999999994,0.16500665758462366
-0.0009859374999999998,0.16399955400069924
-0.0009846874999999995,0.1646709563899822
-0.0009834375,0.1646709563899822
-0.0009821874999999996,0.16534235877926512
-0.0009809374999999992,0.1656780599739066
-0.0009796874999999997,0.1656780599739066
-0.0009784374999999993,0.16567805997390692
-0.0009771874999999998,0.16634946236318954
-0.0009759374999999994,0.166685163557831
-0.0009746874999999999,0.16634946236318954
-0.0009734374999999995,0.16601376116854807
-0.0009721875,0.16702086475247202
-0.0009709374999999996,0.16702086475247246
-0.0009696874999999992,0.16802796833639688
-0.0009684374999999997,0.16802796833639688
-0.0009671874999999993,0.16735656594711396
-0.0009659374999999998,0.16735656594711396
-0.0009646874999999994,0.16769226714175542
-0.0009634374999999999,0.1690350719203213
-0.0009621874999999995,0.1690350719203213
-0.0009609375,0.1690350719203213
-0.0009596874999999996,0.16970647430960423
-0.0009584374999999992,0.16970647430960406
-0.0009571874999999997,0.16937077311496276
-0.0009559374999999993,0.16970647430960423
-0.0009546874999999998,0.17071357789352865
-0.0009534374999999994,0.17104927908817014
-0.0009521874999999999,0.1707135778935288
-0.0009509374999999995,0.1713849802828116
-0.0009496875,0.1717206814774529
-0.0009484374999999996,0.17172068147745306
-0.0009471874999999992,0.17172068147745337
-0.0009459374999999997,0.172392083866736
-0.0009446874999999993,0.17172068147745306
-0.0009434374999999998,0.17272778506137748
-0.0009421874999999994,0.17272778506137748
-0.0009409374999999999,0.1733991874506601
-0.0009396874999999996,0.17272778506137748
-0.0009384375,0.1733991874506601
-0.0009371874999999997,0.1737348886453019
-0.0009359374999999993,0.17474199222922612
-0.0009346874999999998,0.17440629103458483
-0.0009334374999999994,0.17507769342386775
-0.0009321874999999999,0.17541339461850924
-0.0009309374999999995,0.17507769342386775
-0.0009296875,0.17541339461850908
-0.0009284374999999996,0.1757490958131507
-0.0009271874999999992,0.17642049820243366
-0.0009259374999999997,0.17642049820243366
-0.0009246874999999993,0.17742760178635758
-0.0009234374999999998,0.17642049820243366
-0.0009221874999999994,0.1770919005917166
-0.0009209374999999999,0.178099004175641
-0.0009196874999999995,0.17776330298099952
-0.0009184375,0.17776330298099952
-0.0009171874999999996,0.17843470537028247
-0.0009159374999999992,0.17809900417564117
-0.0009146874999999997,0.17843470537028247
-0.0009134374999999993,0.17944180895420672
-0.0009121874999999998,0.17910610775956542
-0.0009109374999999994,0.1794418089542069
-0.0009096874999999999,0.18044891253813083
-0.0009084374999999995,0.18044891253813128
-0.0009071875,0.18044891253813128
-0.0009059374999999996,0.18078461373277277
-0.0009046874999999992,0.18078461373277294
-0.0009034374999999997,0.18112031492741423
-0.0009021874999999993,0.1814560161220557
-0.0009009374999999998,0.18112031492741423
-0.0008996874999999994,0.1817917173166972
-0.0008984374999999999,0.1824631197059798
-0.0008971874999999995,0.18246311970598011
-0.0008959375,0.18279882090062144
-0.0008946874999999996,0.18347022328990453
-0.0008934374999999993,0.18347022328990484
-0.0008921874999999998,0.18414162567918746
-0.0008909374999999994,0.18347022328990453
-0.0008896874999999999,0.183805924484546
-0.0008884374999999995,0.183805924484546
-0.0008871875,0.18481302806846994
-0.0008859374999999996,0.1861558328470363
-0.0008846874999999992,0.18615583284703613
-0.0008834374999999997,0.1858201316523948
-0.0008821874999999993,0.1854844304577535
-0.0008809374999999998,0.1858201316523948
-0.0008796874999999994,0.18649153404167776
-0.0008784374999999999,0.1858201316523948
-0.0008771874999999995,0.18682723523631922
-0.0008759375,0.18716293643096055
-0.0008746874999999996,0.18749863762560218
-0.0008734374999999992,0.18749863762560218
-0.0008721874999999997,0.18749863762560218
-0.0008709374999999993,0.18884144240416806
-0.0008696874999999998,0.18884144240416806
-0.0008684374999999994,0.18884144240416806
-0.0008671874999999999,0.18850574120952673
-0.0008659374999999995,0.18917714359880952
-0.0008646875,0.18951284479345082
-0.0008634374999999996,0.18951284479345099
-0.0008621874999999992,0.18984854598809278
-0.0008609374999999997,0.1905199483773754
-0.0008596874999999993,0.19119135076665833
-0.0008584374999999998,0.19085564957201687
-0.0008571874999999994,0.19119135076665833
-0.0008559374999999999,0.190855649572017
-0.0008546874999999995,0.19152705196129982
-0.0008534375,0.1925341555452238
-0.0008521874999999996,0.19219845435058275
-0.0008509374999999993,0.19286985673986554
-0.0008496874999999997,0.19253415554522424
-0.0008484374999999994,0.1928698567398657
-0.0008471874999999999,0.1938769603237901
-0.0008459374999999995,0.19421266151843158
-0.0008446875,0.19387696032379026
-0.0008434374999999996,0.19421266151843158
-0.0008421874999999992,0.19454836271307288
-0.0008409374999999997,0.19421266151843158
-0.0008396874999999993,0.19488406390771468
-0.0008384374999999998,0.195219765102356
-0.0008371874999999994,0.1948840639077145
-0.0008359374999999999,0.19555546629699747
-0.0008346874999999995,0.1962268686862804
-0.0008334375,0.1965625698809217
-0.0008321874999999996,0.19656256988092186
-0.0008309374999999992,0.1975696734648461
-0.0008296874999999997,0.1972339722702048
-0.0008284374999999993,0.19723397227020512
-0.0008271874999999998,0.19790537465948776
-0.0008259374999999994,0.19790537465948776
-0.0008246874999999999,0.19756967346484644
-0.0008234374999999995,0.19924817943805362
-0.0008221875,0.19924817943805362
-0.0008209374999999996,0.1995838806326951
-0.0008196874999999992,0.19891247824341216
-0.0008184374999999997,0.19891247824341216
-0.0008171874999999993,0.20059098421661953
-0.0008159374999999998,0.19991958182733657
-0.0008146874999999994,0.20025528302197804
-0.0008134374999999999,0.20059098421661936
-0.0008121874999999995,0.20126238660590245
-0.0008109375,0.20059098421661983
-0.0008096874999999996,0.200926685411261
-0.0008084374999999993,0.2005909842166203
-0.0008071874999999997,0.20226949018982687
-0.0008059374999999994,0.20226949018982687
-0.0008046874999999998,0.20260519138446834
-0.0008034374999999995,0.20226949018982687
-0.0008021875,0.2029408925791095
-0.0008009374999999996,0.20394799616303422
-0.0007996874999999992,0.2039479961630339
-0.0007984374999999997,0.2032765937737513
-0.0007971874999999993,0.20361229496839292
-0.0007959374999999998,0.20394799616303422
-0.0007946874999999994,0.20495509974695864
-0.0007934374999999999,0.20495509974695864
-0.0007921874999999995,0.20495509974695864
-0.0007909375,0.2046193985523173
-0.0007896874999999996,0.20428369735767568
-0.0007884374999999992,0.20562650213624173
-0.0007871874999999997,0.20596220333088305
-0.0007859374999999993,0.20629790452552435
-0.0007846874999999998,0.20596220333088305
-0.0007834374999999994,0.20629790452552452
-0.0007821874999999999,0.20562650213624187
-0.0007809374999999995,0.2076407093040904
-0.0007796875,0.20730500810944907
-0.0007784374999999996,0.2073050081094489
-0.0007771874999999992,0.20696930691480775
-0.0007759374999999997,0.2076407093040904
-0.0007746874999999993,0.20797641049873186
-0.0007734374999999998,0.20797641049873186
-0.0007721874999999994,0.20898351408265628
-0.0007709374999999999,0.20898351408265628
-0.0007696874999999995,0.20864781288801482
-0.0007684375,0.20864781288801482
-0.0007671874999999996,0.20931921527729774
-0.0007659374999999993,0.2099906176665805
-0.0007646874999999997,0.2096549164719392
-0.0007634374999999994,0.2096549164719392
-0.0007621874999999998,0.2109977212505051
-0.0007609374999999995,0.2109977212505051
-0.0007596875,0.2113334224451464
-0.0007584374999999996,0.21032631886122216
-0.0007571874999999992,0.21133342244514675
-0.0007559374999999997,0.21166912363978804
-0.0007546874999999993,0.21200482483442934
-0.0007534374999999998,0.21166912363978804
-0.0007521874999999994,0.2120048248344295
-0.0007509374999999999,0.2120048248344295
-0.0007496874999999995,0.2120048248344295
-0.0007484375,0.2120048248344295
-0.0007471874999999996,0.21368333080763685
-0.0007459374999999992,0.2133476296129957
-0.0007446874999999997,0.21401903200227834
-0.0007434374999999993,0.2143547331969195
-0.0007421874999999998,0.21368333080763685
-0.0007409374999999994,0.21469043439156127
-0.0007396874999999999,0.21469043439156127
-0.0007384374999999995,0.21401903200227834
-0.0007371875,0.21502613558620226
-0.0007359374999999996,0.21502613558620273
-0.0007346874999999992,0.21469043439156157
-0.0007334374999999997,0.2153618367808442
-0.0007321874999999993,0.2156975379754857
-0.0007309374999999998,0.2156975379754857
-0.0007296874999999994,0.2156975379754857
-0.0007284374999999999,0.21670464155940966
-0.0007271874999999995,0.2163689403647686
-0.0007259375,0.21704034275405126
-0.0007246874999999996,0.2177117451433345
-0.0007234374999999993,0.2177117451433342
-0.0007221874999999997,0.21704034275405157
-0.0007209374999999994,0.21603323917012715
-0.0007196874999999998,0.21804744633797596
-0.0007184374999999995,0.21838314753261745
-0.0007171874999999999,0.21804744633797613
-0.0007159374999999996,0.21804744633797596
-0.0007146874999999992,0.21871884872725875
-0.0007134374999999997,0.21838314753261745
-0.0007121874999999993,0.21871884872725875
-0.0007109374999999998,0.21838314753261745
-0.0007096874999999994,0.21905454992190038
-0.0007084374999999999,0.21905454992190038
-0.0007071874999999995,0.21972595231118333
-0.0007059375,0.21939025111654203
-0.0007046874999999996,0.22039735470046626
-0.0007034374999999992,0.2200616535058251
-0.0007021874999999997,0.22073305589510772
-0.0007009374999999993,0.22039735470046656
-0.0006996874999999998,0.2210687570897492
-0.0006984374999999994,0.22073305589510772
-0.0006971874999999999,0.2217401594790317
-0.0006959374999999995,0.22174015947903214
-0.0006946875,0.22174015947903214
-0.0006934374999999996,0.2224115618683151
-0.0006921874999999992,0.22174015947903214
-0.0006909374999999997,0.22174015947903214
-0.0006896874999999993,0.22174015947903214
-0.0006884374999999998,0.22308296425759802
-0.0006871874999999994,0.22308296425759802
-0.0006859374999999999,0.22375436664688067
-0.0006846874999999995,0.22308296425759802
-0.0006834375,0.22308296425759802
-0.0006821874999999996,0.22375436664688098
-0.0006809374999999993,0.22308296425759833
-0.0006796874999999997,0.22375436664688098
-0.0006784374999999994,0.2244257690361639
-0.0006771874999999998,0.22409006784152244
-0.0006759374999999995,0.2244257690361639
-0.0006746874999999999,0.22375436664688128
-0.0006734374999999996,0.2247614702308054
-0.0006721874999999992,0.22476147023080556
-0.0006709374999999997,0.22509717142544686
-0.0006696874999999993,0.22543287262008815
-0.0006684374999999998,0.22509717142544686
-0.0006671874999999994,0.22543287262008832
-0.0006659374999999999,0.22543287262008832
-0.0006646874999999995,0.22576857381472978
-0.0006634375,0.22610427500937108
-0.0006621874999999996,0.22576857381472978
-0.0006609374999999992,0.22610427500937125
-0.0006596874999999997,0.22610427500937125
-0.0006584374999999993,0.22677567739865437
-0.0006571874999999998,0.22711137859329567
-0.0006559374999999994,0.22744707978793716
-0.0006546874999999999,0.2267756773986542
-0.0006534374999999995,0.22643997620401274
-0.0006521875,0.22643997620401274
-0.0006509374999999996,0.22744707978793716
-0.0006496874999999992,0.2281184821772196
-0.0006484374999999997,0.22711137859329567
-0.0006471874999999993,0.22778278098257862
-0.0006459374999999998,0.228789884566503
-0.0006446874999999994,0.22811848217722008
-0.0006434374999999999,0.2284541833718614
-0.0006421874999999995,0.22778278098257862
-0.0006409375,0.22811848217721992
-0.0006396874999999996,0.22845418337186155
-0.0006384374999999992,0.22878988456650318
-0.0006371874999999997,0.2291255857611445
-0.0006359374999999994,0.22845418337186155
-0.0006346874999999998,0.228789884566503
-0.0006334374999999995,0.2291255857611445
-0.0006321874999999999,0.22878988456650318
-0.0006309374999999996,0.22946128695578596
-0.0006296874999999992,0.22946128695578566
-0.0006284374999999997,0.228789884566503
-0.0006271874999999993,0.22878988456650348
-0.0006259374999999998,0.22979698815042743
-0.0006246874999999994,0.22946128695578596
-0.0006234374999999999,0.23046839053971038
-0.0006221874999999995,0.23080409173435185
-0.0006209375,0.23013268934506922
-0.0006196874999999996,0.23046839053971038
-0.0006184374999999992,0.22946128695578613
-0.0006171874999999997,0.22979698815042743
-0.0006159374999999993,0.22979698815042804
-0.0006146874999999998,0.2311397929289933
-0.0006134374999999994,0.23080409173435185
-0.0006121874999999999,0.22979698815042743
-0.0006109374999999995,0.23046839053971038
-0.0006096875,0.23013268934506909
-0.0006084374999999996,0.2311397929289933
-0.0006071874999999992,0.2301326893450694
-0.0006059374999999997,0.2311397929289933
-0.0006046874999999993,0.23046839053971038
-0.0006034374999999998,0.23013268934506892
-0.0006021874999999994,0.23080409173435185
-0.0006009374999999999,0.23113979292899317
-0.0005996874999999995,0.23080409173435185
-0.0005984375,0.23013268934506922
-0.0005971874999999996,0.23013268934506892
-0.0005959374999999992,0.2318111953182761
-0.0005946874999999997,0.23147549412363477
-0.0005934374999999993,0.2311397929289933
-0.0005921874999999998,0.23046839053971038
-0.0005909374999999994,0.23080409173435185
-0.0005896874999999999,0.23046839053971052
-0.0005884374999999996,0.23046839053971038
-0.0005871875,0.23046839053971038
-0.0005859374999999997,0.23147549412363477
-0.0005846874999999993,0.23113979292899314
-0.0005834374999999998,0.23080409173435185
-0.0005821874999999994,0.23013268934506892
-0.0005809374999999999,0.2311397929289933
-0.0005796874999999995,0.22979698815042743
-0.0005784375,0.2311397929289927
-0.0005771874999999996,0.23013268934506892
-0.0005759374999999992,0.23046839053971038
-0.0005746874999999997,0.23046839053971038
-0.0005734374999999993,0.23080409173435137
-0.0005721874999999998,0.22979698815042743
-0.0005709374999999994,0.22946128695578596
-0.0005696874999999999,0.23013268934506892
-0.0005684374999999995,0.22979698815042743
-0.0005671875,0.23046839053971008
-0.0005659374999999996,0.22979698815042743
-0.0005646874999999992,0.23013268934506861
-0.0005634374999999997,0.22946128695578596
-0.0005621874999999993,0.22946128695578596
-0.0005609374999999998,0.22946128695578596
-0.0005596874999999994,0.22946128695578596
-0.0005584374999999999,0.22979698815042726
-0.0005571874999999995,0.22979698815042743
-0.0005559375,0.23013268934506875
-0.0005546874999999996,0.22979698815042743
-0.0005534374999999992,0.2294612869557858
-0.0005521874999999997,0.2291255857611445
-0.0005509374999999993,0.22946128695578596
-0.0005496874999999998,0.228789884566503
-0.0005484374999999994,0.22845418337186155
-0.0005471874999999999,0.22878988456650284
-0.0005459374999999995,0.228789884566503
-0.0005446875,0.228789884566503
-0.0005434374999999997,0.22845418337186155
-0.0005421874999999993,0.22912558576114433
-0.0005409374999999998,0.228789884566503
-0.0005396874999999994,0.22711137859329567
-0.0005384374999999999,0.228789884566503
-0.0005371874999999995,0.22811848217722008
-0.0005359375,0.2284541833718614
-0.0005346874999999996,0.22811848217722008
-0.0005334374999999992,0.22811848217721978
-0.0005321874999999997,0.22744707978793716
