RawData/acq0020.csv

#Digilent WaveForms Oscilloscope Acquisition
#Device Name: Discovery2
#Serial Number: SN:210321B282B2
#Date Time: 2026-05-20 12:13:17.817
#Sample rate: 800000Hz
#Samples: 8192
#Trigger: Source: Channel 1 Type: Edge Condition: Rising Level: 250 mV Hyst.: Auto HoldOff: 0 s
#Channel 1: Range: 200 mV/div Offset: 0 V Sample Mode: Average

Time (s),Channel 1 (V)
-0.00111875,0.18246311970598011
-0.0011174999999999996,0.18279882090062158
-0.0011162499999999992,0.18313452209526287
-0.0011149999999999997,0.18279882090062158
-0.0011137499999999993,0.18313452209526304
-0.0011124999999999998,0.183805924484546
-0.0011112499999999994,0.18279882090062158
-0.0011099999999999999,0.18347022328990423
-0.0011087499999999995,0.183805924484546
-0.0011074999999999991,0.18347022328990484
-0.0011062499999999996,0.18414162567918746
-0.0011049999999999992,0.1834702232899053
-0.0011037499999999997,0.18514872926311188
-0.0011024999999999993,0.18447732687382895
-0.0011012499999999998,0.18514872926311188
-0.0010999999999999994,0.18514872926311188
-0.00109875,0.18447732687382926
-0.0010974999999999995,0.1858201316523948
-0.0010962499999999991,0.18514872926311235
-0.0010949999999999996,0.1861558328470363
-0.0010937499999999992,0.18582013165239528
-0.0010924999999999997,0.18682723523631922
-0.0010912499999999993,0.18682723523631922
-0.0010899999999999998,0.1861558328470366
-0.0010887499999999994,0.1858201316523948
-0.0010875,0.1871629364309601
-0.0010862499999999995,0.18649153404167776
-0.0010849999999999992,0.18682723523631953
-0.0010837499999999996,0.18749863762560218
-0.0010824999999999993,0.18649153404167776
-0.0010812499999999997,0.18682723523631922
-0.0010799999999999994,0.18783433882024364
-0.0010787499999999998,0.18682723523631967
-0.0010774999999999995,0.18783433882024364
-0.00107625,0.18783433882024364
-0.0010749999999999996,0.1881700400148851
-0.0010737499999999992,0.1878343388202438
-0.0010724999999999997,0.1881700400148851
-0.0010712499999999993,0.18884144240416806
-0.0010699999999999998,0.1881700400148851
-0.0010687499999999994,0.18884144240416806
-0.0010674999999999999,0.18884144240416806
-0.0010662499999999995,0.18984854598809248
-0.001064999999999999,0.18850574120952704
-0.0010637499999999996,0.18951284479345099
-0.0010624999999999992,0.19018424718273363
-0.0010612499999999997,0.18951284479345099
-0.0010599999999999993,0.1905199483773754
-0.0010587499999999998,0.18951284479345099
-0.0010574999999999994,0.18984854598809248
-0.00105625,0.1901842471827338
-0.0010549999999999995,0.19018424718273394
-0.0010537499999999991,0.1898485459880931
-0.0010524999999999996,0.19119135076665833
-0.0010512499999999992,0.19085564957201687
-0.0010499999999999997,0.19085564957201687
-0.0010487499999999993,0.19018424718273394
-0.0010474999999999998,0.19119135076665789
-0.0010462499999999994,0.19186275315594128
-0.001045,0.19186275315594128
-0.0010437499999999995,0.19219845435058275
-0.0010424999999999992,0.1911913507666585
-0.0010412499999999996,0.19152705196129982
-0.0010399999999999993,0.19186275315594128
-0.0010387499999999997,0.19219845435058275
-0.0010374999999999994,0.1928698567398657
-0.0010362499999999998,0.19219845435058305
-0.0010349999999999995,0.19219845435058275
-0.00103375,0.19253415554522407
-0.0010324999999999996,0.1928698567398657
-0.0010312499999999992,0.19253415554522454
-0.0010299999999999997,0.19320555793450717
-0.0010287499999999993,0.1928698567398657
-0.0010274999999999998,0.1938769603237901
-0.0010262499999999994,0.19320555793450717
-0.0010249999999999999,0.19421266151843114
-0.0010237499999999995,0.19354125912914863
-0.001022499999999999,0.19421266151843097
-0.0010212499999999996,0.1928698567398657
-0.0010199999999999992,0.19488406390771482
-0.0010187499999999997,0.19555546629699747
-0.0010174999999999993,0.195219765102356
-0.0010162499999999998,0.1948840639077145
-0.0010149999999999994,0.19421266151843158
-0.00101375,0.19555546629699685
-0.0010124999999999995,0.195219765102356
-0.0010112499999999991,0.19622686868627992
-0.0010099999999999996,0.195219765102356
-0.0010087499999999992,0.19589116749163893
-0.0010074999999999997,0.19589116749163893
-0.0010062499999999993,0.19589116749163893
-0.0010049999999999998,0.19555546629699747
-0.0010037499999999994,0.1962268686862804
-0.0010025,0.19555546629699777
-0.0010012499999999995,0.1972339722702048
-0.0009999999999999992,0.19589116749163954
-0.0009987499999999996,0.1972339722702048
-0.0009974999999999993,0.19589116749163893
-0.0009962499999999997,0.1972339722702048
-0.0009949999999999994,0.19756967346484627
-0.0009937499999999998,0.19756967346484627
-0.0009924999999999995,0.19824107585412923
-0.00099125,0.19756967346484658
-0.0009899999999999996,0.19824107585412923
-0.0009887499999999992,0.19824107585412923
-0.0009874999999999997,0.19824107585412923
-0.0009862499999999993,0.19824107585412923
-0.0009849999999999998,0.1985767770487707
-0.0009837499999999994,0.19790537465948776
-0.0009824999999999999,0.1985767770487704
-0.0009812499999999995,0.1985767770487707
-0.000979999999999999,0.19991958182733596
-0.0009787499999999996,0.1985767770487707
-0.0009774999999999992,0.19958388063269494
-0.0009762499999999997,0.19924817943805362
-0.0009749999999999993,0.1995838806326951
-0.0009737499999999998,0.19924817943805362
-0.0009724999999999994,0.20025528302197804
-0.0009712499999999999,0.1999195818273367
-0.0009699999999999995,0.19991958182733657
-0.0009687499999999991,0.20059098421661906
-0.0009674999999999996,0.1995838806326951
-0.0009662499999999992,0.20025528302197787
-0.0009649999999999997,0.19991958182733657
-0.0009637499999999993,0.1995838806326951
-0.0009624999999999998,0.200926685411261
-0.0009612499999999994,0.200926685411261
-0.0009599999999999999,0.200926685411261
-0.0009587499999999995,0.20126238660590245
-0.0009574999999999992,0.2012623866059023
-0.0009562499999999996,0.200926685411261
-0.0009549999999999993,0.20193378899518538
-0.0009537499999999997,0.20126238660590245
-0.0009524999999999994,0.20059098421661953
-0.0009512499999999998,0.20193378899518477
-0.0009499999999999995,0.20260519138446834
-0.0009487499999999999,0.2019337889951857
-0.0009474999999999996,0.20159808780054392
-0.0009462499999999992,0.20126238660590262
-0.0009449999999999997,0.20159808780054392
-0.0009437499999999993,0.20193378899518538
-0.0009424999999999998,0.20226949018982687
-0.0009412499999999994,0.20159808780054392
-0.0009399999999999999,0.20159808780054392
-0.0009387499999999995,0.20126238660590245
-0.0009375,0.20193378899518508
-0.0009362499999999996,0.200926685411261
-0.0009349999999999992,0.20059098421661922
-0.0009337499999999997,0.19991958182733657
-0.0009324999999999993,0.200926685411261
-0.0009312499999999998,0.20025528302197804
-0.0009299999999999994,0.19924817943805362
-0.0009287499999999999,0.19924817943805362
-0.0009274999999999995,0.19891247824341216
-0.0009262499999999991,0.19958388063269464
-0.0009249999999999996,0.1985767770487707
-0.0009237499999999992,0.198912478243412
-0.0009224999999999997,0.1985767770487707
-0.0009212499999999993,0.19689827107556335
-0.0009199999999999998,0.1972339722702048
-0.0009187499999999994,0.1972339722702048
-0.0009174999999999999,0.19656256988092216
-0.0009162499999999995,0.19689827107556335
-0.0009149999999999991,0.1962268686862801
-0.0009137499999999996,0.19555546629699747
-0.0009124999999999992,0.1955554662969973
-0.0009112499999999997,0.195219765102356
-0.0009099999999999994,0.19454836271307305
-0.0009087499999999998,0.19488406390771434
-0.0009074999999999995,0.19421266151843158
-0.0009062499999999999,0.19421266151843158
-0.0009049999999999996,0.19354125912914863
-0.0009037499999999992,0.1932055579345067
-0.0009024999999999997,0.19219845435058275
-0.0009012499999999993,0.19320555793450717
-0.0008999999999999998,0.19186275315594128
-0.0008987499999999994,0.19219845435058275
-0.0008974999999999999,0.19085564957201748
-0.0008962499999999995,0.19085564957201687
-0.000895,0.19119135076665816
-0.0008937499999999996,0.19018424718273394
-0.0008924999999999992,0.19018424718273377
-0.0008912499999999997,0.18984854598809248
-0.0008899999999999993,0.18917714359880952
-0.0008887499999999998,0.18850574120952657
-0.0008874999999999994,0.18884144240416806
-0.0008862499999999999,0.18783433882024408
-0.0008849999999999995,0.1881700400148851
-0.0008837499999999991,0.18783433882024334
-0.0008824999999999996,0.1871629364309607
-0.0008812499999999992,0.18716293643096055
-0.0008799999999999997,0.18682723523631922
-0.0008787499999999993,0.18682723523631922
-0.0008774999999999998,0.1861558328470363
-0.0008762499999999994,0.1858201316523948
-0.0008749999999999999,0.18514872926311218
-0.0008737499999999995,0.18514872926311188
-0.0008724999999999991,0.1848130280684701
-0.0008712499999999996,0.18414162567918746
-0.0008699999999999992,0.1841416256791873
-0.0008687499999999997,0.183805924484546
-0.0008674999999999993,0.183805924484546
-0.0008662499999999998,0.18313452209526335
-0.0008649999999999994,0.18313452209526304
-0.0008637499999999999,0.18212741851133912
-0.0008624999999999996,0.18246311970598011
-0.0008612499999999992,0.18112031492741423
-0.0008599999999999997,0.18112031492741423
-0.0008587499999999993,0.18078461373277277
-0.0008574999999999998,0.1817917173166972
-0.0008562499999999994,0.18078461373277277
-0.0008549999999999999,0.1794418089542075
-0.0008537499999999995,0.17977751014884835
-0.0008525,0.17944180895420703
-0.0008512499999999996,0.17977751014884835
-0.0008499999999999992,0.1787704065649241
-0.0008487499999999997,0.17910610775956542
-0.0008474999999999993,0.17742760178635805
-0.0008462499999999998,0.17742760178635805
-0.0008449999999999994,0.17776330298099952
-0.0008437499999999999,0.1770919005917169
-0.0008424999999999995,0.17608479700779217
-0.0008412499999999991,0.17709190059171642
-0.0008399999999999996,0.17675619939707513
-0.0008387499999999992,0.17507769342386792
-0.0008374999999999997,0.17541339461850924
-0.0008362499999999993,0.17507769342386775
-0.0008349999999999998,0.17507769342386775
-0.0008337499999999994,0.17407058983994336
-0.0008324999999999999,0.17407058983994336
-0.0008312499999999995,0.1737348886453019
-0.0008299999999999991,0.1740705898399429
-0.0008287499999999996,0.17306348625601894
-0.0008274999999999992,0.17239208386673616
-0.0008262499999999997,0.17272778506137748
-0.0008249999999999993,0.17272778506137748
-0.0008237499999999998,0.17239208386673616
-0.0008224999999999994,0.172392083866736
-0.0008212499999999999,0.17071357789352942
-0.0008199999999999995,0.17071357789352865
-0.0008187499999999992,0.17104927908816966
-0.0008174999999999997,0.17004217550424572
-0.0008162499999999993,0.17037787669888718
-0.0008149999999999998,0.17037787669888718
-0.0008137499999999994,0.16970647430960423
-0.0008124999999999999,0.1693707731149629
-0.0008112499999999995,0.16937077311496276
-0.00081,0.16903507192032147
-0.0008087499999999996,0.16735656594711396
-0.0008074999999999992,0.1673565659471138
-0.0008062499999999997,0.16702086475247246
-0.0008049999999999993,0.16836366953103837
-0.0008037499999999998,0.16702086475247246
-0.0008024999999999994,0.16634946236318954
-0.0008012499999999999,0.16634946236318954
-0.0007999999999999995,0.16601376116854807
-0.0007987499999999991,0.16567805997390678
-0.0007974999999999996,0.16601376116854807
-0.0007962499999999992,0.165678059973906
-0.0007949999999999997,0.1643352551953407
-0.0007937499999999993,0.1646709563899822
-0.0007924999999999998,0.1646709563899822
-0.0007912499999999994,0.16366385280605777
-0.0007899999999999999,0.16366385280605777
-0.0007887499999999995,0.1623210480274919
-0.0007874999999999991,0.16332815161141614
-0.0007862499999999996,0.16299245041677485
-0.0007849999999999992,0.1623210480274925
-0.0007837499999999997,0.16366385280605777
-0.0007824999999999993,0.16265674922213336
-0.0007812499999999998,0.16265674922213336
-0.0007799999999999994,0.16299245041677485
-0.0007787499999999999,0.16265674922213352
-0.0007774999999999995,0.16299245041677485
-0.0007762499999999992,0.16332815161141662
-0.0007749999999999996,0.16399955400069924
-0.0007737499999999993,0.16399955400069924
-0.0007724999999999997,0.1623210480274919
-0.0007712499999999994,0.1633281516114163
-0.0007699999999999999,0.1633281516114163
-0.0007687499999999995,0.1643352551953407
-0.0007675,0.1643352551953407
-0.0007662499999999996,0.1643352551953407
-0.0007649999999999992,0.16500665758462366
-0.0007637499999999997,0.16500665758462366
-0.0007624999999999993,0.16500665758462366
-0.0007612499999999998,0.16500665758462366
-0.0007599999999999994,0.1656780599739066
-0.0007587499999999999,0.16534235877926529
-0.0007574999999999995,0.16601376116854807
-0.0007562499999999991,0.166685163557831
-0.0007549999999999996,0.166685163557831
-0.0007537499999999992,0.166685163557831
-0.0007524999999999997,0.166685163557831
-0.0007512499999999993,0.16769226714175542
-0.0007499999999999998,0.16735656594711396
-0.0007487499999999994,0.16769226714175542
-0.0007474999999999999,0.16769226714175542
-0.0007462499999999995,0.16869937072567984
-0.0007449999999999991,0.16836366953103885
-0.0007437499999999996,0.16937077311496276
-0.0007424999999999992,0.16903507192032113
-0.0007412499999999997,0.16869937072567984
-0.0007399999999999993,0.16970647430960423
-0.0007387499999999998,0.17037787669888688
-0.0007374999999999994,0.17004217550424572
-0.0007362499999999999,0.1710492790881697
-0.0007349999999999995,0.17037787669888718
-0.0007337499999999992,0.17104927908817044
-0.0007324999999999996,0.17172068147745306
-0.0007312499999999993,0.1713849802828116
-0.0007299999999999997,0.17172068147745306
-0.0007287499999999994,0.1713849802828116
-0.0007274999999999998,0.1717206814774529
-0.0007262499999999995,0.17272778506137748
-0.000725,0.17205638267209483
-0.0007237499999999996,0.172392083866736
-0.0007224999999999992,0.17373488864530207
-0.0007212499999999997,0.17407058983994336
-0.0007199999999999993,0.1737348886453019
-0.0007187499999999998,0.17507769342386775
-0.0007174999999999994,0.17440629103458483
-0.0007162499999999999,0.1737348886453022
-0.0007149999999999995,0.17541339461850924
-0.0007137499999999991,0.17541339461850908
-0.0007124999999999996,0.17507769342386775
-0.0007112499999999992,0.17574909581315054
-0.0007099999999999997,0.17541339461850924
-0.0007087499999999993,0.17608479700779217
-0.0007074999999999998,0.17642049820243366
-0.0007062499999999994,0.1770919005917166
-0.0007049999999999999,0.17642049820243397
-0.0007037499999999995,0.178099004175641
-0.0007024999999999991,0.17776330298099952
-0.0007012499999999996,0.17776330298099952
-0.0006999999999999992,0.17742760178635836
-0.0006987499999999997,0.178099004175641
-0.0006974999999999993,0.178099004175641
-0.0006962499999999998,0.17843470537028233
-0.0006949999999999994,0.17910610775956542
-0.0006937499999999999,0.17910610775956542
-0.0006924999999999995,0.17977751014884835
-0.0006912499999999992,0.17910610775956573
-0.0006899999999999996,0.17977751014884835
-0.0006887499999999993,0.18078461373277277
-0.0006874999999999997,0.18044891253813128
-0.0006862499999999994,0.18044891253813128
-0.0006849999999999998,0.1807846137327726
-0.0006837499999999995,0.18078461373277277
-0.0006825,0.18179171731669674
-0.0006812499999999996,0.18112031492741423
-0.0006799999999999992,0.18212741851133848
-0.0006787499999999997,0.1817917173166972
-0.0006774999999999993,0.18212741851133865
-0.0006762499999999998,0.1817917173166972
-0.0006749999999999994,0.18279882090062158
-0.0006737499999999999,0.18313452209526287
-0.0006724999999999995,0.18313452209526304
-0.0006712499999999991,0.18313452209526365
-0.0006699999999999996,0.18447732687382895
-0.0006687499999999992,0.1834702232899047
-0.0006674999999999997,0.183805924484546
-0.0006662499999999993,0.18414162567918746
-0.0006649999999999998,0.18548443045775334
-0.0006637499999999994,0.18347022328990453
-0.0006624999999999999,0.1848130280684698
-0.0006612499999999995,0.18447732687382895
-0.0006599999999999991,0.18514872926311235
-0.0006587499999999996,0.1861558328470363
-0.0006574999999999992,0.1864915340416776
-0.0006562499999999997,0.1861558328470363
-0.0006549999999999993,0.1858201316523948
-0.0006537499999999998,0.18682723523631922
-0.0006524999999999994,0.1871629364309607
-0.0006512499999999999,0.18615583284703674
-0.0006499999999999995,0.18649153404167776
-0.0006487499999999992,0.1871629364309607
-0.0006474999999999996,0.1871629364309607
-0.0006462499999999993,0.18783433882024364
-0.0006449999999999997,0.18783433882024364
-0.0006437499999999994,0.18749863762560218
-0.0006424999999999998,0.18783433882024347
-0.0006412499999999995,0.1881700400148851
-0.0006399999999999999,0.18917714359880905
-0.0006387499999999996,0.18917714359880952
-0.0006374999999999992,0.1891771435988097
-0.0006362499999999997,0.18951284479345099
-0.0006349999999999993,0.18951284479345099
-0.0006337499999999998,0.18917714359880952
-0.0006324999999999994,0.18984854598809248
-0.0006312499999999999,0.19119135076665772
-0.0006299999999999995,0.19119135076665833
-0.0006287499999999991,0.19051994837737557
-0.0006274999999999996,0.19085564957201687
-0.0006262499999999992,0.1905199483773754
-0.0006249999999999997,0.1905199483773754
-0.0006237499999999993,0.19152705196129982
-0.0006224999999999998,0.19219845435058275
-0.0006212499999999994,0.19219845435058275
-0.0006199999999999999,0.19152705196130013
-0.0006187499999999995,0.19219845435058275
-0.0006174999999999991,0.1928698567398654
-0.0006162499999999996,0.19219845435058275
-0.0006149999999999992,0.19354125912914863
-0.0006137499999999997,0.19354125912914863
-0.0006124999999999993,0.19320555793450717
-0.0006112499999999998,0.1928698567398657
-0.0006099999999999994,0.19354125912914863
-0.0006087499999999999,0.19354125912914863
-0.0006074999999999995,0.19454836271307305
-0.0006062499999999992,0.1942126615184319
-0.0006049999999999996,0.1948840639077145
-0.0006037499999999993,0.19421266151843158
-0.0006024999999999997,0.19454836271307305
-0.0006012499999999994,0.1948840639077145
-0.0005999999999999998,0.19521976510235584
-0.0005987499999999995,0.1962268686862804
-0.0005974999999999999,0.1945483627130738
-0.0005962499999999996,0.19589116749163893
-0.0005949999999999992,0.19589116749163923
-0.0005937499999999997,0.19656256988092186
-0.0005924999999999993,0.1962268686862804
-0.0005912499999999998,0.19656256988092186
-0.0005899999999999994,0.19656256988092186
-0.0005887499999999999,0.19656256988092186
-0.0005874999999999995,0.1972339722702048
-0.00058625,0.1968982710755635
-0.0005849999999999996,0.19756967346484627
-0.0005837499999999992,0.1975696734648461
-0.0005824999999999997,0.1972339722702048
-0.0005812499999999993,0.19790537465948776
-0.0005799999999999998,0.19824107585412923
-0.0005787499999999994,0.19790537465948776
-0.0005774999999999999,0.19891247824341168
-0.0005762499999999995,0.19924817943805362
-0.0005749999999999991,0.19891247824341232
-0.0005737499999999996,0.19924817943805362
-0.0005724999999999992,0.1995838806326951
-0.0005712499999999997,0.1995838806326951
-0.0005699999999999993,0.19991958182733657
-0.0005687499999999998,0.20059098421661953
-0.0005674999999999994,0.19924817943805362
-0.0005662499999999999,0.2002552830219776
-0.0005649999999999995,0.19991958182733657
-0.0005637499999999991,0.20025528302197834
-0.0005624999999999996,0.200926685411261
-0.0005612499999999992,0.20059098421662
-0.0005599999999999997,0.20159808780054392
-0.0005587499999999994,0.20126238660590245
-0.0005574999999999998,0.20059098421661983
-0.0005562499999999995,0.200926685411261
-0.0005549999999999999,0.20193378899518494
-0.0005537499999999996,0.2029408925791098
-0.0005524999999999992,0.20226949018982657
-0.0005512499999999997,0.20159808780054392
-0.0005499999999999993,0.2029408925791098
-0.0005487499999999998,0.20260519138446834
-0.0005474999999999994,0.2032765937737513
-0.0005462499999999999,0.20226949018982732
-0.0005449999999999995,0.2029408925791098
-0.00054375,0.20327659377375112
-0.0005424999999999996,0.20361229496839275
-0.0005412499999999992,0.20327659377375146
-0.0005399999999999997,0.20361229496839275
-0.0005387499999999993,0.20361229496839275
