RawData/acq0011.csv

#Digilent WaveForms Oscilloscope Acquisition
#Device Name: Discovery2
#Serial Number: SN:210321B282B2
#Date Time: 2026-05-20 12:12:54.841
#Sample rate: 800000Hz
#Samples: 8192
#Trigger: Source: Channel 1 Type: Edge Condition: Rising Level: 250 mV Hyst.: Auto HoldOff: 0 s
#Channel 1: Range: 200 mV/div Offset: 0 V Sample Mode: Average

Time (s),Channel 1 (V)
-0.00111875,-0.04950640579127591
-0.0011174999999999996,-0.04984210698591738
-0.0011162499999999992,-0.049170704596634134
-0.0011149999999999997,-0.0484993022073515
-0.0011137499999999993,-0.04883500340199297
-0.0011124999999999998,-0.04917070459663444
-0.0011112499999999994,-0.04883500340199297
-0.0011099999999999999,-0.04816360101271033
-0.0011087499999999995,-0.04816360101271003
-0.0011074999999999991,-0.04917070459663398
-0.0011062499999999996,-0.04816360101271003
-0.0011049999999999992,-0.048499302207351346
-0.0011037499999999997,-0.04816360101271003
-0.0011024999999999993,-0.04782789981806856
-0.0011012499999999998,-0.04749219862342709
-0.0010999999999999994,-0.04715649742878562
-0.00109875,-0.047492198623426934
-0.0010974999999999995,-0.04749219862342709
-0.0010962499999999991,-0.046820796234143994
-0.0010949999999999996,-0.046485095039502676
-0.0010937499999999992,-0.04715649742878531
-0.0010924999999999997,-0.046485095039502676
-0.0010912499999999993,-0.046820796234144146
-0.0010899999999999998,-0.04648509503950283
-0.0010887499999999994,-0.046149393844861206
-0.0010875,-0.046149393844861206
-0.0010862499999999995,-0.046485095039502676
-0.0010849999999999992,-0.04581369265021989
-0.0010837499999999996,-0.046149393844861206
-0.0010824999999999993,-0.046820796234144146
-0.0010812499999999997,-0.044470887871653854
-0.0010799999999999994,-0.045477991455578265
-0.0010787499999999998,-0.045477991455578265
-0.0010774999999999995,-0.045477991455578265
-0.00107625,-0.04480658906629563
-0.0010749999999999996,-0.044470887871653854
-0.0010737499999999992,-0.044806589066295324
-0.0010724999999999997,-0.044806589066295324
-0.0010712499999999993,-0.044806589066295324
-0.0010699999999999998,-0.044135186677012384
-0.0010687499999999994,-0.044470887871653854
-0.0010674999999999999,-0.044135186677012536
-0.0010662499999999995,-0.044806589066295324
-0.001064999999999999,-0.042792381898446655
-0.0010637499999999996,-0.04312808309308797
-0.0010624999999999992,-0.043463784287729595
-0.0010612499999999997,-0.04379948548237091
-0.0010599999999999993,-0.044135186677012384
-0.0010587499999999998,-0.04346378428772944
-0.0010574999999999994,-0.04245668070380503
-0.00105625,-0.04312808309308767
-0.0010549999999999995,-0.04245668070380503
-0.0010537499999999991,-0.04312808309308782
-0.0010524999999999996,-0.0427923818984465
-0.0010512499999999992,-0.04178527831452209
-0.0010499999999999997,-0.04178527831452209
-0.0010487499999999993,-0.04245668070380503
-0.0010474999999999998,-0.041785278314522396
-0.0010462499999999994,-0.0427923818984465
-0.001045,-0.04178527831452255
-0.0010437499999999995,-0.04144957711988062
-0.0010424999999999992,-0.04144957711988047
-0.0010412499999999996,-0.04111387592523915
-0.0010399999999999993,-0.04111387592523915
-0.0010387499999999997,-0.04077817473059768
-0.0010374999999999994,-0.04077817473059768
-0.0010362499999999998,-0.04044247353595636
-0.0010349999999999995,-0.04077817473059768
-0.00103375,-0.041113875925239
-0.0010324999999999996,-0.04044247353595621
-0.0010312499999999992,-0.03909966875739033
-0.0010299999999999997,-0.03909966875739033
-0.0010287499999999993,-0.03977107114667327
-0.0010274999999999998,-0.04010677234131474
-0.0010262499999999994,-0.03977107114667327
-0.0010249999999999999,-0.03909966875739063
-0.0010237499999999995,-0.03909966875739033
-0.001022499999999999,-0.03909966875739033
-0.0010212499999999996,-0.03909966875739033
-0.0010199999999999992,-0.03876396756274901
-0.0010187499999999997,-0.03909966875739033
-0.0010174999999999993,-0.03842826636810739
-0.0010162499999999998,-0.03842826636810739
-0.0010149999999999994,-0.03809256517346592
-0.00101375,-0.03876396756274855
-0.0010124999999999995,-0.03775686397882445
-0.0010112499999999991,-0.03809256517346607
-0.0010099999999999996,-0.03842826636810739
-0.0010087499999999992,-0.036749760394900494
-0.0010074999999999997,-0.03775686397882445
-0.0010062499999999993,-0.036414059200258565
-0.0010049999999999998,-0.03809256517346592
-0.0010037499999999994,-0.037085461589541506
-0.0010025,-0.03674976039490019
-0.0010012499999999995,-0.036749760394900036
-0.0009999999999999992,-0.03674976039489973
-0.0009987499999999996,-0.036078358005617095
-0.0009974999999999993,-0.036078358005617095
-0.0009962499999999997,-0.036078358005617095
-0.0009949999999999994,-0.036078358005617095
-0.0009937499999999998,-0.03507125442169314
-0.0009924999999999995,-0.035071254421692684
-0.00099125,-0.03574265681097532
-0.0009899999999999996,-0.035071254421692684
-0.0009887499999999992,-0.03507125442169238
-0.0009874999999999997,-0.03439985203240974
-0.0009862499999999993,-0.035071254421692684
-0.0009849999999999998,-0.0337284496431268
-0.0009837499999999994,-0.03439985203240974
-0.0009824999999999999,-0.034064150837768425
-0.0009812499999999995,-0.03406415083776827
-0.000979999999999999,-0.034399852032409285
-0.0009787499999999996,-0.03339274844848533
-0.0009774999999999992,-0.033057047253844014
-0.0009762499999999997,-0.03339274844848533
-0.0009749999999999993,-0.0337284496431268
-0.0009737499999999998,-0.0337284496431268
-0.0009724999999999994,-0.03339274844848533
-0.0009712499999999999,-0.03238564486456138
-0.0009699999999999995,-0.03204994366991945
-0.0009687499999999991,-0.033057047253843404
-0.0009674999999999996,-0.03204994366991945
-0.0009662499999999992,-0.0320499436699196
-0.0009649999999999997,-0.03238564486456092
-0.0009637499999999993,-0.03171424247527798
-0.0009624999999999998,-0.03104284008599504
-0.0009612499999999994,-0.03070713889135357
-0.0009599999999999999,-0.03171424247527752
-0.0009587499999999995,-0.03137854128063651
-0.0009574999999999992,-0.031042840085994734
-0.0009562499999999996,-0.0303714376967121
-0.0009549999999999993,-0.0303714376967121
-0.0009537499999999997,-0.03070713889135357
-0.0009524999999999994,-0.029700035307429158
-0.0009512499999999998,-0.029700035307429158
-0.0009499999999999995,-0.029700035307429158
-0.0009487499999999999,-0.029028632918146523
-0.0009474999999999996,-0.029028632918146217
-0.0009462499999999992,-0.029028632918146523
-0.0009449999999999997,-0.029700035307429158
-0.0009437499999999993,-0.028357230528863277
-0.0009424999999999998,-0.028357230528863277
-0.0009412499999999994,-0.028357230528863277
-0.0009399999999999999,-0.028357230528863277
-0.0009387499999999995,-0.028357230528863277
-0.0009375,-0.02802152933422196
-0.0009362499999999996,-0.026678724555655925
-0.0009349999999999992,-0.02701442575029709
-0.0009337499999999997,-0.026343023361014455
-0.0009324999999999993,-0.027350126944938866
-0.0009312499999999998,-0.027014425750297395
-0.0009299999999999994,-0.026007322166372984
-0.0009287499999999999,-0.025671620971731667
-0.0009274999999999995,-0.026007322166372984
-0.0009262499999999991,-0.02600732216637283
-0.0009249999999999996,-0.025671620971731514
-0.0009237499999999992,-0.025335919777090044
-0.0009224999999999997,-0.025335919777090044
-0.0009212499999999993,-0.024664517387807103
-0.0009199999999999998,-0.024664517387807103
-0.0009187499999999994,-0.025000218582448573
-0.0009174999999999999,-0.025000218582448573
-0.0009162499999999995,-0.02298601141459975
-0.0009149999999999991,-0.023657413803882844
-0.0009137499999999996,-0.023993114998524162
-0.0009124999999999992,-0.02365741380388254
-0.0009112499999999997,-0.02332171260924122
-0.0009099999999999994,-0.02365741380388269
-0.0009087499999999998,-0.02265031021995874
-0.0009074999999999995,-0.02164320663603387
-0.0009062499999999999,-0.022650310219957823
-0.0009049999999999996,-0.02265031021995828
-0.0009037499999999992,-0.02197890783067534
-0.0009024999999999997,-0.02197890783067534
-0.0009012499999999993,-0.02063610305210946
-0.0008999999999999998,-0.02265031021995828
-0.0008987499999999994,-0.02164320663603387
-0.0008974999999999999,-0.020971804246751234
-0.0008962499999999995,-0.02164320663603387
-0.000895,-0.0203004018574686
-0.0008937499999999996,-0.020300401857467988
-0.0008924999999999992,-0.019628999468184895
-0.0008912499999999997,-0.019293298273543577
-0.0008899999999999993,-0.019628999468185047
-0.0008887499999999998,-0.019628999468185047
-0.0008874999999999994,-0.018957597078902107
-0.0008862499999999999,-0.01862189588426079
-0.0008849999999999995,-0.018621895884260636
-0.0008837499999999991,-0.017950493494977696
-0.0008824999999999996,-0.017950493494977696
-0.0008812499999999992,-0.018621895884260026
-0.0008799999999999997,-0.017279091105694755
-0.0008787499999999993,-0.017279091105694755
-0.0008774999999999998,-0.017279091105694755
-0.0008762499999999994,-0.017614792300336225
-0.0008749999999999999,-0.01694338991105359
-0.0008737499999999995,-0.015600585132487403
-0.0008724999999999991,-0.01660768871641166
-0.0008712499999999996,-0.016271987521770344
-0.0008699999999999992,-0.016271987521769886
-0.0008687499999999997,-0.015264883937845933
-0.0008674999999999993,-0.014929182743204462
-0.0008662499999999998,-0.014929182743204462
-0.0008649999999999994,-0.014593481548562992
-0.0008637499999999999,-0.01492918274320431
-0.0008624999999999996,-0.014257780353921522
-0.0008612499999999992,-0.013922079159280051
-0.0008599999999999997,-0.013922079159280051
-0.0008587499999999993,-0.013922079159280051
-0.0008574999999999998,-0.01325067676999711
-0.0008562499999999994,-0.013586377964638581
-0.0008549999999999999,-0.011907871991431992
-0.0008537499999999995,-0.01291497557535564
-0.0008525,-0.013250676769996958
-0.0008512499999999996,-0.01190787199143123
-0.0008499999999999992,-0.012243573186072547
-0.0008487499999999997,-0.01190787199143123
-0.0008474999999999993,-0.011572170796789759
-0.0008462499999999998,-0.011572170796789759
-0.0008449999999999994,-0.010565067212865348
-0.0008437499999999999,-0.010565067212865348
-0.0008424999999999995,-0.009893664823582407
-0.0008412499999999991,-0.010565067212865348
-0.0008399999999999996,-0.010565067212865348
-0.0008387499999999992,-0.009222262434299619
-0.0008374999999999997,-0.009557963628940937
-0.0008362499999999993,-0.009222262434299466
-0.0008349999999999998,-0.009222262434299466
-0.0008337499999999994,-0.008550860045016526
-0.0008324999999999999,-0.008550860045016526
-0.0008312499999999995,-0.008215158850375055
-0.0008299999999999991,-0.008215158850375055
-0.0008287499999999996,-0.008215158850375055
-0.0008274999999999992,-0.007879457655733432
-0.0008262499999999997,-0.0075437564610921146
-0.0008249999999999993,-0.006872354071809174
-0.0008237499999999998,-0.007543756461091809
-0.0008224999999999994,-0.0065366528771677035
-0.0008212499999999999,-0.0065366528771677035
-0.0008199999999999995,-0.0065366528771677035
-0.0008187499999999992,-0.006872354071808258
-0.0008174999999999997,-0.004858146903960352
-0.0008162499999999993,-0.005865250487884763
-0.0008149999999999998,-0.005193848098601822
-0.0008137499999999994,-0.006200951682526233
-0.0008124999999999999,-0.004522445709319645
-0.0008112499999999995,-0.005193848098601822
-0.00081,-0.004186744514677869
-0.0008087499999999996,-0.005193848098601822
-0.0008074999999999992,-0.0035153421253943176
-0.0008062499999999997,-0.003179640930753
-0.0008049999999999993,-0.003179640930753
-0.0008037499999999998,-0.0035153421253944703
-0.0008024999999999994,-0.0028439397361115296
-0.0008012499999999999,-0.002172537346828894
-0.0007999999999999995,-0.002508238541470059
-0.0007987499999999991,-0.002172537346828894
-0.0007974999999999996,-0.0028439397361115296
-0.0007962499999999992,-0.0018368361521869658
-0.0007949999999999997,-0.0015011349575456481
-0.0007937499999999993,-0.0011654337629041778
-0.0007924999999999998,-0.0011654337629041778
-0.0007912499999999994,-0.0011654337629041778
-0.0007899999999999999,0.00017737101566109303
-0.0007887499999999995,-0.0004940313736212371
-0.0007874999999999991,-0.00015833017897991936
-0.0007862499999999996,-0.0004940313736212371
-0.0007849999999999992,0.000513072210303174
-0.0007837499999999997,0.000513072210303174
-0.0007824999999999993,0.0008487734049446444
-0.0007812499999999998,0.0008487734049446444
-0.0007799999999999994,0.0011844745995861147
-0.0007787499999999999,0.0015201757942274324
-0.0007774999999999995,0.002527279378151996
-0.0007762499999999992,0.0015201757942278904
-0.0007749999999999996,0.002191578183510526
-0.0007737499999999993,0.0028629805727934665
-0.0007724999999999997,0.0028629805727934665
-0.0007712499999999994,0.003198681767434937
-0.0007699999999999999,0.0038700841567175723
-0.0007687499999999995,0.0038700841567178776
-0.0007675,0.0028629805727939245
-0.0007662499999999996,0.003198681767434937
-0.0007649999999999992,0.004541486546000666
-0.0007637499999999997,0.004205785351359348
-0.0007624999999999993,0.005212888935283759
-0.0007612499999999998,0.004877187740642289
-0.0007599999999999994,0.005212888935283759
-0.0007587499999999999,0.004877187740642441
-0.0007574999999999995,0.005548590129925229
-0.0007562499999999991,0.005884291324566547
-0.0007549999999999996,0.005548590129925229
-0.0007537499999999992,0.006555693713849488
-0.0007524999999999997,0.00621999251920817
-0.0007512499999999993,0.0065556937138496404
-0.0007499999999999998,0.006891394908491111
-0.0007487499999999994,0.007898498492415522
-0.0007474999999999999,0.00823419968705684
-0.0007462499999999995,0.007898498492415522
-0.0007449999999999991,0.0072270961031328865
-0.0007437499999999996,0.007898498492415522
-0.0007424999999999992,0.008905602076340238
-0.0007412499999999997,0.009577004465622874
-0.0007399999999999993,0.009577004465622874
-0.0007387499999999998,0.00856990088169892
-0.0007374999999999994,0.008234199687056992
-0.0007362499999999999,0.008905602076339628
-0.0007349999999999995,0.009912705660264344
-0.0007337499999999992,0.010248406854905967
-0.0007324999999999996,0.010584108049547285
-0.0007312499999999993,0.010248406854905814
-0.0007299999999999997,0.010584108049547285
-0.0007287499999999994,0.010248406854905814
-0.0007274999999999998,0.01091980924418845
-0.0007262499999999995,0.010919809244188755
-0.000725,0.01159121163347139
-0.0007237499999999996,0.011926912828113166
-0.0007224999999999992,0.011591211633472306
-0.0007212499999999997,0.012934016412037577
-0.0007199999999999993,0.012262614022754637
-0.0007187499999999998,0.012598315217396107
-0.0007174999999999994,0.012934016412037577
-0.0007162499999999999,0.013269717606678895
-0.0007149999999999995,0.012934016412037577
-0.0007137499999999991,0.013605418801320518
-0.0007124999999999996,0.013605418801320518
-0.0007112499999999992,0.014276821190603459
-0.0007099999999999997,0.014276821190603459
-0.0007087499999999993,0.013941119995961988
-0.0007074999999999998,0.014276821190603459
-0.0007062499999999994,0.014612522385244929
-0.0007049999999999999,0.014612522385244929
-0.0007037499999999995,0.01561962596916934
-0.0007024999999999991,0.015619625969169187
-0.0007012499999999996,0.01528392477452787
-0.0006999999999999992,0.015283924774528022
-0.0006987499999999997,0.01561962596916934
-0.0006974999999999993,0.01629102835845228
-0.0006962499999999998,0.016962430747734916
-0.0006949999999999994,0.01662672955309375
-0.0006937499999999999,0.01662672955309375
-0.0006924999999999995,0.01662672955309375
-0.0006912499999999992,0.017298131942376997
-0.0006899999999999996,0.017969534331659633
-0.0006887499999999993,0.017633833137018162
-0.0006874999999999997,0.017969534331659633
-0.0006862499999999994,0.017969534331659633
-0.0006849999999999998,0.018976637915583586
-0.0006837499999999995,0.018305235526301103
-0.0006825,0.01897663791558374
-0.0006812499999999996,0.018976637915584044
-0.0006799999999999992,0.019648040304866984
-0.0006787499999999997,0.019648040304866984
-0.0006774999999999993,0.020319442694149925
-0.0006762499999999998,0.019983741499508455
-0.0006749999999999994,0.019648040304866984
-0.0006737499999999999,0.019648040304866984
-0.0006724999999999995,0.021326546278074336
-0.0006712499999999991,0.0206551438887917
-0.0006699999999999996,0.021326546278074336
-0.0006687499999999992,0.02132654627807449
-0.0006674999999999997,0.021662247472715807
-0.0006662499999999993,0.022333649861998747
-0.0006649999999999998,0.021997948667357277
-0.0006637499999999994,0.021326546278074336
-0.0006624999999999999,0.021326546278074336
-0.0006612499999999995,0.022333649861998747
-0.0006599999999999991,0.021662247472716112
-0.0006587499999999996,0.022333649861998747
-0.0006574999999999992,0.022333649861998595
-0.0006562499999999997,0.021997948667357277
-0.0006549999999999993,0.021326546278074336
-0.0006537499999999998,0.021326546278074336
-0.0006524999999999994,0.021662247472715807
-0.0006512499999999999,0.020655143888791853
-0.0006499999999999995,0.021662247472715807
-0.0006487499999999992,0.02199794866735682
-0.0006474999999999996,0.020990845083432866
-0.0006462499999999993,0.020990845083432866
-0.0006449999999999997,0.019648040304866984
-0.0006437499999999994,0.019983741499508455
-0.0006424999999999998,0.018305235526301866
-0.0006412499999999995,0.018976637915584044
-0.0006399999999999999,0.017633833137018773
-0.0006387499999999996,0.018305235526301103
-0.0006374999999999992,0.01796953433165948
-0.0006362499999999997,0.017633833137018162
-0.0006349999999999993,0.01662672955309375
-0.0006337499999999998,0.01662672955309375
-0.0006324999999999994,0.01528392477452787
-0.0006312499999999999,0.01528392477452787
-0.0006299999999999995,0.01528392477452787
-0.0006287499999999991,0.014948223579886094
-0.0006274999999999996,0.014276821190603459
-0.0006262499999999992,0.012934016412037577
-0.0006249999999999997,0.012934016412037577
-0.0006237499999999993,0.013269717606679048
-0.0006224999999999998,0.011926912828113166
-0.0006212499999999994,0.011255510438830225
-0.0006199999999999999,0.011591211633471543
-0.0006187499999999995,0.010584108049547285
-0.0006174999999999991,0.009912705660264039
-0.0006162499999999996,0.009241303270981403
-0.0006149999999999992,0.008569900881698768
-0.0006137499999999997,0.009241303270981403
-0.0006124999999999993,0.008905602076339933
-0.0006112499999999998,0.008569900881698463
-0.0006099999999999994,0.0075627972977740515
-0.0006087499999999999,0.0075627972977740515
-0.0006074999999999995,0.005548590129925229
-0.0006062499999999992,0.0068913949084908055
-0.0006049999999999996,0.00621999251920817
-0.0006037499999999993,0.005548590129925229
-0.0006024999999999997,0.004541486546000818
-0.0006012499999999994,0.004877187740642289
-0.0005999999999999998,0.0038700841567183356
-0.0005987499999999995,0.0038700841567178776
-0.0005974999999999999,0.0038700841567178776
-0.0005962499999999996,0.003198681767434937
-0.0005949999999999992,0.0015201757942278904
-0.0005937499999999997,0.002191578183510526
-0.0005924999999999993,0.001520175794227585
-0.0005912499999999998,0.001520175794227585
-0.0005899999999999994,0.0011844745995861147
-0.0005887499999999999,0.0005130722103034793
-0.0005874999999999995,-0.0001583301789797667
-0.00058625,0.000177371015661551
-0.0005849999999999996,-0.0001583301789797667
-0.0005837499999999992,-0.0008297325682625548
-0.0005824999999999997,-0.0004940313736212371
-0.0005812499999999993,-0.002172537346828589
-0.0005799999999999998,-0.0018368361521871185
-0.0005787499999999994,-0.002508238541470059
-0.0005774999999999999,-0.001501134957546106
-0.0005762499999999995,-0.002508238541470059
-0.0005749999999999991,-0.0038510433200356353
-0.0005737499999999996,-0.003179640930753
-0.0005724999999999992,-0.0021725373468295048
-0.0005712499999999997,-0.004186744514677411
-0.0005699999999999993,-0.0035153421253944703
-0.0005687499999999998,-0.004522445709318881
-0.0005674999999999994,-0.004858146903960352
-0.0005662499999999999,-0.004858146903960352
-0.0005649999999999995,-0.005529549293243292
-0.0005637499999999991,-0.005865250487884763
-0.0005624999999999996,-0.005865250487884763
-0.0005612499999999992,-0.00586525048788461
