RawData/acq0015.csv

#Digilent WaveForms Oscilloscope Acquisition
#Device Name: Discovery2
#Serial Number: SN:210321B282B2
#Date Time: 2026-05-20 12:13:00.291
#Sample rate: 800000Hz
#Samples: 8192
#Trigger: Source: Channel 1 Type: Edge Condition: Rising Level: 250 mV Hyst.: Auto HoldOff: 0 s
#Channel 1: Range: 200 mV/div Offset: 0 V Sample Mode: Average

Time (s),Channel 1 (V)
-0.0011191666666666667,0.07940285295104871
-0.0011179166666666664,0.08040995653497313
-0.001116666666666666,0.08007425534033166
-0.0011154166666666665,0.08007425534033166
-0.001114166666666666,0.08040995653497313
-0.0011129166666666666,0.07973855414569017
-0.0011116666666666662,0.08007425534033166
-0.0011104166666666667,0.08007425534033166
-0.0011091666666666663,0.08007425534033166
-0.001107916666666666,0.08040995653497328
-0.0011066666666666664,0.08074565772961459
-0.001105416666666666,0.08108135892425544
-0.0011041666666666665,0.07973855414569017
-0.001102916666666666,0.08007425534033166
-0.0011016666666666666,0.08040995653497313
-0.0011004166666666662,0.08007425534033166
-0.0010991666666666667,0.0810813589242556
-0.0010979166666666663,0.08074565772961459
-0.001096666666666666,0.08175276131353901
-0.0010954166666666664,0.08175276131353901
-0.001094166666666666,0.08108135892425605
-0.0010929166666666665,0.08108135892425605
-0.0010916666666666661,0.08074565772961459
-0.0010904166666666666,0.0810813589242559
-0.0010891666666666662,0.08141706011889754
-0.0010879166666666667,0.08175276131353885
-0.0010866666666666663,0.08141706011889754
-0.001085416666666666,0.08242416370282193
-0.0010841666666666664,0.08242416370282193
-0.001082916666666666,0.08208846250818047
-0.0010816666666666665,0.08242416370282193
-0.0010804166666666662,0.08309556609210489
-0.0010791666666666666,0.08242416370282224
-0.0010779166666666663,0.08309556609210489
-0.0010766666666666667,0.08275986489746358
-0.0010754166666666664,0.08343126728674635
-0.001074166666666666,0.08208846250818047
-0.0010729166666666665,0.08208846250818047
-0.001071666666666666,0.08343126728674635
-0.0010704166666666666,0.08343126728674635
-0.0010691666666666662,0.08343126728674635
-0.0010679166666666667,0.08376696848138766
-0.0010666666666666663,0.08477407206531223
-0.001065416666666666,0.08376696848138782
-0.0010641666666666664,0.08376696848138782
-0.001062916666666666,0.08410266967602946
-0.0010616666666666665,0.08443837087067077
-0.001060416666666666,0.08477407206531223
-0.0010591666666666666,0.0841026696760293
-0.0010579166666666662,0.0851097732599537
-0.0010566666666666667,0.08477407206531239
-0.0010554166666666663,0.08578117564923665
-0.001054166666666666,0.08578117564923635
-0.0010529166666666664,0.0851097732599537
-0.001051666666666666,0.08544547445459519
-0.0010504166666666665,0.08544547445459519
-0.0010491666666666661,0.08544547445459519
-0.0010479166666666666,0.08611687684387781
-0.0010466666666666662,0.08578117564923665
-0.0010454166666666667,0.08645257803851927
-0.0010441666666666663,0.08712398042780253
-0.001042916666666666,0.08712398042780238
-0.0010416666666666664,0.08678827923316107
-0.001040416666666666,0.08678827923316107
-0.0010391666666666665,0.08678827923316107
-0.0010379166666666662,0.08846678520636841
-0.0010366666666666666,0.08678827923316183
-0.0010354166666666663,0.08779538281708546
-0.0010341666666666667,0.08779538281708546
-0.0010329166666666664,0.08712398042780253
-0.001031666666666666,0.08846678520636841
-0.0010304166666666665,0.08846678520636841
-0.001029166666666666,0.08913818759565134
-0.0010279166666666666,0.08880248640100988
-0.0010266666666666662,0.08947388879029283
-0.0010254166666666667,0.08947388879029283
-0.0010241666666666663,0.08947388879029283
-0.001022916666666666,0.08947388879029283
-0.0010216666666666664,0.08947388879029283
-0.001020416666666666,0.09048099237421676
-0.0010191666666666665,0.08947388879029283
-0.001017916666666666,0.09048099237421722
-0.0010166666666666666,0.09081669356885871
-0.0010154166666666662,0.09048099237421722
-0.0010141666666666667,0.09081669356885856
-0.0010129166666666663,0.09148809595814164
-0.001011666666666666,0.0918237971527831
-0.0010104166666666664,0.0918237971527831
-0.001009166666666666,0.09182379715278326
-0.0010079166666666665,0.0921594983474246
-0.0010066666666666661,0.09249519954206606
-0.0010054166666666666,0.0918237971527831
-0.0010041666666666662,0.09249519954206606
-0.0010029166666666667,0.09283090073670737
-0.0010016666666666663,0.09283090073670752
-0.001000416666666666,0.09316660193134914
-0.0009991666666666664,0.09350230312599048
-0.000997916666666666,0.0941737055152734
-0.0009966666666666665,0.09450940670991487
-0.0009954166666666662,0.09383800432063194
-0.0009941666666666666,0.09383800432063194
-0.0009929166666666663,0.0941737055152734
-0.0009916666666666667,0.09551651029383867
-0.0009904166666666664,0.09450940670991487
-0.000989166666666666,0.09484510790455682
-0.0009879166666666665,0.09585221148848075
-0.000986666666666666,0.09585221148848075
-0.0009854166666666666,0.09551651029383929
-0.0009841666666666662,0.09618791268312224
-0.0009829166666666667,0.09652361387776355
-0.0009816666666666663,0.09685931507240517
-0.000980416666666666,0.0965236138777637
-0.0009791666666666664,0.0965236138777637
-0.000977916666666666,0.09719501626704678
-0.0009766666666666665,0.09753071746168812
-0.0009754166666666661,0.0965236138777637
-0.0009741666666666666,0.09685931507240517
-0.0009729166666666662,0.09853782104561251
-0.0009716666666666667,0.09786641865632989
-0.0009704166666666663,0.09786641865632958
-0.0009691666666666659,0.09887352224025416
-0.0009679166666666664,0.09920922343489547
-0.000966666666666666,0.09920922343489531
-0.0009654166666666665,0.098873522240254
-0.0009641666666666661,0.09988062582417839
-0.0009629166666666666,0.09954492462953693
-0.0009616666666666662,0.10021632701881988
-0.0009604166666666667,0.1005520282134612
-0.0009591666666666663,0.09954492462953693
-0.0009579166666666659,0.10088772940810296
-0.0009566666666666664,0.10122343060274427
-0.000955416666666666,0.10122343060274427
-0.0009541666666666665,0.10122343060274427
-0.0009529166666666661,0.10155913179738577
-0.0009516666666666666,0.10122343060274443
-0.0009504166666666663,0.10290193657595165
-0.0009491666666666667,0.10256623538131031
-0.0009479166666666664,0.10290193657595165
-0.000946666666666666,0.10189483299202753
-0.0009454166666666665,0.10256623538131016
-0.0009441666666666661,0.10290193657595165
-0.0009429166666666666,0.10323763777059311
-0.0009416666666666662,0.10424474135451753
-0.0009404166666666667,0.10424474135451753
-0.0009391666666666663,0.10491614374380046
-0.0009379166666666668,0.10458044254915914
-0.0009366666666666664,0.10458044254915899
-0.000935416666666666,0.1045804425491593
-0.0009341666666666665,0.10525184493844192
-0.0009329166666666661,0.10525184493844192
-0.0009316666666666666,0.10525184493844192
-0.0009304166666666662,0.10558754613308341
-0.0009291666666666667,0.10625894852236603
-0.0009279166666666663,0.10625894852236634
-0.0009266666666666659,0.1065946497170078
-0.0009254166666666664,0.1065946497170078
-0.000924166666666666,0.10693035091164975
-0.0009229166666666665,0.10793745449557368
-0.0009216666666666661,0.10726605210629075
-0.0009204166666666666,0.10793745449557368
-0.0009191666666666662,0.10827315569021517
-0.0009179166666666667,0.10827315569021517
-0.0009166666666666663,0.10793745449557368
-0.0009154166666666659,0.10827315569021548
-0.0009141666666666664,0.1089445580794981
-0.000912916666666666,0.10961596046878075
-0.0009116666666666665,0.1089445580794981
-0.0009104166666666661,0.10995166166342252
-0.0009091666666666666,0.11062306405270514
-0.0009079166666666662,0.11062306405270544
-0.0009066666666666667,0.11062306405270544
-0.0009054166666666663,0.11095876524734694
-0.000904166666666666,0.11095876524734709
-0.0009029166666666665,0.1112944664419884
-0.0009016666666666661,0.11230157002591282
-0.0009004166666666666,0.11196586883127133
-0.0008991666666666662,0.11230157002591282
-0.0008979166666666667,0.11263727122055413
-0.0008966666666666663,0.11230157002591282
-0.0008954166666666668,0.11364437480447809
-0.0008941666666666664,0.11297297241519574
-0.000892916666666666,0.11398007599912001
-0.0008916666666666665,0.1136443748044787
-0.0008904166666666661,0.11465147838840309
-0.0008891666666666666,0.11465147838840309
-0.0008879166666666662,0.11465147838840309
-0.0008866666666666667,0.11532288077768574
-0.0008854166666666663,0.11498717958304458
-0.0008841666666666659,0.11498717958304504
-0.0008829166666666664,0.11599428316696897
-0.000881666666666666,0.11498717958304519
-0.0008804166666666665,0.11632998436161046
-0.0008791666666666661,0.11632998436161046
-0.0008779166666666666,0.11700138675089339
-0.0008766666666666662,0.11733708794553485
-0.0008754166666666667,0.11767278914017619
-0.0008741666666666663,0.11767278914017634
-0.0008729166666666659,0.11767278914017665
-0.0008716666666666664,0.11834419152945927
-0.000870416666666666,0.11834419152945942
-0.0008691666666666665,0.11867989272410073
-0.0008679166666666661,0.11867989272410073
-0.0008666666666666666,0.11834419152945942
-0.0008654166666666662,0.11935129511338369
-0.0008641666666666667,0.119686996308025
-0.0008629166666666663,0.11935129511338369
-0.000861666666666666,0.11901559391874283
-0.0008604166666666664,0.1203583986973081
-0.0008591666666666661,0.1203583986973081
-0.0008579166666666665,0.12170120347587399
-0.0008566666666666662,0.12102980108659103
-0.0008554166666666667,0.12102980108659103
-0.0008541666666666663,0.12102980108659103
-0.0008529166666666668,0.12203690467051499
-0.0008516666666666664,0.12270830705979838
-0.000850416666666666,0.12270830705979822
-0.0008491666666666665,0.12237260586515691
-0.0008479166666666661,0.12237260586515691
-0.0008466666666666666,0.12304400825443987
-0.0008454166666666662,0.12304400825443987
-0.0008441666666666667,0.12438681303300514
-0.0008429166666666663,0.1237154106437228
-0.0008416666666666659,0.12405111183836426
-0.0008404166666666664,0.12405111183836426
-0.000839166666666666,0.12438681303300606
-0.0008379166666666665,0.12505821542228868
-0.0008366666666666661,0.12505821542228868
-0.0008354166666666666,0.12572961781157163
-0.0008341666666666662,0.12572961781157163
-0.0008329166666666667,0.12640102020085425
-0.0008316666666666663,0.1260653190062131
-0.0008304166666666659,0.12707242259013735
-0.0008291666666666664,0.12673672139549602
-0.000827916666666666,0.12707242259013768
-0.0008266666666666665,0.12740812378477898
-0.0008254166666666661,0.1284152273687034
-0.0008241666666666666,0.12740812378477945
-0.0008229166666666662,0.12774382497942044
-0.0008216666666666667,0.12740812378477911
-0.0008204166666666663,0.12875092856334486
-0.000819166666666666,0.12807952617406224
-0.0008179166666666664,0.12875092856334486
-0.0008166666666666661,0.12875092856334486
-0.0008154166666666665,0.12975803214726928
-0.0008141666666666662,0.13009373334191074
-0.0008129166666666666,0.13042943453655204
-0.0008116666666666663,0.1307651357311937
-0.0008104166666666668,0.13042943453655237
-0.0008091666666666664,0.13110083692583516
-0.000807916666666666,0.13177223931511856
-0.0008066666666666665,0.1327793428990425
-0.0008054166666666661,0.13143653812047662
-0.0008041666666666666,0.13244364170440104
-0.0008029166666666662,0.13244364170440104
-0.0008016666666666667,0.13244364170440104
-0.0008004166666666663,0.1327793428990425
-0.0007991666666666659,0.1334507452883253
-0.0007979166666666664,0.13311504409368397
-0.000796666666666666,0.13345074528832593
-0.0007954166666666665,0.13445784887224985
-0.0007941666666666661,0.13378644648296692
-0.0007929166666666666,0.13445784887224985
-0.0007916666666666662,0.13412214767760838
-0.0007904166666666667,0.13580065365081495
-0.0007891666666666663,0.1347935500668913
-0.0007879166666666659,0.1358006536508159
-0.0007866666666666664,0.13613635484545722
-0.000785416666666666,0.13647205604009852
-0.0007841666666666665,0.13613635484545722
-0.0007829166666666661,0.13613635484545722
-0.0007816666666666666,0.13680775723473984
-0.0007804166666666662,0.13781486081866456
-0.0007791666666666667,0.13781486081866456
-0.0007779166666666663,0.13781486081866456
-0.000776666666666666,0.13747915962402354
-0.0007754166666666664,0.1384862632079475
-0.0007741666666666661,0.13882196440258898
-0.0007729166666666665,0.13882196440258898
-0.0007716666666666662,0.13882196440258898
-0.0007704166666666666,0.1394933667918716
-0.0007691666666666663,0.13915766559723045
-0.0007679166666666667,0.13915766559723045
-0.0007666666666666664,0.14016476918115484
-0.000765416666666666,0.14083617157043796
-0.0007641666666666665,0.14117187276507925
-0.0007629166666666661,0.14050047037579633
-0.0007616666666666666,0.14117187276507925
-0.0007604166666666662,0.14117187276507925
-0.0007591666666666667,0.1418432751543619
-0.0007579166666666663,0.14217897634900367
-0.0007566666666666659,0.142850378738286
-0.0007554166666666664,0.14150757395972074
-0.000754166666666666,0.14217897634900428
-0.0007529166666666665,0.14352178112756955
-0.0007516666666666661,0.1431860799329281
-0.0007504166666666666,0.14251467754364514
-0.0007491666666666662,0.1441931835168525
-0.0007479166666666667,0.1441931835168525
-0.0007466666666666663,0.1431860799329281
-0.0007454166666666659,0.14452888471149414
-0.0007441666666666664,0.14486458590613543
-0.000742916666666666,0.14553598829541836
-0.0007416666666666665,0.14553598829541836
-0.0007404166666666661,0.14553598829541836
-0.0007391666666666666,0.14587168949005969
-0.0007379166666666662,0.14654309187934278
-0.0007366666666666667,0.1468787930739841
-0.0007354166666666663,0.14654309187934278
-0.000734166666666666,0.14654309187934308
-0.0007329166666666664,0.14721449426862573
-0.0007316666666666661,0.14687879307398427
-0.0007304166666666665,0.14855729904719162
-0.0007291666666666662,0.14855729904719162
-0.0007279166666666666,0.14889300024183294
-0.0007266666666666663,0.14855729904719162
-0.0007254166666666667,0.14889300024183294
-0.0007241666666666664,0.1499001038257575
-0.000722916666666666,0.14956440263111587
-0.0007216666666666665,0.14922870143647454
-0.0007204166666666661,0.14956440263111603
-0.0007191666666666666,0.1499001038257575
-0.0007179166666666662,0.15124290860432338
-0.0007166666666666667,0.15124290860432338
-0.0007154166666666663,0.15124290860432338
-0.0007141666666666659,0.15124290860432354
-0.0007129166666666664,0.15157860979896484
-0.000711666666666666,0.1522500121882475
-0.0007104166666666665,0.15157860979896484
-0.0007091666666666661,0.1519143109936063
-0.0007079166666666666,0.15258571338288926
-0.0007066666666666662,0.15292141457753072
-0.0007054166666666667,0.15325711577217205
-0.0007041666666666663,0.1532571157721722
-0.0007029166666666659,0.15359281696681412
-0.0007016666666666664,0.15459992055073807
-0.000700416666666666,0.15459992055073837
-0.0006991666666666665,0.15527132294002102
-0.0006979166666666661,0.15459992055073807
-0.0006966666666666666,0.1535928169668141
-0.0006954166666666662,0.15527132294002102
-0.0006941666666666667,0.15594272532930364
-0.0006929166666666663,0.1566141277185869
-0.000691666666666666,0.15594272532930395
-0.0006904166666666664,0.15594272532930395
-0.000689166666666666,0.1566141277185869
-0.0006879166666666665,0.15728553010786983
-0.0006866666666666662,0.15728553010786983
-0.0006854166666666666,0.1566141277185872
-0.0006841666666666663,0.15728553010786983
-0.0006829166666666667,0.1586283348864351
-0.0006816666666666664,0.15795693249715279
-0.000680416666666666,0.1592997372757185
-0.0006791666666666665,0.15896403608107718
-0.0006779166666666661,0.1586283348864357
-0.0006766666666666666,0.15896403608107718
-0.0006754166666666662,0.1599711396650016
-0.0006741666666666667,0.16030684085964292
-0.0006729166666666663,0.160978243248926
-0.0006716666666666659,0.16030684085964308
-0.0006704166666666664,0.16030684085964308
-0.000669166666666666,0.16064254205428471
-0.0006679166666666665,0.160978243248926
-0.0006666666666666661,0.16131394444356748
-0.0006654166666666666,0.16164964563820894
-0.0006641666666666662,0.16164964563820894
-0.0006629166666666667,0.1623210480274916
-0.0006616666666666663,0.16198534683285043
-0.0006604166666666659,0.16299245041677468
-0.0006591666666666664,0.16265674922213336
-0.000657916666666666,0.16299245041677532
-0.0006566666666666665,0.16399955400069924
-0.0006554166666666661,0.1633281516114163
-0.0006541666666666666,0.16366385280605777
-0.0006529166666666662,0.1646709563899822
-0.0006516666666666667,0.16399955400069954
-0.0006504166666666663,0.16366385280605777
-0.000649166666666666,0.16500665758462427
-0.0006479166666666664,0.16634946236318954
-0.000646666666666666,0.16534235877926512
-0.0006454166666666665,0.16534235877926512
-0.0006441666666666662,0.16601376116854807
-0.0006429166666666666,0.16601376116854807
-0.0006416666666666663,0.16601376116854807
-0.0006404166666666667,0.16634946236318937
-0.0006391666666666664,0.166685163557831
-0.000637916666666666,0.16668516355783083
-0.0006366666666666665,0.16634946236318954
-0.0006354166666666661,0.16634946236318954
-0.0006341666666666666,0.16601376116854807
-0.0006329166666666662,0.16634946236318954
-0.0006316666666666667,0.1660137611685482
-0.0006304166666666663,0.16634946236318954
-0.0006291666666666659,0.16601376116854777
-0.0006279166666666664,0.16534235877926512
-0.000626666666666666,0.16567805997390678
-0.0006254166666666665,0.16601376116854807
-0.0006241666666666661,0.16500665758462366
-0.0006229166666666666,0.16634946236318954
-0.0006216666666666662,0.16500665758462366
-0.0006204166666666667,0.16500665758462366
-0.0006191666666666663,0.16534235877926512
-0.0006179166666666659,0.1643352551953407
-0.0006166666666666664,0.1643352551953407
-0.000615416666666666,0.16366385280605794
-0.0006141666666666665,0.16399955400069924
-0.0006129166666666661,0.16399955400069924
-0.0006116666666666666,0.16366385280605777
-0.0006104166666666662,0.1633281516114163
-0.0006091666666666667,0.1633281516114163
-0.0006079166666666663,0.1633281516114163
-0.0006066666666666659,0.16299245041677501
-0.0006054166666666664,0.1633281516114163
-0.000604166666666666,0.1633281516114163
-0.0006029166666666665,0.16265674922213336
-0.0006016666666666661,0.1623210480274919
-0.0006004166666666666,0.1623210480274919
-0.0005991666666666663,0.1623210480274919
-0.0005979166666666667,0.16164964563820924
-0.0005966666666666664,0.1623210480274919
-0.000595416666666666,0.16299245041677454
-0.0005941666666666665,0.1623210480274919
-0.0005929166666666661,0.16131394444356748
-0.0005916666666666666,0.160978243248926
-0.0005904166666666662,0.16164964563820894
-0.0005891666666666667,0.16198534683285026
-0.0005879166666666663,0.16164964563820894
-0.0005866666666666668,0.16164964563820894
-0.0005854166666666664,0.16064254205428455
-0.000584166666666666,0.16064254205428455
-0.0005829166666666665,0.16064254205428455
-0.0005816666666666661,0.16131394444356748
-0.0005804166666666666,0.16131394444356748
-0.0005791666666666662,0.16064254205428455
-0.0005779166666666667,0.1599711396650019
-0.0005766666666666663,0.160978243248926
-0.0005754166666666659,0.16030684085964278
-0.0005741666666666664,0.15963543847036013
-0.000572916666666666,0.16030684085964308
-0.0005716666666666665,0.16030684085964308
-0.0005704166666666661,0.1599711396650016
-0.0005691666666666666,0.16030684085964308
-0.0005679166666666662,0.16064254205428455
-0.0005666666666666667,0.1599711396650019
-0.0005654166666666663,0.1599711396650016
-0.0005641666666666659,0.1599711396650016
-0.0005629166666666664,0.1599711396650016
-0.000561666666666666,0.15963543847036013
-0.0005604166666666665,0.15963543847036013
-0.0005591666666666661,0.16030684085964308
-0.0005579166666666666,0.15997113966500176
-0.0005566666666666662,0.15929973727571867
-0.0005554166666666667,0.15963543847036
-0.0005541666666666663,0.15929973727571867
-0.000552916666666666,0.15929973727571883
-0.0005516666666666665,0.15963543847036013
-0.0005504166666666661,0.15929973727571867
-0.0005491666666666666,0.1599711396650016
-0.0005479166666666662,0.15896403608107718
-0.0005466666666666667,0.1592997372757185
-0.0005454166666666663,0.15896403608107718
