RawData/acq0021.csv

#Digilent WaveForms Oscilloscope Acquisition
#Device Name: Discovery2
#Serial Number: SN:210321B282B2
#Date Time: 2026-05-20 12:13:28.788
#Sample rate: 800000Hz
#Samples: 8192
#Trigger: Source: Channel 1 Type: Edge Condition: Rising Level: 250 mV Hyst.: Auto HoldOff: 0 s
#Channel 1: Range: 200 mV/div Offset: 0 V Sample Mode: Average

Time (s),Channel 1 (V)
-0.0011190625000000003,0.00017737101566170366
-0.0011178124999999999,0.00017737101566170366
-0.0011165624999999995,0.00017737101566200897
-0.0011153125,0.0008487734049446444
-0.0011140624999999996,0.000513072210303174
-0.0011128125,0.00017737101566170366
-0.0011115624999999997,-0.0004940313736212371
-0.0011103125000000002,-0.00015833017897991936
-0.0011090624999999998,-0.0001583301789797667
-0.0011078124999999994,-0.0001583301789797667
-0.0011065625,-0.0001583301789797667
-0.0011053124999999995,-0.0001583301789797667
-0.0011040625,-0.0001583301789797667
-0.0011028124999999996,0.00017737101566170366
-0.0011015625000000001,-0.0004940313736212371
-0.0011003124999999997,-0.0004940313736212371
-0.0010990625000000002,0.000513072210302716
-0.0010978124999999998,0.000513072210303174
-0.0010965624999999994,0.000177371015661551
-0.0010953125,-0.0001583301789797667
-0.0010940624999999995,-0.0001583301789797667
-0.0010928125,-0.0001583301789797667
-0.0010915624999999997,-0.0004940313736212371
-0.0010903125000000001,-0.00015833017897991936
-0.0010890624999999998,0.00017737101566170366
-0.0010878125000000002,0.00017737101566170366
-0.0010865624999999999,0.0008487734049446444
-0.0010853124999999995,-0.00015833017897961404
-0.0010840625,0.00017737101566170366
-0.0010828124999999996,-0.0001583301789797667
-0.0010815625,-0.0001583301789797667
-0.0010803124999999997,0.000513072210303174
-0.0010790625000000002,-0.0004940313736207791
-0.0010778124999999998,0.00017737101566170366
-0.0010765625000000003,-0.0004940313736209317
-0.0010753124999999999,0.0008487734049446444
-0.0010740624999999995,0.000513072210302716
-0.0010728125,-0.0004940313736212371
-0.0010715624999999996,0.00017737101566170366
-0.0010703125,-0.0001583301789797667
-0.0010690624999999997,-0.0001583301789797667
-0.0010678125000000002,0.0008487734049441864
-0.0010665624999999998,0.000513072210303174
-0.0010653124999999994,-0.00015833017897991936
-0.0010640625,-0.0004940313736212371
-0.0010628124999999995,0.00017737101566170366
-0.0010615625,0.00017737101566170366
-0.0010603124999999996,0.000513072210303174
-0.0010590625,-0.0004940313736212371
-0.0010578124999999997,-0.0004940313736212371
-0.0010565625000000002,-0.00015833017897991936
-0.0010553124999999998,0.00017737101566170366
-0.0010540624999999994,-0.00015833017897961404
-0.0010528125,0.00017737101566170366
-0.0010515624999999995,-0.0001583301789794614
-0.0010503125,0.000513072210303174
-0.0010490624999999996,-0.0004940313736212371
-0.0010478125000000001,-0.0004940313736212371
-0.0010465624999999997,0.0008487734049446444
-0.0010453125000000002,0.0005130722103033267
-0.0010440624999999999,0.00017737101566170366
-0.0010428124999999995,0.0005130722103028687
-0.0010415625,-0.0001583301789797667
-0.0010403124999999996,-0.0001583301789797667
-0.0010390625,0.000513072210303174
-0.0010378124999999997,0.00017737101566170366
-0.0010365625000000002,-0.0004940313736209317
-0.0010353124999999998,0.00017737101566170366
-0.0010340625000000003,0.00017737101566170366
-0.0010328124999999999,0.00017737101566170366
-0.0010315624999999995,-0.0001583301789797667
-0.0010303125,-0.0001583301789797667
-0.0010290624999999996,0.000513072210303174
-0.0010278125,0.000513072210303174
-0.0010265624999999997,-0.0004940313736212371
-0.0010253125000000002,0.00017737101566139835
-0.0010240624999999998,0.00017737101566170366
-0.0010228124999999994,-0.0001583301789794614
-0.0010215625,0.000513072210303174
-0.0010203124999999995,0.0001773710156612457
-0.0010190625,-0.0008297325682627074
-0.0010178124999999996,0.0008487734049446444
-0.0010165625,-0.0001583301789797667
-0.0010153124999999997,0.00017737101566170366
-0.0010140625000000002,0.00017737101566170366
-0.0010128124999999998,0.00017737101566170366
-0.0010115624999999994,-0.00015833017897930873
-0.0010103125,0.0008487734049446444
-0.0010090624999999995,0.000513072210303174
-0.0010078125,0.000513072210303174
-0.0010065624999999996,0.00017737101566170366
-0.0010053125000000001,0.0008487734049446444
-0.0010040624999999997,-0.0004940313736212371
-0.0010028125000000002,0.000513072210302716
-0.0010015624999999998,0.00017737101566170366
-0.0010003124999999995,0.0001773710156618563
-0.0009990625,0.000513072210303174
-0.0009978124999999996,0.000513072210303174
-0.0009965625,-0.0004940313736212371
-0.0009953124999999997,-0.0004940313736212371
-0.0009940625000000002,0.00017737101566139835
-0.0009928124999999998,0.00017737101566170366
-0.0009915625000000003,-0.00015833017897961404
-0.0009903124999999999,0.00017737101566170366
-0.0009890624999999995,0.000513072210302716
-0.0009878125,-0.0004940313736212371
-0.0009865624999999996,-0.0001583301789797667
-0.0009853125,0.0008487734049446444
-0.0009840624999999997,-0.0004940313736212371
-0.0009828125000000002,-0.0004940313736212371
-0.0009815624999999998,-0.0001583301789797667
-0.0009803124999999994,0.0001773710156618563
-0.0009790625,0.000513072210303174
-0.0009778124999999995,-0.00015833017897961404
-0.0009765625,0.00017737101566170366
-0.0009753124999999996,-0.0004940313736212371
-0.0009740625000000001,-0.0004940313736212371
-0.0009728124999999997,0.00017737101566170366
-0.0009715625000000002,0.0005130722103030214
-0.0009703124999999998,-0.0001583301789797667
-0.0009690624999999994,-0.00015833017897961404
-0.0009678124999999999,0.00017737101566170366
-0.0009665624999999995,-0.0001583301789797667
-0.0009653125,-0.0001583301789797667
-0.0009640624999999996,-0.0001583301789797667
-0.0009628125000000001,-0.0011654337629041778
-0.0009615624999999997,-0.0001583301789797667
-0.0009603125000000002,0.0005130722103028687
-0.0009590624999999998,0.0008487734049446444
-0.0009578124999999995,0.0005130722103028687
-0.0009565625,-0.0001583301789797667
-0.0009553124999999996,-0.0004940313736212371
-0.0009540625,-0.0001583301789797667
-0.0009528124999999997,-0.0001583301789797667
-0.0009515625000000002,-0.0001583301789797667
-0.0009503124999999998,-0.0008297325682627074
-0.0009490625000000003,-0.0004940313736213897
-0.0009478124999999999,0.000513072210303174
-0.0009465624999999995,0.0015201757942271271
-0.0009453125,0.000513072210303174
-0.0009440624999999996,-0.0001583301789797667
-0.0009428125000000001,-0.0008297325682627074
-0.0009415624999999997,-0.0001583301789797667
-0.0009403125000000002,0.0008487734049441864
-0.0009390624999999998,-0.0001583301789797667
-0.0009378125000000003,-0.0001583301789797667
-0.0009365624999999999,0.000513072210303174
-0.0009353124999999995,-0.0004940313736210844
-0.0009340625,-0.0001583301789797667
-0.0009328124999999996,-0.0001583301789797667
-0.0009315625000000001,0.00017737101566170366
-0.0009303124999999997,-0.0001583301789797667
-0.0009290625000000002,-0.0001583301789797667
-0.0009278124999999998,0.00017737101566170366
-0.0009265624999999994,0.0001773710156618563
-0.0009253124999999999,0.000513072210303174
-0.0009240624999999995,-0.0001583301789797667
-0.0009228125,-0.0001583301789797667
-0.0009215624999999996,-0.0004940313736212371
-0.0009203125000000001,0.000513072210303174
-0.0009190624999999997,0.00017737101566170366
-0.0009178125000000002,0.00017737101566170366
-0.0009165624999999998,-0.0001583301789797667
-0.0009153124999999995,0.00017737101566139835
-0.0009140624999999999,-0.0004940313736212371
-0.0009128124999999996,0.0001773710156618563
-0.0009115625,0.000513072210303174
-0.0009103124999999997,0.00017737101566170366
-0.0009090625000000001,0.00017737101566170366
-0.0009078124999999998,0.000513072210303174
-0.0009065625000000003,-0.0001583301789794614
-0.0009053124999999999,-0.0008297325682627074
-0.0009040624999999995,0.0001773710156618563
-0.0009028125,0.000513072210303174
-0.0009015624999999996,0.0008487734049446444
-0.0009003125000000001,0.0008487734049446444
-0.0008990624999999997,0.00017737101566170366
-0.0008978125000000002,-0.00015833017897961404
-0.0008965624999999998,-0.0004940313736212371
-0.0008953125000000003,0.00017737101566139835
-0.0008940624999999999,0.00017737101566170366
-0.0008928124999999995,0.0008487734049443391
-0.0008915625,0.00017737101566170366
-0.0008903124999999996,-0.0004940313736212371
-0.0008890625000000001,0.00017737101566170366
-0.0008878124999999997,0.00017737101566170366
-0.0008865625000000002,-0.00015833017897961404
-0.0008853124999999998,-0.0001583301789797667
-0.0008840624999999994,0.000513072210303174
-0.0008828124999999999,0.000513072210303174
-0.0008815624999999995,-0.0001583301789797667
-0.0008803125,-0.0001583301789797667
-0.0008790624999999996,0.00017737101566170366
-0.0008778125000000001,-0.0001583301789797667
-0.0008765624999999997,0.001520175794227585
-0.0008753125000000002,-0.0008297325682616388
-0.0008740624999999998,0.00017737101566170366
-0.0008728124999999995,-0.0001583301789797667
-0.0008715624999999999,-0.0001583301789797667
-0.0008703124999999996,-0.0001583301789794614
-0.0008690625,0.000513072210303174
-0.0008678124999999997,-0.0004940313736212371
-0.0008665625000000001,-0.0008297325682625548
-0.0008653124999999998,0.000513072210303174
-0.0008640625000000002,0.0008487734049444917
-0.0008628124999999999,-0.0004940313736212371
-0.0008615624999999995,0.00017737101566216162
-0.0008603125,0.0011844745995861147
-0.0008590624999999996,-0.0004940313736212371
-0.0008578125000000001,0.000513072210303174
-0.0008565624999999997,0.00017737101566170366
-0.0008553125000000002,-0.00015833017897961404
-0.0008540624999999998,-0.0001583301789797667
-0.0008528125000000003,0.000177371015661551
-0.0008515624999999999,-0.0008297325682627074
-0.0008503124999999995,-0.00015833017897991936
-0.0008490625,-0.0004940313736212371
-0.0008478124999999996,0.000513072210303174
-0.0008465625000000001,0.0008487734049446444
-0.0008453124999999997,-0.0001583301789797667
-0.0008440625000000002,-0.0001583301789797667
-0.0008428124999999998,-0.0004940313736212371
-0.0008415624999999994,0.00017737101566170366
-0.0008403124999999999,0.00017737101566170366
-0.0008390624999999995,0.0008487734049441864
-0.0008378125,-0.0001583301789797667
-0.0008365624999999996,0.00017737101566170366
-0.0008353125000000001,-0.0004940313736212371
-0.0008340624999999997,0.00017737101566170366
-0.0008328125000000002,0.00017737101566170366
-0.0008315624999999998,0.0008487734049446444
-0.0008303124999999995,0.00017737101566170366
-0.0008290624999999999,0.00017737101566170366
-0.0008278124999999996,-0.00015833017897961404
-0.0008265625,0.00017737101566170366
-0.0008253124999999997,-0.0001583301789797667
-0.0008240625000000001,0.0005130722103028687
-0.0008228124999999998,0.00017737101566170366
-0.0008215625000000002,-0.00015833017897961404
-0.0008203124999999999,0.00017737101566170366
-0.0008190624999999995,-0.00015833017897991936
-0.0008178125,-0.0004940313736212371
-0.0008165624999999996,0.00017737101566170366
-0.0008153125000000001,0.000513072210303174
-0.0008140624999999997,0.000513072210303174
-0.0008128125000000002,0.000513072210303174
-0.0008115624999999998,0.000513072210303174
-0.0008103125000000003,-0.0001583301789794614
-0.0008090624999999999,-0.0001583301789797667
-0.0008078124999999995,0.0008487734049446444
-0.0008065625,0.0008487734049446444
-0.0008053124999999996,-0.0001583301789797667
-0.0008040625000000001,0.00017737101566170366
-0.0008028124999999997,0.00017737101566170366
-0.0008015625000000002,0.0005130722103030214
-0.0008003124999999998,0.00017737101566170366
-0.0007990624999999994,0.0008487734049443391
-0.0007978124999999999,0.00017737101566170366
-0.0007965624999999995,0.0005130722103028687
-0.0007953125,-0.0001583301789797667
-0.0007940624999999996,0.00017737101566170366
-0.0007928125000000001,0.000513072210303174
-0.0007915624999999997,-0.0008297325682627074
-0.0007903125000000002,0.0001773710156612457
-0.0007890624999999998,0.0008487734049446444
-0.0007878124999999995,-0.0011654337629034145
-0.0007865624999999999,0.000513072210303174
-0.0007853124999999996,0.000513072210302716
-0.0007840625,-0.0004940313736212371
-0.0007828124999999997,0.000513072210303174
-0.0007815625000000001,0.000513072210303174
-0.0007803124999999998,-0.0001583301789797667
-0.0007790625000000002,0.000177371015661551
-0.0007778124999999999,-0.0008297325682627074
-0.0007765624999999995,0.00017737101566216162
-0.0007753125,0.0011844745995861147
-0.0007740624999999996,0.000513072210303174
-0.0007728125000000001,0.0011844745995861147
-0.0007715624999999997,-0.0004940313736212371
-0.0007703125000000002,0.00017737101566139835
-0.0007690624999999998,0.000513072210303174
-0.0007678125000000003,-0.0001583301789794614
-0.0007665624999999999,0.00017737101566170366
-0.0007653124999999995,-0.0008297325682624021
-0.0007640625,-0.0001583301789797667
-0.0007628124999999996,-0.0008297325682627074
-0.0007615625000000001,0.00017737101566170366
-0.0007603124999999997,0.00017737101566170366
-0.0007590625000000002,0.0005130722103030214
-0.0007578124999999998,-0.0004940313736212371
-0.0007565624999999994,0.000177371015661551
-0.0007553124999999999,-0.0001583301789797667
-0.0007540624999999995,0.000177371015661551
-0.0007528125,-0.0001583301789797667
-0.0007515624999999996,-0.0008297325682627074
-0.0007503125000000001,-0.0004940313736212371
-0.0007490624999999997,0.0008487734049446444
-0.0007478125000000002,0.001184474599585962
-0.0007465624999999998,0.00017737101566170366
-0.0007453124999999994,-0.00015833017897991936
-0.0007440624999999999,-0.0004940313736212371
-0.0007428124999999995,0.000177371015661551
-0.0007415625,-0.0001583301789797667
-0.0007403124999999997,0.00017737101566170366
-0.0007390625000000001,-0.00015833017897961404
-0.0007378124999999998,-0.0001583301789797667
-0.0007365625000000002,0.000177371015661551
-0.0007353124999999999,-0.0008297325682627074
-0.0007340624999999995,-0.0004940313736207791
-0.0007328125,0.000513072210303174
-0.0007315624999999996,0.000513072210303174
-0.0007303125000000001,0.000513072210303174
-0.0007290624999999997,0.00017737101566170366
-0.0007278125000000002,-0.0004940313736209317
-0.0007265624999999998,-0.0001583301789797667
-0.0007253125000000003,-0.0001583301789797667
-0.0007240624999999999,-0.0004940313736212371
-0.0007228124999999995,0.0005130722103030214
-0.0007215625,0.00017737101566170366
-0.0007203124999999996,-0.0001583301789797667
-0.0007190625000000001,-0.0001583301789797667
-0.0007178124999999997,0.000513072210303174
-0.0007165625000000002,0.0001773710156618563
-0.0007153124999999998,0.00017737101566170366
-0.0007140624999999994,-0.0001583301789794614
-0.0007128124999999999,0.000513072210303174
-0.0007115624999999995,0.0008487734049441864
-0.0007103125,-0.0001583301789797667
-0.0007090624999999996,0.00017737101566170366
-0.0007078125000000001,-0.0001583301789797667
-0.0007065624999999997,0.0008487734049446444
-0.0007053125000000002,0.0008487734049446444
-0.0007040624999999998,-0.0001583301789797667
-0.0007028124999999994,-0.0001583301789797667
-0.0007015624999999999,-0.0001583301789797667
-0.0007003124999999995,-0.00015833017897991936
-0.0006990625,-0.0004940313736212371
-0.0006978124999999996,-0.0001583301789797667
-0.0006965625000000001,0.000177371015661551
-0.0006953124999999998,-0.0001583301789797667
-0.0006940625000000002,0.0008487734049441864
-0.0006928124999999999,0.00017737101566170366
-0.0006915624999999995,-0.0004940313736210844
-0.0006903125,-0.0001583301789797667
-0.0006890624999999996,-0.0008297325682627074
-0.0006878125000000001,0.00017737101566170366
-0.0006865624999999997,-0.0001583301789797667
-0.0006853125000000002,-0.0004940313736210844
-0.0006840624999999998,0.000513072210303174
-0.0006828125000000003,-0.0004940313736207791
-0.0006815624999999999,-0.0001583301789797667
-0.0006803124999999995,0.0005130722103028687
-0.0006790625,-0.0001583301789797667
-0.0006778124999999996,-0.0001583301789797667
-0.0006765625000000001,0.000513072210303174
-0.0006753124999999997,-0.0001583301789797667
-0.0006740625000000002,0.0005130722103028687
-0.0006728124999999998,0.00017737101566170366
-0.0006715624999999994,-0.0001583301789797667
-0.0006703124999999999,-0.0001583301789797667
-0.0006690624999999995,0.00017737101566170366
-0.0006678125,0.00017737101566170366
-0.0006665624999999996,0.000513072210303174
-0.0006653125000000001,-0.0001583301789797667
-0.0006640624999999997,0.00017737101566170366
-0.0006628125000000002,0.00017737101566170366
-0.0006615624999999998,-0.0004940313736212371
-0.0006603124999999994,0.0005130722103030214
-0.0006590624999999999,0.00017737101566170366
-0.0006578124999999995,0.000513072210303174
-0.0006565625,0.000513072210303174
-0.0006553124999999996,-0.0001583301789797667
-0.0006540625000000001,-0.0001583301789797667
-0.0006528124999999997,0.00017737101566170366
-0.0006515625000000002,0.00017737101566170366
-0.0006503124999999998,0.000513072210303174
-0.0006490624999999995,0.00017737101566200897
-0.0006478125,0.0008487734049446444
-0.0006465624999999996,-0.0004940313736212371
-0.0006453125,0.00017737101566170366
-0.0006440624999999997,0.00017737101566170366
-0.0006428125000000002,0.0015201757942269745
-0.0006415624999999998,0.00017737101566170366
-0.0006403125000000003,0.0005130722103030214
-0.0006390624999999999,0.000513072210303174
-0.0006378124999999995,-0.00015833017897991936
-0.0006365625,-0.0004940313736212371
-0.0006353124999999996,-0.0001583301789797667
-0.0006340625000000001,-0.0001583301789797667
-0.0006328124999999997,-0.0001583301789797667
-0.0006315625000000002,-0.0004940313736210844
-0.0006303124999999998,0.00017737101566170366
-0.0006290624999999994,0.0008487734049443391
-0.0006278124999999999,0.00017737101566170366
-0.0006265624999999995,0.0005130722103028687
-0.0006253125,-0.0001583301789797667
-0.0006240624999999996,-0.0001583301789797667
-0.0006228125000000001,-0.0001583301789797667
-0.0006215624999999997,-0.0004940313736212371
-0.0006203125000000002,0.0008487734049440337
-0.0006190624999999998,0.0008487734049446444
-0.0006178124999999994,0.0005130722103030214
-0.0006165624999999999,0.00017737101566170366
-0.0006153124999999995,0.00017737101566170366
-0.0006140625,0.00017737101566170366
-0.0006128124999999996,0.00017737101566170366
-0.0006115625000000001,0.00017737101566170366
-0.0006103124999999997,-0.0001583301789797667
-0.0006090625000000002,0.000177371015661551
-0.0006078124999999998,-0.0004940313736212371
-0.0006065624999999995,0.0008487734049440337
-0.0006053125,-0.0004940313736212371
-0.0006040624999999996,0.00017737101566170366
-0.0006028125,0.00017737101566170366
-0.0006015624999999997,0.000513072210303174
-0.0006003125000000002,0.0001773710156618563
-0.0005990624999999998,-0.0004940313736212371
-0.0005978125000000003,-0.0004940313736212371
-0.0005965624999999999,0.00017737101566170366
-0.0005953124999999995,0.0001773710156618563
-0.0005940625,0.000513072210303174
-0.0005928124999999996,0.00017737101566170366
-0.0005915625000000001,0.00017737101566170366
-0.0005903124999999997,-0.0001583301789797667
-0.0005890625000000002,0.0005130722103028687
-0.0005878124999999998,0.00017737101566170366
-0.0005865625000000003,0.00017737101566170366
-0.0005853124999999999,0.00017737101566170366
-0.0005840624999999995,0.00017737101566170366
-0.0005828125,0.00017737101566170366
-0.0005815624999999996,0.000513072210303174
-0.0005803125000000001,-0.0001583301789797667
-0.0005790624999999997,-0.0001583301789797667
-0.0005778125000000002,0.0005130722103028687
-0.0005765624999999998,-0.0011654337629041778
-0.0005753124999999994,-0.00015833017897961404
-0.0005740624999999999,0.00017737101566170366
-0.0005728124999999995,0.0005130722103033267
-0.0005715625,0.0008487734049446444
-0.0005703124999999996,-0.0001583301789797667
-0.0005690625000000001,-0.0004940313736212371
-0.0005678124999999997,-0.0001583301789797667
-0.0005665625000000002,-0.0004940313736210844
-0.0005653124999999998,0.000513072210303174
