RawData/acq0018.csv

#Digilent WaveForms Oscilloscope Acquisition
#Device Name: Discovery2
#Serial Number: SN:210321B282B2
#Date Time: 2026-05-20 12:13:05.600
#Sample rate: 800000Hz
#Samples: 8192
#Trigger: Source: Channel 1 Type: Edge Condition: Rising Level: 250 mV Hyst.: Auto HoldOff: 0 s
#Channel 1: Range: 200 mV/div Offset: 0 V Sample Mode: Average

Time (s),Channel 1 (V)
-0.00111975,0.0008487734049446444
-0.0011184999999999997,-0.0001583301789797667
-0.0011172499999999993,0.00017737101566170366
-0.0011159999999999998,0.00017737101566170366
-0.0011147499999999994,-0.0001583301789797667
-0.0011135,0.000513072210303174
-0.0011122499999999995,0.00017737101566170366
-0.001111,0.00017737101566170366
-0.0011097499999999996,0.000513072210303174
-0.0011084999999999992,-0.0004940313736210844
-0.0011072499999999997,-0.0001583301789797667
-0.0011059999999999993,-0.0001583301789794614
-0.0011047499999999998,0.000513072210303174
-0.0011034999999999994,0.0011844745995861147
-0.00110225,0.000513072210303174
-0.0011009999999999995,-0.0008297325682627074
-0.00109975,-0.000158330178980072
-0.0010984999999999997,-0.0004940313736212371
-0.0010972499999999993,-0.0008297325682620968
-0.0010959999999999998,0.000513072210303174
-0.0010947499999999994,0.0005130722103030214
-0.0010934999999999999,0.00017737101566170366
-0.0010922499999999995,0.00017737101566170366
-0.001091,0.0005130722103030214
-0.0010897499999999996,-0.0001583301789797667
-0.0010885,-0.0001583301789797667
-0.0010872499999999997,0.00017737101566170366
-0.0010859999999999993,0.00017737101566170366
-0.0010847499999999998,0.00017737101566170366
-0.0010834999999999994,0.000513072210303174
-0.0010822499999999999,0.00017737101566170366
-0.0010809999999999995,-0.0001583301789797667
-0.00107975,0.000177371015661551
-0.0010784999999999996,0.00017737101566170366
-0.00107725,-0.00015833017897961404
-0.0010759999999999997,0.0008487734049446444
-0.0010747499999999993,0.00017737101566139835
-0.0010734999999999998,-0.0004940313736212371
-0.0010722499999999994,0.000513072210303174
-0.001071,-0.0008297325682627074
-0.0010697499999999995,-0.0004940313736212371
-0.0010685,0.0008487734049440337
-0.0010672499999999996,0.00017737101566170366
-0.0010659999999999992,0.0005130722103028687
-0.0010647499999999997,-0.0001583301789797667
-0.0010634999999999993,-0.0001583301789797667
-0.0010622499999999998,-0.0001583301789797667
-0.0010609999999999994,0.000513072210303174
-0.00105975,0.000513072210303174
-0.0010584999999999995,-0.0001583301789797667
-0.00105725,0.000177371015661551
-0.0010559999999999996,0.00017737101566170366
-0.0010547499999999993,-0.0004940313736209317
-0.0010534999999999997,0.00017737101566170366
-0.0010522499999999994,-0.0004940313736207791
-0.0010509999999999999,0.000513072210303174
-0.0010497499999999995,0.00017737101566170366
-0.0010485,-0.00015833017897961404
-0.0010472499999999996,-0.0004940313736212371
-0.001046,0.00017737101566139835
-0.0010447499999999997,0.00017737101566170366
-0.0010434999999999993,-0.00015833017897930873
-0.0010422499999999998,0.0008487734049446444
-0.0010409999999999994,0.00017737101566170366
-0.0010397499999999999,0.000513072210303174
-0.0010384999999999995,-0.0001583301789797667
-0.00103725,0.0005130722103028687
-0.0010359999999999996,0.00017737101566170366
-0.00103475,0.00017737101566170366
-0.0010334999999999997,0.000513072210303174
-0.0010322499999999993,-0.00015833017897961404
-0.0010309999999999998,0.00017737101566170366
-0.0010297499999999994,0.000513072210303174
-0.0010285,0.000513072210303174
-0.0010272499999999995,0.00017737101566170366
-0.001026,0.00017737101566170366
-0.0010247499999999996,0.00017737101566170366
-0.0010234999999999992,-0.0008297325682622494
-0.0010222499999999997,0.00017737101566170366
-0.0010209999999999993,0.0005130722103030214
-0.0010197499999999998,0.00017737101566170366
-0.0010184999999999994,0.000513072210303174
-0.00101725,-0.0001583301789797667
-0.0010159999999999995,-0.0001583301789797667
-0.00101475,0.0005130722103028687
-0.0010134999999999996,0.00017737101566170366
-0.0010122499999999993,0.0001773710156618563
-0.0010109999999999997,0.000513072210303174
-0.0010097499999999994,-0.0004940313736207791
-0.0010084999999999998,0.000513072210303174
-0.0010072499999999995,-0.0004940313736212371
-0.001006,-0.0001583301789797667
-0.0010047499999999996,-0.0001583301789797667
-0.0010035,0.0008487734049441864
-0.0010022499999999997,0.00017737101566170366
-0.0010009999999999993,-0.0001583301789794614
-0.0009997499999999998,0.000513072210303174
-0.0009984999999999994,-0.0001583301789797667
-0.0009972499999999999,0.000513072210303174
-0.0009959999999999995,0.001520175794227585
-0.00099475,0.000513072210303632
-0.0009934999999999996,-0.0004940313736212371
-0.00099225,0.000513072210302716
-0.0009909999999999997,-0.0004940313736212371
-0.0009897499999999993,-0.0001583301789797667
-0.0009884999999999998,-0.0001583301789797667
-0.0009872499999999994,0.00017737101566170366
-0.000986,0.000513072210303174
-0.0009847499999999995,0.00017737101566170366
-0.0009835,-0.0004940313736209317
-0.0009822499999999996,0.00017737101566170366
-0.0009809999999999992,0.000848773404944797
-0.0009797499999999997,0.0011844745995861147
-0.0009784999999999993,-0.00015833017897961404
-0.0009772499999999998,0.00017737101566170366
-0.0009759999999999994,-0.0001583301789797667
-0.0009747499999999999,-0.0004940313736212371
-0.0009734999999999995,-0.0008297325682627074
-0.00097225,-0.000158330178980072
-0.0009709999999999996,-0.0001583301789797667
-0.0009697499999999993,-0.0001583301789797667
-0.0009684999999999997,-0.0001583301789797667
-0.0009672499999999994,-0.00015833017897961404
-0.0009659999999999998,0.00017737101566170366
-0.0009647499999999995,-0.0001583301789797667
-0.0009635,0.00017737101566170366
-0.0009622499999999996,0.00017737101566170366
-0.000961,-0.00015833017897961404
-0.0009597499999999997,0.00017737101566170366
-0.0009584999999999993,0.0005130722103030214
-0.0009572499999999998,0.00017737101566170366
-0.0009559999999999994,0.000513072210303174
-0.0009547499999999999,0.00017737101566170366
-0.0009534999999999995,0.00017737101566170366
-0.00095225,-0.0008297325682622494
-0.0009509999999999996,-0.0008297325682627074
-0.0009497500000000001,0.0005130722103025634
-0.0009484999999999997,-0.0001583301789797667
-0.0009472499999999993,0.0008487734049444917
-0.0009459999999999998,0.000513072210303174
-0.0009447499999999994,0.000513072210303174
-0.0009434999999999999,-0.0001583301789797667
-0.0009422499999999995,0.00017737101566170366
-0.000941,-0.00015833017897961404
-0.0009397499999999996,0.00017737101566170366
-0.0009385000000000001,-0.00015833017897961404
-0.0009372499999999997,-0.0001583301789797667
-0.0009359999999999993,0.000513072210303174
-0.0009347499999999998,0.000513072210303174
-0.0009334999999999994,0.00017737101566170366
-0.0009322499999999999,0.000513072210303174
-0.0009309999999999995,0.00017737101566170366
-0.00092975,-0.0008297325682622494
-0.0009284999999999996,-0.0004940313736212371
-0.0009272499999999993,0.0008487734049443391
-0.0009259999999999997,0.00017737101566170366
-0.0009247499999999994,-0.0001583301789794614
-0.0009234999999999998,0.000513072210303174
-0.0009222499999999995,0.00017737101566170366
-0.0009209999999999999,-0.0004940313736212371
-0.0009197499999999996,0.000513072210303174
-0.0009185,0.000513072210303174
-0.0009172499999999997,0.000513072210303174
-0.0009159999999999993,-0.0001583301789797667
-0.0009147499999999998,-0.0001583301789797667
-0.0009134999999999994,0.0001773710156612457
-0.0009122499999999999,-0.0008297325682627074
-0.0009109999999999995,-0.0008297325682627074
-0.00090975,0.0005130722103025634
-0.0009084999999999996,0.0008487734049446444
-0.0009072500000000001,-0.0008297325682619441
-0.0009059999999999997,0.00017737101566170366
-0.0009047499999999993,0.0001773710156618563
-0.0009034999999999998,0.000513072210303174
-0.0009022499999999994,0.0008487734049446444
-0.0009009999999999999,0.000513072210303174
-0.0008997499999999995,0.000513072210303174
-0.0008985,0.0001773710156618563
-0.0008972499999999996,-0.0004940313736212371
-0.0008960000000000001,-0.00015833017897991936
-0.0008947499999999997,-0.0001583301789797667
-0.0008934999999999993,0.00017737101566170366
-0.0008922499999999998,0.00017737101566170366
-0.0008909999999999994,0.000513072210303174
-0.0008897499999999999,0.00017737101566170366
-0.0008884999999999995,0.00017737101566170366
-0.00088725,0.0005130722103030214
-0.0008859999999999996,0.0008487734049446444
-0.0008847499999999993,0.000513072210302716
-0.0008834999999999997,-0.0004940313736212371
-0.0008822499999999994,-0.00015833017897930873
-0.0008809999999999998,0.0008487734049446444
-0.0008797499999999995,0.0008487734049446444
-0.0008784999999999999,0.000513072210303174
-0.0008772499999999996,-0.0001583301789797667
-0.000876,-0.0008297325682624021
-0.0008747499999999997,0.00017737101566170366
-0.0008734999999999993,0.000177371015661551
-0.0008722499999999998,-0.0001583301789797667
-0.0008709999999999994,0.00017737101566170366
-0.0008697499999999999,0.00017737101566170366
-0.0008684999999999995,0.00017737101566170366
-0.00086725,0.0005130722103030214
-0.0008659999999999996,-0.0001583301789797667
-0.0008647500000000001,0.0005130722103028687
-0.0008634999999999997,0.00017737101566170366
-0.0008622499999999993,0.0005130722103028687
-0.0008609999999999998,-0.0001583301789797667
-0.0008597499999999994,-0.0001583301789797667
-0.0008584999999999999,-0.0004940313736212371
-0.0008572499999999995,0.0008487734049446444
-0.000856,0.0005130722103033267
-0.0008547499999999996,-0.0001583301789797667
-0.0008535000000000001,0.0005130722103028687
-0.0008522499999999997,0.000513072210303174
-0.0008509999999999993,0.00017737101566170366
-0.0008497499999999998,0.00017737101566170366
-0.0008484999999999994,-0.0001583301789797667
-0.0008472499999999999,-0.0004940313736212371
-0.0008459999999999995,-0.0001583301789797667
-0.00084475,-0.0004940313736210844
-0.0008434999999999996,-0.0001583301789797667
-0.0008422499999999992,-0.0001583301789797667
-0.0008409999999999997,-0.0001583301789797667
-0.0008397499999999994,0.00017737101566170366
-0.0008384999999999998,0.00017737101566170366
-0.0008372499999999995,0.00017737101566170366
-0.0008359999999999999,0.000513072210303174
-0.0008347499999999996,0.0008487734049446444
-0.0008335,-0.00015833017897930873
-0.0008322499999999997,0.0008487734049446444
-0.0008309999999999993,0.0008487734049441864
-0.0008297499999999998,-0.0001583301789797667
-0.0008284999999999994,0.00017737101566170366
-0.0008272499999999999,0.00017737101566170366
-0.0008259999999999995,-0.0001583301789797667
-0.00082475,0.000177371015661551
-0.0008234999999999996,0.00017737101566170366
-0.0008222500000000001,0.0005130722103030214
-0.0008209999999999997,0.00017737101566170366
-0.0008197499999999993,0.0005130722103030214
-0.0008184999999999998,0.00017737101566170366
-0.0008172499999999994,-0.0001583301789797667
-0.0008159999999999999,0.0008487734049446444
-0.0008147499999999995,0.000513072210303174
-0.0008135,-0.0001583301789794614
-0.0008122499999999996,-0.0001583301789797667
-0.0008110000000000001,0.000177371015661551
-0.0008097499999999997,0.00017737101566170366
-0.0008084999999999993,0.0005130722103025634
-0.0008072499999999998,-0.0008297325682627074
-0.0008059999999999994,0.000513072210303174
-0.0008047499999999999,-0.0001583301789797667
-0.0008034999999999995,0.000513072210303174
-0.00080225,-0.0001583301789794614
-0.0008009999999999996,0.000513072210303174
-0.0007997499999999992,0.00017737101566200897
-0.0007984999999999997,0.0008487734049446444
-0.0007972499999999993,-0.0004940313736212371
-0.0007959999999999998,-0.0004940313736212371
-0.0007947499999999994,0.000513072210303174
-0.0007934999999999999,0.0008487734049446444
-0.0007922499999999996,0.000513072210303174
-0.000791,0.0001773710156618563
-0.0007897499999999997,-0.0004940313736212371
-0.0007884999999999993,0.00017737101566170366
-0.0007872499999999998,0.00017737101566170366
-0.0007859999999999994,0.0005130722103028687
-0.0007847499999999999,-0.0001583301789797667
-0.0007834999999999995,-0.0001583301789797667
-0.00078225,0.0005130722103028687
-0.0007809999999999996,-0.0004940313736212371
-0.0007797500000000001,-0.00015833017897991936
-0.0007784999999999997,-0.0001583301789797667
-0.0007772499999999993,0.000177371015661551
-0.0007759999999999998,-0.0001583301789797667
-0.0007747499999999994,0.00017737101566170366
-0.0007734999999999999,-0.0001583301789797667
-0.0007722499999999995,0.0008487734049446444
-0.000771,-0.00015833017897930873
-0.0007697499999999996,0.00017737101566170366
-0.0007685000000000001,-0.0004940313736209317
-0.0007672499999999997,0.00017737101566170366
-0.0007659999999999993,-0.0008297325682619441
-0.0007647499999999998,0.0008487734049446444
-0.0007634999999999994,-0.0008297325682627074
-0.0007622499999999999,0.000513072210303174
-0.0007609999999999995,0.000513072210303174
-0.00075975,0.000513072210303174
-0.0007584999999999996,0.00017737101566170366
-0.0007572499999999992,-0.0008297325682625548
-0.0007559999999999997,-0.0004940313736212371
-0.0007547499999999993,0.000513072210303174
-0.0007534999999999998,0.000513072210303174
-0.0007522499999999994,0.000513072210303174
-0.0007509999999999999,-0.0008297325682627074
-0.0007497499999999995,-0.0001583301789797667
-0.0007485,-0.0001583301789797667
-0.0007472499999999997,0.00017737101566170366
-0.0007459999999999993,0.00017737101566170366
-0.0007447499999999998,0.00017737101566170366
-0.0007434999999999994,0.00017737101566200897
-0.0007422499999999999,0.0008487734049446444
-0.0007409999999999995,0.00017737101566170366
-0.00073975,0.0005130722103030214
-0.0007384999999999996,-0.0004940313736212371
-0.0007372500000000001,0.00017737101566139835
-0.0007359999999999997,-0.0008297325682627074
-0.0007347499999999993,-0.00015833017897961404
-0.0007334999999999998,0.00017737101566170366
-0.0007322499999999994,0.00017737101566170366
-0.0007309999999999999,-0.0001583301789797667
-0.0007297499999999995,0.00017737101566170366
-0.0007285,-0.0004940313736209317
-0.0007272499999999996,0.00017737101566170366
-0.0007260000000000001,0.00017737101566170366
-0.0007247499999999997,0.0008487734049446444
-0.0007234999999999993,0.0008487734049441864
-0.0007222499999999998,-0.0001583301789797667
-0.0007209999999999994,0.00017737101566170366
-0.0007197499999999999,0.0011844745995861147
-0.0007184999999999995,0.00017737101566170366
-0.00071725,0.00017737101566170366
-0.0007159999999999996,0.00017737101566170366
-0.0007147499999999992,0.0001773710156618563
-0.0007134999999999997,0.000513072210303174
-0.0007122499999999993,-0.0004940313736209317
-0.0007109999999999998,0.00017737101566170366
-0.0007097499999999994,0.0008487734049446444
-0.0007084999999999999,0.00017737101566170366
-0.0007072499999999995,-0.0001583301789797667
-0.000706,0.0008487734049441864
-0.0007047499999999996,0.00017737101566170366
-0.0007034999999999993,0.00017737101566139835
-0.0007022499999999997,-0.0004940313736212371
-0.0007009999999999994,0.0011844745995851988
-0.0006997499999999999,-0.0008297325682627074
-0.0006984999999999995,-0.0001583301789797667
-0.00069725,0.0005130722103028687
-0.0006959999999999996,-0.0001583301789797667
-0.0006947500000000001,0.000177371015661551
-0.0006934999999999997,-0.0001583301789797667
-0.0006922499999999993,0.00017737101566170366
-0.0006909999999999998,0.00017737101566170366
-0.0006897499999999994,0.00017737101566170366
-0.0006884999999999999,0.0008487734049446444
-0.0006872499999999995,0.0008487734049446444
-0.000686,-0.0004940313736206264
-0.0006847499999999996,-0.0004940313736212371
-0.0006835000000000001,0.00017737101566139835
-0.0006822499999999997,-0.0004940313736212371
-0.0006809999999999993,-0.0004940313736209317
-0.0006797499999999998,0.00017737101566170366
-0.0006784999999999994,0.00017737101566170366
-0.0006772499999999999,0.0008487734049446444
-0.0006759999999999995,0.00017737101566170366
-0.00067475,0.00017737101566170366
-0.0006734999999999996,0.0008487734049446444
-0.0006722499999999992,0.000177371015661551
-0.0006709999999999997,-0.0001583301789797667
-0.0006697499999999993,-0.0001583301789797667
-0.0006684999999999998,-0.0001583301789797667
-0.0006672499999999994,-0.0004940313736212371
-0.0006659999999999999,-0.0004940313736212371
-0.0006647499999999995,-0.0001583301789797667
-0.0006635,0.000177371015661551
-0.0006622499999999996,-0.0001583301789797667
-0.0006609999999999993,0.000513072210303174
-0.0006597499999999997,0.000513072210303174
-0.0006584999999999994,0.0001773710156618563
-0.0006572499999999998,0.000513072210303174
-0.0006559999999999995,-0.0004940313736212371
-0.00065475,-0.0001583301789797667
-0.0006534999999999996,-0.0001583301789797667
-0.00065225,-0.0001583301789797667
-0.0006509999999999997,0.000513072210303174
-0.0006497499999999993,0.0008487734049444917
-0.0006484999999999998,0.000513072210303174
-0.0006472499999999994,0.0008487734049446444
-0.0006459999999999999,-0.0001583301789797667
-0.0006447499999999995,0.00017737101566170366
-0.0006435,-0.00015833017897961404
-0.0006422499999999996,0.0008487734049446444
-0.0006410000000000001,0.00017737101566200897
-0.0006397499999999997,0.00017737101566170366
-0.0006384999999999993,0.00017737101566139835
-0.0006372499999999998,-0.0004940313736212371
-0.0006359999999999994,0.00017737101566170366
-0.0006347499999999999,0.00017737101566170366
-0.0006334999999999995,0.000513072210303174
-0.00063225,0.0001773710156618563
-0.0006309999999999996,-0.0008297325682627074
-0.0006297499999999992,0.000177371015661551
-0.0006284999999999997,-0.0001583301789797667
-0.0006272499999999993,0.0008487734049440337
-0.0006259999999999998,-0.0004940313736212371
-0.0006247499999999994,-0.0008297325682627074
-0.0006234999999999999,0.0008487734049446444
-0.0006222499999999995,0.000513072210303174
-0.000621,0.0001773710156618563
-0.0006197499999999996,0.00017737101566170366
-0.0006184999999999993,-0.0001583301789797667
-0.0006172499999999997,-0.0001583301789797667
-0.0006159999999999994,0.0008487734049444917
-0.0006147499999999998,0.000513072210303174
-0.0006134999999999995,0.000513072210303174
-0.00061225,0.00017737101566170366
-0.0006109999999999996,0.000513072210303174
-0.00060975,-0.0001583301789794614
-0.0006084999999999997,0.0008487734049446444
-0.0006072499999999993,0.000177371015661551
-0.0006059999999999998,-0.0001583301789797667
-0.0006047499999999994,-0.0001583301789797667
-0.0006034999999999999,0.00017737101566170366
-0.0006022499999999995,0.000513072210303174
-0.000601,-0.0001583301789794614
-0.0005997499999999996,-0.0011654337629041778
-0.0005985000000000001,0.0005130722103024107
-0.0005972499999999997,-0.0001583301789797667
-0.0005959999999999993,0.0005130722103028687
-0.0005947499999999998,-0.0001583301789797667
-0.0005934999999999994,-0.0001583301789797667
-0.0005922499999999999,0.000513072210303174
-0.0005909999999999995,0.00017737101566170366
-0.00058975,0.0008487734049443391
-0.0005884999999999996,0.00017737101566170366
-0.0005872500000000001,0.00017737101566170366
-0.0005859999999999997,-0.0008297325682627074
-0.0005847499999999993,-0.0001583301789794614
-0.0005834999999999998,0.000513072210303174
-0.0005822499999999994,0.000513072210303174
-0.0005809999999999999,-0.0001583301789797667
-0.0005797499999999995,0.000513072210303174
-0.0005785,-0.0004940313736207791
-0.0005772499999999996,0.000513072210303174
-0.0005759999999999993,0.0008487734049444917
-0.0005747499999999997,0.000513072210303174
-0.0005734999999999994,-0.0008297325682624021
-0.0005722499999999998,-0.0001583301789797667
-0.0005709999999999995,0.00017737101566170366
-0.0005697499999999999,0.000513072210303174
-0.0005684999999999996,-0.0001583301789797667
-0.00056725,-0.0004940313736210844
-0.0005659999999999997,0.000513072210303174
-0.0005647499999999993,-0.0004940313736206264
-0.0005634999999999998,0.0008487734049446444
-0.0005622499999999994,0.0005130722103030214
-0.0005609999999999999,0.00017737101566170366
-0.0005597499999999995,0.00017737101566170366
