RawData/acq0010.csv

#Digilent WaveForms Oscilloscope Acquisition
#Device Name: Discovery2
#Serial Number: SN:210321B282B2
#Date Time: 2026-05-20 12:12:54.158
#Sample rate: 800000Hz
#Samples: 8192
#Trigger: Source: Channel 1 Type: Edge Condition: Rising Level: 250 mV Hyst.: Auto HoldOff: 0 s
#Channel 1: Range: 200 mV/div Offset: 0 V Sample Mode: Average

Time (s),Channel 1 (V)
-0.0011193750000000006,0.06328919560825813
-0.0011181250000000002,0.06328919560825813
-0.0011168749999999998,0.06328919560825828
-0.0011156250000000003,0.0636248968028996
-0.001114375,0.0636248968028996
-0.0011131250000000004,0.06328919560825813
-0.001111875,0.06396059799754109
-0.0011106250000000005,0.0642962991921824
-0.0011093750000000001,0.0636248968028996
-0.0011081249999999997,0.06429629919218285
-0.0011068750000000002,0.06496770158146548
-0.0011056249999999998,0.06429629919218255
-0.0011043750000000003,0.06429629919218255
-0.001103125,0.06463200038682401
-0.0011018750000000004,0.06463200038682401
-0.001100625,0.06530340277610697
-0.0010993750000000005,0.064296299192183
-0.0010981250000000001,0.06496770158146548
-0.0010968749999999998,0.06429629919218255
-0.0010956250000000002,0.06429629919218255
-0.0010943749999999999,0.06563910397074782
-0.0010931250000000003,0.06429629919218255
-0.001091875,0.06496770158146548
-0.0010906250000000004,0.06496770158146548
-0.001089375,0.06563910397074843
-0.0010881250000000006,0.06496770158146578
-0.0010868750000000002,0.06463200038682401
-0.0010856249999999998,0.06496770158146548
-0.0010843750000000003,0.06496770158146548
-0.0010831249999999999,0.06496770158146548
-0.0010818750000000004,0.06563910397074843
-0.001080625,0.06496770158146548
-0.0010793750000000005,0.06563910397074812
-0.001078125,0.0659748051653899
-0.0010768750000000006,0.06530340277610727
-0.0010756250000000002,0.0659748051653899
-0.0010743749999999998,0.06563910397074828
-0.0010731250000000003,0.06530340277610697
-0.001071875,0.06563910397074843
-0.0010706250000000004,0.06563910397074843
-0.001069375,0.0659748051653899
-0.0010681250000000005,0.0659748051653899
-0.0010668750000000001,0.06530340277610697
-0.0010656249999999997,0.06597480516538974
-0.0010643750000000002,0.06563910397074843
-0.0010631249999999998,0.0659748051653902
-0.0010618750000000003,0.06664620755467285
-0.001060625,0.06664620755467285
-0.0010593750000000004,0.06631050636003136
-0.001058125,0.06664620755467285
-0.0010568750000000005,0.06631050636003151
-0.0010556250000000001,0.06631050636003136
-0.0010543749999999998,0.06664620755467239
-0.0010531250000000002,0.06563910397074843
-0.0010518749999999999,0.06631050636003136
-0.0010506250000000003,0.06631050636003136
-0.001049375,0.06664620755467285
-0.0010481250000000004,0.06664620755467285
-0.001046875,0.06631050636003136
-0.0010456250000000005,0.06597480516539005
-0.0010443750000000002,0.06698190874931431
-0.0010431249999999998,0.06731760994395562
-0.0010418750000000003,0.06698190874931431
-0.0010406249999999999,0.06664620755467285
-0.0010393750000000004,0.06698190874931431
-0.001038125,0.06731760994395578
-0.0010368750000000005,0.06731760994395578
-0.001035625,0.06765331113859724
-0.0010343750000000006,0.06765331113859724
-0.0010331250000000002,0.06664620755467285
-0.0010318749999999998,0.06664620755467315
-0.0010306250000000003,0.06731760994395578
-0.001029375,0.06765331113859724
-0.0010281250000000004,0.06765331113859724
-0.001026875,0.06698190874931431
-0.0010256250000000005,0.06731760994395562
-0.0010243750000000001,0.06798901233323873
-0.0010231249999999997,0.06832471352788035
-0.0010218750000000002,0.06866041472252166
-0.0010206249999999998,0.06765331113859739
-0.0010193750000000003,0.06798901233323873
-0.001018125,0.06731760994395578
-0.0010168750000000004,0.06731760994395578
-0.001015625,0.06765331113859724
-0.0010143750000000005,0.06798901233323858
-0.0010131250000000001,0.06798901233323873
-0.0010118749999999998,0.06798901233323904
-0.0010106250000000002,0.06866041472252166
-0.0010093749999999999,0.06731760994395623
-0.0010081250000000003,0.0683247135278802
-0.001006875,0.06933181711180461
-0.0010056250000000004,0.0683247135278802
-0.001004375,0.06899611591716312
-0.0010031250000000005,0.0683247135278805
-0.0010018750000000002,0.06866041472252166
-0.0010006249999999998,0.06798901233323919
-0.0009993750000000003,0.06899611591716312
-0.0009981249999999999,0.0683247135278802
-0.0009968750000000004,0.0683247135278802
-0.000995625,0.06866041472252166
-0.0009943750000000005,0.0693318171118043
-0.000993125,0.06899611591716312
-0.0009918750000000006,0.06899611591716312
-0.0009906250000000002,0.06866041472252166
-0.0009893749999999998,0.06933181711180461
-0.0009881250000000003,0.06933181711180461
-0.000986875,0.07000321950108754
-0.0009856250000000004,0.06966751830644607
-0.000984375,0.06933181711180461
-0.0009831250000000005,0.06966751830644592
-0.0009818750000000001,0.06866041472252166
-0.0009806249999999997,0.070338920695729
-0.0009793750000000002,0.070338920695729
-0.0009781249999999998,0.06899611591716343
-0.0009768750000000003,0.06966751830644607
-0.0009756249999999999,0.06966751830644607
-0.0009743750000000004,0.07000321950108754
-0.000973125,0.06966751830644607
-0.0009718750000000005,0.06966751830644607
-0.0009706250000000001,0.07067462189037049
-0.0009693749999999998,0.0703389206957287
-0.0009681250000000002,0.06966751830644607
-0.0009668749999999999,0.07033892069572885
-0.0009656250000000003,0.07000321950108754
-0.000964375,0.070338920695729
-0.0009631250000000004,0.07000321950108754
-0.0009618750000000001,0.070338920695729
-0.0009606250000000005,0.07134602427965296
-0.0009593750000000002,0.07000321950108754
-0.0009581249999999998,0.07101032308501196
-0.0009568750000000003,0.07101032308501196
-0.0009556249999999999,0.07101032308501196
-0.0009543750000000004,0.07101032308501196
-0.000953125,0.07101032308501196
-0.0009518750000000005,0.07101032308501196
-0.0009506250000000001,0.07101032308501196
-0.0009493750000000006,0.07134602427965327
-0.0009481250000000002,0.07168172547429488
-0.0009468749999999998,0.07101032308501211
-0.0009456250000000003,0.07134602427965342
-0.0009443749999999999,0.07134602427965342
-0.0009431250000000004,0.07201742666893637
-0.000941875,0.07067462189037049
-0.0009406250000000005,0.07201742666893576
-0.0009393750000000001,0.07168172547429488
-0.0009381250000000006,0.07268882905821884
-0.0009368750000000002,0.0726888290582193
-0.0009356249999999998,0.07134602427965388
-0.0009343750000000003,0.07235312786357784
-0.0009331249999999999,0.07134602427965342
-0.0009318750000000004,0.0726888290582193
-0.000930625,0.07235312786357784
-0.0009293750000000005,0.07235312786357784
-0.0009281250000000001,0.0726888290582193
-0.0009268749999999997,0.0733602314475018
-0.0009256250000000002,0.07235312786357784
-0.0009243749999999998,0.072688829058219
-0.0009231250000000003,0.07201742666893637
-0.000921875,0.07302453025286076
-0.0009206250000000004,0.07336023144750226
-0.000919375,0.07403163383678518
-0.0009181250000000005,0.07336023144750256
-0.0009168750000000002,0.07369593264214372
-0.0009156249999999998,0.0733602314475021
-0.0009143750000000003,0.07302453025286076
-0.0009131249999999999,0.0723531278635786
-0.0009118750000000004,0.07403163383678518
-0.000910625,0.07470303622606814
-0.0009093750000000005,0.0743673350314268
-0.0009081250000000001,0.07336023144750226
-0.0009068750000000006,0.07403163383678488
-0.0009056250000000002,0.07436733503142665
-0.0009043749999999998,0.07436733503142695
-0.0009031250000000003,0.0750387374207096
-0.0009018749999999999,0.07336023144750226
-0.0009006250000000004,0.0750387374207096
-0.000899375,0.07470303622606814
-0.0008981250000000005,0.07537443861535076
-0.0008968750000000001,0.07436733503142665
-0.0008956250000000006,0.0750387374207093
-0.0008943750000000002,0.07537443861535106
-0.0008931249999999998,0.07537443861535122
-0.0008918750000000003,0.07571013980999253
-0.0008906249999999999,0.07470303622606814
-0.0008893750000000004,0.07537443861535106
-0.000888125,0.07537443861535106
-0.0008868750000000005,0.07571013980999237
-0.0008856250000000001,0.07604584100463402
-0.0008843749999999997,0.07604584100463387
-0.0008831250000000002,0.07571013980999253
-0.0008818749999999998,0.07604584100463402
-0.0008806250000000003,0.07604584100463402
-0.000879375,0.07571013980999253
-0.0008781250000000004,0.07638154219927548
-0.000876875,0.07671724339391695
-0.0008756250000000005,0.07604584100463432
-0.0008743750000000002,0.07537443861535106
-0.0008731249999999998,0.07571013980999344
-0.0008718750000000003,0.07772434697784136
-0.0008706249999999999,0.0777243469778406
-0.0008693750000000004,0.07604584100463402
-0.000868125,0.0773886457831999
-0.0008668750000000005,0.07671724339391725
-0.0008656250000000001,0.07671724339391695
-0.0008643750000000006,0.07806004817248222
-0.0008631250000000002,0.07671724339391695
-0.0008618749999999998,0.07772434697784106
-0.0008606250000000003,0.07705294458855841
-0.0008593749999999999,0.07806004817248283
-0.0008581250000000004,0.07772434697784136
-0.000856875,0.07839574936712429
-0.0008556250000000005,0.07806004817248298
-0.0008543750000000001,0.07772434697784136
-0.0008531250000000006,0.07806004817248267
-0.0008518750000000002,0.07772434697784136
-0.0008506249999999998,0.07806004817248252
-0.0008493750000000003,0.0773886457831999
-0.0008481249999999999,0.07806004817248283
-0.0008468750000000004,0.07873145056176578
-0.000845625,0.07906715175640724
-0.0008443750000000005,0.0783957493671246
-0.0008431250000000001,0.07873145056176578
-0.0008418749999999997,0.07873145056176563
-0.0008406250000000002,0.07839574936712429
-0.0008393749999999998,0.0783957493671246
-0.0008381250000000003,0.07906715175640724
-0.0008368749999999999,0.07906715175640724
-0.0008356250000000004,0.07940285295104871
-0.000834375,0.07839574936712429
-0.0008331250000000005,0.07906715175640694
-0.0008318750000000001,0.08007425534033166
-0.0008306249999999998,0.08007425534033166
-0.0008293750000000003,0.08007425534033166
-0.0008281249999999999,0.07940285295104886
-0.0008268750000000004,0.07973855414569017
-0.000825625,0.07906715175640724
-0.0008243750000000005,0.0800742553403312
-0.0008231250000000001,0.08040995653497313
-0.0008218750000000006,0.08040995653497313
-0.0008206250000000002,0.08040995653497313
-0.0008193749999999998,0.08007425534033197
-0.0008181250000000003,0.08074565772961459
-0.0008168749999999999,0.07973855414569017
-0.0008156250000000004,0.08074565772961459
-0.000814375,0.08074565772961459
-0.0008131250000000005,0.0810813589242559
-0.0008118750000000001,0.08007425534033166
-0.0008106250000000006,0.08040995653497297
-0.0008093750000000002,0.08040995653497313
-0.0008081249999999998,0.08141706011889739
-0.0008068750000000003,0.08108135892425605
-0.0008056249999999999,0.08108135892425605
-0.0008043750000000004,0.08108135892425605
-0.000803125,0.08108135892425605
-0.0008018750000000005,0.08040995653497343
-0.0008006250000000001,0.08208846250818047
-0.0007993749999999997,0.08108135892425636
-0.0007981250000000002,0.08175276131353901
-0.0007968749999999998,0.08141706011889754
-0.0007956250000000003,0.08141706011889754
-0.0007943749999999999,0.08175276131353901
-0.0007931250000000004,0.08175276131353901
-0.000791875,0.08175276131353901
-0.0007906250000000005,0.08175276131353901
-0.0007893750000000001,0.08242416370282193
-0.0007881249999999998,0.08242416370282148
-0.0007868750000000002,0.08141706011889754
-0.0007856249999999999,0.08242416370282178
-0.0007843750000000003,0.08208846250818047
-0.000783125,0.08242416370282193
-0.0007818750000000005,0.08108135892425666
-0.0007806250000000001,0.08242416370282193
-0.0007793750000000006,0.08175276131353931
-0.0007781250000000002,0.08141706011889754
-0.0007768749999999998,0.08175276131353962
-0.0007756250000000003,0.08309556609210489
-0.0007743749999999999,0.08309556609210489
-0.0007731250000000004,0.08208846250818047
-0.000771875,0.08208846250818047
-0.0007706250000000005,0.08242416370282178
-0.0007693750000000001,0.08275986489746343
-0.0007681250000000006,0.08242416370282209
-0.0007668750000000002,0.0841026696760293
-0.0007656249999999998,0.08275986489746373
-0.0007643750000000003,0.08343126728674635
-0.0007631249999999999,0.08275986489746343
-0.0007618750000000004,0.08242416370282193
-0.000760625,0.08208846250818047
-0.0007593750000000005,0.08309556609210443
-0.0007581250000000001,0.08242416370282193
-0.0007568749999999997,0.08376696848138751
-0.0007556250000000002,0.08309556609210489
-0.0007543749999999998,0.08376696848138751
-0.0007531250000000003,0.08309556609210489
-0.0007518749999999999,0.08343126728674635
-0.0007506250000000004,0.08343126728674635
-0.000749375,0.08376696848138782
-0.0007481250000000005,0.0830955660921052
-0.0007468750000000001,0.08343126728674635
-0.0007456249999999998,0.08410266967602915
-0.0007443750000000002,0.08376696848138782
-0.0007431249999999999,0.0834312672867465
-0.0007418750000000003,0.08376696848138782
-0.000740625,0.08443837087067077
-0.0007393750000000004,0.08343126728674681
-0.0007381250000000001,0.08309556609210489
-0.0007368750000000006,0.08242416370282224
-0.0007356250000000002,0.08376696848138782
-0.0007343749999999998,0.08343126728674635
-0.0007331250000000003,0.08343126728674635
-0.0007318749999999999,0.08376696848138782
-0.0007306250000000004,0.08477407206531223
-0.000729375,0.0841026696760293
-0.0007281250000000005,0.0841026696760293
-0.0007268750000000001,0.0841026696760293
-0.0007256250000000006,0.08376696848138797
-0.0007243750000000002,0.08443837087067077
-0.0007231249999999998,0.08510977325995324
-0.0007218750000000003,0.0841026696760293
-0.0007206249999999999,0.08443837087067077
-0.0007193750000000004,0.08443837087067077
-0.000718125,0.08443837087067077
-0.0007168750000000005,0.08510977325995339
-0.0007156250000000001,0.0841026696760293
-0.0007143749999999997,0.08443837087067046
-0.0007131250000000002,0.08376696848138782
-0.0007118749999999998,0.08477407206531223
-0.0007106250000000003,0.08477407206531223
-0.0007093749999999999,0.08477407206531223
-0.0007081250000000004,0.0851097732599537
-0.000706875,0.0841026696760293
-0.0007056250000000005,0.08510977325995324
-0.0007043750000000001,0.08544547445459519
-0.0007031249999999998,0.08443837087067092
-0.0007018750000000002,0.08477407206531223
-0.0007006249999999999,0.08410266967602992
-0.0006993750000000003,0.08544547445459519
-0.000698125,0.0851097732599537
-0.0006968750000000004,0.08611687684387766
-0.0006956250000000001,0.08544547445459519
-0.0006943750000000005,0.0857811756492365
-0.0006931250000000002,0.0851097732599537
-0.0006918749999999998,0.08544547445459519
-0.0006906250000000003,0.08544547445459519
-0.0006893749999999999,0.0851097732599537
-0.0006881250000000004,0.08544547445459519
-0.000686875,0.08544547445459519
-0.0006856250000000005,0.0857811756492365
-0.0006843750000000001,0.08611687684387812
-0.0006831250000000006,0.0857811756492368
-0.0006818750000000002,0.08578117564923665
-0.0006806249999999998,0.08611687684387781
-0.0006793750000000003,0.08544547445459519
-0.0006781249999999999,0.08611687684387812
-0.0006768750000000004,0.08645257803851958
-0.000675625,0.08645257803851958
-0.0006743750000000005,0.08611687684387827
-0.0006731250000000001,0.08578117564923665
-0.0006718749999999997,0.08779538281708454
-0.0006706250000000002,0.08578117564923665
-0.0006693749999999998,0.08678827923316122
-0.0006681250000000003,0.08712398042780253
-0.0006668749999999999,0.08645257803851958
-0.0006656250000000004,0.08712398042780253
-0.000664375,0.08678827923316107
-0.0006631250000000005,0.08678827923316107
-0.0006618750000000001,0.087459681622444
-0.0006606249999999998,0.08645257803852004
-0.0006593750000000002,0.087459681622444
-0.0006581249999999999,0.08846678520636826
-0.0006568750000000003,0.08813108401172695
-0.000655625,0.087459681622444
-0.0006543750000000004,0.087459681622444
-0.0006531250000000001,0.087459681622444
-0.0006518750000000005,0.08779538281708531
-0.0006506250000000002,0.08779538281708546
-0.0006493749999999998,0.08846678520636826
-0.0006481250000000003,0.08813108401172695
-0.0006468749999999999,0.08880248640100988
-0.0006456250000000004,0.08813108401172695
-0.000644375,0.08880248640100988
-0.0006431250000000005,0.08880248640100988
-0.0006418750000000001,0.08913818759565134
-0.0006406250000000006,0.08947388879029268
-0.0006393750000000002,0.09014529117957576
-0.0006381249999999998,0.08947388879029253
-0.0006368750000000003,0.08880248640100988
-0.0006356249999999999,0.09014529117957576
-0.0006343750000000004,0.08947388879029283
-0.000633125,0.09014529117957576
-0.0006318750000000005,0.09048099237421707
-0.0006306250000000001,0.09014529117957576
-0.0006293749999999997,0.09014529117957576
-0.0006281250000000002,0.09014529117957576
-0.0006268749999999998,0.09014529117957606
-0.0006256250000000003,0.09081669356885871
-0.0006243749999999999,0.09115239476350018
-0.0006231250000000004,0.0921594983474246
-0.000621875,0.09148809595814164
-0.0006206250000000005,0.09115239476350033
-0.0006193750000000001,0.09148809595814164
-0.0006181249999999998,0.0914880959581418
-0.0006168750000000002,0.0918237971527831
-0.0006156249999999999,0.09182379715278371
-0.0006143750000000003,0.09316660193134899
-0.000613125,0.09283090073670752
-0.0006118750000000004,0.0921594983474246
-0.0006106250000000001,0.09283090073670752
-0.0006093750000000005,0.09283090073670752
-0.0006081250000000002,0.09383800432063194
-0.0006068749999999998,0.09316660193134914
-0.0006056250000000003,0.09350230312599048
-0.0006043749999999999,0.09350230312599048
-0.0006031250000000004,0.09350230312599048
-0.000601875,0.09350230312599048
-0.0006006250000000005,0.09450940670991441
-0.0005993750000000001,0.0941737055152734
-0.0005981250000000006,0.09484510790455605
-0.0005968750000000002,0.09518080909919782
-0.0005956249999999998,0.09551651029383898
-0.0005943750000000003,0.09484510790455636
-0.0005931249999999999,0.09484510790455636
-0.0005918750000000004,0.09518080909919782
-0.000590625,0.09585221148848075
-0.0005893750000000005,0.09518080909919813
-0.0005881250000000001,0.09551651029383929
-0.0005868750000000006,0.09618791268312193
-0.0005856250000000002,0.0965236138777637
-0.0005843749999999998,0.0965236138777637
-0.0005831250000000003,0.0965236138777637
-0.0005818749999999999,0.09685931507240517
-0.0005806250000000004,0.09719501626704663
-0.000579375,0.09685931507240517
-0.0005781250000000005,0.09685931507240517
-0.0005768750000000001,0.09786641865632958
-0.0005756249999999997,0.0985378210456122
-0.0005743750000000002,0.09786641865632958
-0.0005731249999999998,0.09719501626704724
-0.0005718750000000003,0.09853782104561251
-0.000570625,0.098873522240254
-0.0005693750000000004,0.098873522240254
-0.000568125,0.09853782104561251
-0.0005668750000000005,0.09920922343489516
-0.0005656250000000002,0.09920922343489547
-0.0005643749999999998,0.09920922343489516
-0.0005631250000000003,0.09853782104561251
-0.0005618749999999999,0.10021632701881973
-0.0005606250000000004,0.09988062582417839
-0.000559375,0.09954492462953693
-0.0005581250000000005,0.10021632701881958
-0.0005568750000000001,0.10055202821346135
-0.0005556250000000006,0.09920922343489608
-0.0005543750000000002,0.10088772940810281
-0.0005531249999999998,0.10088772940810266
-0.0005518750000000003,0.10055202821346135
-0.0005506249999999999,0.10155913179738577
-0.0005493750000000004,0.10189483299202723
-0.000548125,0.10122343060274427
-0.0005468750000000005,0.10223053418666823
-0.0005456250000000001,0.10122343060274427
-0.0005443750000000006,0.10189483299202692
-0.0005431250000000002,0.10189483299202723
-0.0005418749999999998,0.1029019365759515
-0.0005406250000000003,0.10256623538131016
-0.0005393749999999999,0.10256623538131016
-0.0005381250000000004,0.10323763777059311
-0.000536875,0.10323763777059311
-0.0005356250000000005,0.1029019365759518
-0.0005343750000000001,0.10357333896523457
-0.0005331249999999997,0.10357333896523457
-0.0005318750000000002,0.10357333896523457
-0.0005306249999999998,0.10424474135451722
-0.0005293750000000003,0.10357333896523457
-0.000528125,0.10491614374380046
-0.0005268750000000004,0.10458044254915899
