RawData/acq0019.csv

#Digilent WaveForms Oscilloscope Acquisition
#Device Name: Discovery2
#Serial Number: SN:210321B282B2
#Date Time: 2026-05-20 12:13:10.438
#Sample rate: 800000Hz
#Samples: 8192
#Trigger: Source: Channel 1 Type: Edge Condition: Rising Level: 250 mV Hyst.: Auto HoldOff: 0 s
#Channel 1: Range: 200 mV/div Offset: 0 V Sample Mode: Average

Time (s),Channel 1 (V)
-0.0011195833333333335,0.00017737101566170366
-0.0011183333333333332,0.000513072210303174
-0.0011170833333333328,0.0008487734049444917
-0.0011158333333333333,0.000513072210303174
-0.0011145833333333329,0.0008487734049446444
-0.0011133333333333334,0.00017737101566170366
-0.001112083333333333,0.00017737101566170366
-0.0011108333333333335,0.00017737101566170366
-0.001109583333333333,0.000513072210303174
-0.0011083333333333327,0.001184474599585962
-0.0011070833333333332,0.0008487734049446444
-0.0011058333333333328,0.0011844745995856568
-0.0011045833333333333,0.00017737101566170366
-0.001103333333333333,0.0008487734049446444
-0.0011020833333333334,-0.0001583301789797667
-0.001100833333333333,0.000513072210303174
-0.0010995833333333335,-0.0001583301789794614
-0.001098333333333333,0.0008487734049446444
-0.0010970833333333327,0.0008487734049444917
-0.0010958333333333332,0.000513072210303174
-0.0010945833333333328,0.0005130722103030214
-0.0010933333333333333,0.00017737101566170366
-0.001092083333333333,0.000513072210303174
-0.0010908333333333334,0.000513072210303174
-0.001089583333333333,0.00017737101566170366
-0.0010883333333333335,0.00017737101566170366
-0.0010870833333333331,0.0008487734049446444
-0.0010858333333333327,-0.0001583301789797667
-0.0010845833333333332,-0.0001583301789797667
-0.0010833333333333328,0.000513072210303174
-0.0010820833333333333,0.0008487734049446444
-0.001080833333333333,0.000513072210303174
-0.0010795833333333334,0.0008487734049444917
-0.001078333333333333,0.00017737101566170366
-0.0010770833333333335,-0.00015833017897961404
-0.0010758333333333332,-0.0001583301789797667
-0.0010745833333333328,-0.0004940313736210844
-0.0010733333333333333,-0.0001583301789797667
-0.0010720833333333329,0.000513072210303174
-0.0010708333333333334,-0.0001583301789797667
-0.001069583333333333,0.0008487734049446444
-0.0010683333333333335,0.0005130722103033267
-0.001067083333333333,0.00017737101566170366
-0.0010658333333333327,0.00017737101566170366
-0.0010645833333333332,0.00017737101566170366
-0.0010633333333333328,0.00017737101566170366
-0.0010620833333333333,0.00017737101566170366
-0.001060833333333333,-0.0001583301789797667
-0.0010595833333333334,0.00017737101566170366
-0.001058333333333333,0.000513072210303174
-0.0010570833333333335,0.0001773710156618563
-0.001055833333333333,0.00017737101566170366
-0.0010545833333333327,0.0008487734049446444
-0.0010533333333333332,0.0008487734049446444
-0.0010520833333333328,0.00017737101566170366
-0.0010508333333333333,0.00017737101566170366
-0.001049583333333333,-0.0001583301789797667
-0.0010483333333333334,-0.0001583301789797667
-0.001047083333333333,0.0008487734049446444
-0.0010458333333333335,0.00017737101566200897
-0.0010445833333333331,-0.0001583301789797667
-0.0010433333333333327,0.0011844745995853515
-0.0010420833333333332,-0.0004940313736212371
-0.0010408333333333328,-0.0001583301789797667
-0.0010395833333333333,0.0008487734049446444
-0.001038333333333333,0.0008487734049446444
-0.0010370833333333334,0.00017737101566200897
-0.001035833333333333,0.000513072210303174
-0.0010345833333333335,0.0001773710156618563
-0.0010333333333333332,-0.0001583301789797667
-0.0010320833333333328,0.0005130722103030214
-0.0010308333333333333,0.00017737101566170366
-0.0010295833333333329,0.0008487734049446444
-0.0010283333333333334,0.000513072210303174
-0.001027083333333333,0.0008487734049446444
-0.0010258333333333335,0.00017737101566200897
-0.001024583333333333,0.0008487734049446444
-0.0010233333333333327,0.000513072210303174
-0.0010220833333333332,0.000513072210303174
-0.0010208333333333328,0.0008487734049441864
-0.0010195833333333333,-0.0001583301789797667
-0.001018333333333333,-0.0001583301789797667
-0.0010170833333333334,0.000513072210303174
-0.001015833333333333,0.00017737101566170366
-0.0010145833333333335,0.00017737101566170366
-0.001013333333333333,-0.0001583301789797667
-0.0010120833333333327,0.0005130722103028687
-0.0010108333333333332,-0.0001583301789797667
-0.0010095833333333328,0.000848773404944797
-0.0010083333333333333,0.0011844745995861147
-0.001007083333333333,0.0008487734049446444
-0.0010058333333333334,0.000513072210303174
-0.001004583333333333,0.00017737101566170366
-0.0010033333333333335,-0.00015833017897961404
-0.0010020833333333331,0.0008487734049446444
-0.0010008333333333327,0.00017737101566170366
-0.0009995833333333332,0.00017737101566170366
-0.0009983333333333328,0.00017737101566170366
-0.0009970833333333333,-0.0001583301789797667
-0.000995833333333333,0.00017737101566170366
-0.0009945833333333334,0.0015201757942269745
-0.000993333333333333,-0.0001583301789797667
-0.0009920833333333335,0.0005130722103028687
-0.0009908333333333331,0.000513072210303174
-0.0009895833333333328,0.0005130722103030214
-0.0009883333333333333,0.00017737101566170366
-0.0009870833333333329,0.00017737101566170366
-0.0009858333333333334,0.00017737101566170366
-0.000984583333333333,0.00017737101566170366
-0.0009833333333333335,0.00017737101566170366
-0.000982083333333333,0.000513072210303174
-0.0009808333333333327,0.0005130722103028687
-0.0009795833333333332,-0.0001583301789797667
-0.0009783333333333328,0.00017737101566170366
-0.0009770833333333333,0.00017737101566170366
-0.0009758333333333329,0.000513072210303174
-0.0009745833333333334,0.0008487734049446444
-0.000973333333333333,0.00017737101566170366
-0.0009720833333333335,-0.0008297325682622494
-0.0009708333333333331,0.000513072210303174
-0.0009695833333333327,0.0008487734049444917
-0.0009683333333333332,0.000513072210303174
-0.0009670833333333328,0.0005130722103028687
-0.0009658333333333333,-0.0001583301789797667
-0.0009645833333333329,0.0008487734049446444
-0.0009633333333333334,-0.0001583301789797667
-0.000962083333333333,-0.0004940313736212371
-0.0009608333333333335,0.000513072210302716
-0.0009595833333333331,-0.0001583301789797667
-0.0009583333333333327,-0.00015833017897930873
-0.0009570833333333332,0.0008487734049446444
-0.0009558333333333328,0.0008487734049446444
-0.0009545833333333333,0.000513072210303174
-0.0009533333333333329,0.0011844745995861147
-0.0009520833333333334,0.00017737101566216162
-0.000950833333333333,0.000513072210303174
-0.0009495833333333335,-0.0001583301789794614
-0.0009483333333333331,-0.0001583301789797667
-0.0009470833333333328,-0.00015833017897961404
-0.0009458333333333332,0.00017737101566170366
-0.0009445833333333329,0.00017737101566170366
-0.0009433333333333334,0.0011844745995861147
-0.000942083333333333,0.000513072210303174
-0.0009408333333333335,0.0001773710156618563
-0.0009395833333333331,0.000513072210303174
-0.0009383333333333336,0.0001773710156618563
-0.0009370833333333332,0.00017737101566170366
-0.0009358333333333328,0.0005130722103028687
-0.0009345833333333333,-0.0001583301789797667
-0.0009333333333333329,-0.0004940313736212371
-0.0009320833333333334,0.0011844745995861147
-0.000930833333333333,0.000513072210303174
-0.0009295833333333335,0.0008487734049444917
-0.0009283333333333331,0.000513072210303174
-0.0009270833333333327,-0.00015833017897961404
-0.0009258333333333332,0.00017737101566170366
-0.0009245833333333328,0.0005130722103033267
-0.0009233333333333333,0.0008487734049446444
-0.0009220833333333329,0.0008487734049446444
-0.0009208333333333334,0.0011844745995861147
-0.000919583333333333,0.000513072210303174
-0.0009183333333333335,-0.0004940313736207791
-0.0009170833333333331,0.00017737101566170366
-0.0009158333333333327,0.0001773710156618563
-0.0009145833333333332,0.000513072210303174
-0.0009133333333333328,0.00017737101566139835
-0.0009120833333333333,-0.0004940313736212371
-0.0009108333333333329,0.0011844745995861147
-0.0009095833333333334,0.000848773404944797
-0.000908333333333333,0.000513072210303174
-0.0009070833333333335,-0.0001583301789794614
-0.0009058333333333331,0.0008487734049446444
-0.0009045833333333328,0.0008487734049443391
-0.0009033333333333332,0.00017737101566170366
-0.0009020833333333329,0.00017737101566170366
-0.0009008333333333333,0.00017737101566170366
-0.000899583333333333,0.0008487734049446444
-0.0008983333333333334,0.0008487734049446444
-0.0008970833333333331,0.000513072210303174
-0.0008958333333333336,0.000513072210303174
-0.0008945833333333332,0.00017737101566170366
-0.0008933333333333328,0.0008487734049444917
-0.0008920833333333333,0.000513072210303174
-0.0008908333333333329,0.000513072210303174
-0.0008895833333333334,0.00017737101566170366
-0.000888333333333333,0.0008487734049446444
-0.0008870833333333335,0.0008487734049446444
-0.0008858333333333331,0.000513072210303174
-0.0008845833333333327,0.000513072210302716
-0.0008833333333333332,-0.0004940313736212371
-0.0008820833333333328,0.0001773710156618563
-0.0008808333333333333,0.000513072210303174
-0.0008795833333333329,0.00017737101566170366
-0.0008783333333333334,0.00017737101566170366
-0.000877083333333333,-0.0001583301789797667
-0.0008758333333333335,-0.0004940313736210844
-0.0008745833333333331,0.000513072210303174
-0.0008733333333333327,0.0001773710156618563
-0.0008720833333333332,0.000513072210303174
-0.0008708333333333328,0.0011844745995858094
-0.0008695833333333333,0.000513072210303174
-0.0008683333333333329,0.000513072210303174
-0.0008670833333333334,0.000513072210303174
-0.000865833333333333,0.000513072210303174
-0.0008645833333333335,0.000513072210303174
-0.0008633333333333331,-0.0001583301789797667
-0.0008620833333333328,0.0005130722103030214
-0.0008608333333333332,0.00017737101566170366
-0.0008595833333333329,-0.0001583301789797667
-0.0008583333333333333,0.0008487734049446444
-0.000857083333333333,-0.0001583301789797667
-0.0008558333333333334,0.0005130722103028687
-0.0008545833333333331,0.0008487734049446444
-0.0008533333333333335,0.0005130722103033267
-0.0008520833333333332,0.00017737101566170366
-0.0008508333333333328,0.0005130722103034793
-0.0008495833333333333,0.0011844745995861147
-0.0008483333333333329,0.000513072210303174
-0.0008470833333333334,0.00017737101566170366
-0.000845833333333333,0.00017737101566170366
-0.0008445833333333335,-0.00015833017897961404
-0.0008433333333333331,0.000513072210303174
-0.0008420833333333327,-0.00015833017897915605
-0.0008408333333333332,0.0011844745995861147
-0.0008395833333333328,0.002527279378151538
-0.0008383333333333333,0.001520175794227585
-0.0008370833333333329,0.002527279378151996
-0.0008358333333333334,0.002191578183510526
-0.000834583333333333,0.003198681767434937
-0.0008333333333333335,0.0035343829620762546
-0.0008320833333333331,0.004205785351359348
-0.0008308333333333327,0.004205785351359959
-0.0008295833333333332,0.005548590129925229
-0.0008283333333333328,0.006219992519207712
-0.0008270833333333333,0.005212888935283759
-0.0008258333333333329,0.0065556937138496404
-0.0008245833333333334,0.005884291324567005
-0.000823333333333333,0.007898498492415522
-0.0008220833333333335,0.007562797297774204
-0.0008208333333333331,0.008234199687056992
-0.0008195833333333328,0.009241303270981709
-0.0008183333333333332,0.009912705660264344
-0.0008170833333333329,0.009241303270981403
-0.0008158333333333333,0.010919809244188755
-0.000814583333333333,0.011926912828113166
-0.0008133333333333334,0.011926912828113166
-0.0008120833333333331,0.012262614022754637
-0.0008108333333333335,0.011926912828113319
-0.0008095833333333332,0.012934016412037577
-0.0008083333333333328,0.013605418801320823
-0.0008070833333333333,0.014276821190603459
-0.0008058333333333329,0.014612522385244929
-0.0008045833333333334,0.01595532716381081
-0.000803333333333333,0.01561962596916934
-0.0008020833333333335,0.015955327163810658
-0.0008008333333333331,0.017298131942376692
-0.0007995833333333327,0.017298131942377455
-0.0007983333333333332,0.018976637915584044
-0.0007970833333333328,0.01931233911022582
-0.0007958333333333333,0.019983741499508455
-0.0007945833333333329,0.019648040304866984
-0.0007933333333333334,0.020990845083432866
-0.000792083333333333,0.020990845083432866
-0.0007908333333333335,0.02199794866735682
-0.0007895833333333331,0.022333649861998747
-0.0007883333333333327,0.022669351056640676
-0.0007870833333333332,0.02367645464056463
-0.0007858333333333328,0.023676454640564934
-0.0007845833333333333,0.02434785702984757
-0.0007833333333333329,0.02468355822448904
-0.0007820833333333334,0.026697765392336946
-0.000780833333333333,0.02636206419769639
-0.0007795833333333335,0.027704868976261662
-0.0007783333333333331,0.027704868976262273
-0.0007770833333333328,0.028040570170903896
-0.0007758333333333332,0.028376271365545214
-0.0007745833333333329,0.029719076144111095
-0.0007733333333333333,0.029719076144111095
-0.000772083333333333,0.031061880922676977
-0.0007708333333333334,0.03072617972803566
-0.0007695833333333331,0.030726179728035506
-0.0007683333333333335,0.03206898450660078
-0.0007670833333333332,0.03206898450660139
-0.0007658333333333328,0.03341178928516742
-0.0007645833333333333,0.03374749047980874
-0.0007633333333333329,0.03374749047980874
-0.0007620833333333334,0.03509029525837462
-0.000760833333333333,0.03509029525837462
-0.0007595833333333335,0.03509029525837462
-0.0007583333333333331,0.03542599645301609
-0.0007570833333333327,0.03710450242622344
-0.0007558333333333332,0.03710450242622344
-0.0007545833333333328,0.03744020362086522
-0.0007533333333333333,0.038111606010147854
-0.0007520833333333329,0.038783008399430795
-0.0007508333333333334,0.039454410788713735
-0.000749583333333333,0.039454410788713735
-0.0007483333333333335,0.04046151437263769
-0.0007470833333333331,0.04046151437263815
-0.0007458333333333327,0.041468617956563016
-0.0007445833333333332,0.04247572154048697
-0.0007433333333333328,0.04314712392976991
-0.0007420833333333333,0.04314712392976991
-0.0007408333333333329,0.04247572154048697
-0.0007395833333333334,0.044489928708334875
-0.000738333333333333,0.04516133109761873
-0.0007370833333333335,0.046168434681542685
-0.0007358333333333331,0.0454970322922602
-0.0007345833333333327,0.04583273348690198
-0.0007333333333333332,0.04650413587618461
-0.0007320833333333329,0.047511239460109024
-0.0007308333333333333,0.047846940654750494
-0.000729583333333333,0.048182641849391965
-0.0007283333333333334,0.04918974543331592
-0.000727083333333333,0.049525446627957846
-0.0007258333333333335,0.049525446627957846
-0.0007245833333333332,0.04986114782259932
-0.0007233333333333328,0.051203952601165656
-0.0007220833333333333,0.05221105618508961
-0.0007208333333333329,0.05187535499044814
-0.0007195833333333334,0.05254675737973108
-0.000718333333333333,0.05388956215829696
-0.0007170833333333335,0.05355386096365564
-0.0007158333333333331,0.0545609645475799
-0.0007145833333333327,0.05456096454758051
-0.0007133333333333332,0.05590376932614578
-0.0007120833333333328,0.05489666574222183
-0.0007108333333333333,0.05590376932614578
-0.0007095833333333329,0.056575171715428724
-0.0007083333333333334,0.057582275299353135
-0.000707083333333333,0.057582275299353135
-0.0007058333333333335,0.05825367768863577
-0.0007045833333333331,0.058589378883277546
-0.0007033333333333327,0.05959648246720196
-0.0007020833333333332,0.05959648246720196
-0.0007008333333333328,0.06060358605112637
-0.0006995833333333333,0.06060358605112637
-0.0006983333333333329,0.06093928724576784
-0.0006970833333333334,0.06194639082969179
-0.000695833333333333,0.06328919560825813
-0.0006945833333333335,0.06295349441361682
-0.0006933333333333331,0.06328919560825813
-0.0006920833333333327,0.0632891956082589
-0.0006908333333333332,0.06496770158146548
-0.0006895833333333328,0.06496770158146548
-0.0006883333333333333,0.06530340277610697
-0.000687083333333333,0.06631050636003136
-0.0006858333333333334,0.06631050636003136
-0.000684583333333333,0.06664620755467285
-0.0006833333333333335,0.06731760994395547
-0.0006820833333333332,0.06731760994395578
-0.0006808333333333328,0.06966751830644577
-0.0006795833333333333,0.06899611591716312
-0.0006783333333333329,0.07000321950108754
-0.0006770833333333334,0.07000321950108754
-0.000675833333333333,0.070338920695729
-0.0006745833333333335,0.07067462189037034
-0.0006733333333333331,0.07201742666893637
-0.0006720833333333327,0.0716817254742955
-0.0006708333333333332,0.07302453025286076
-0.0006695833333333328,0.07268882905821976
-0.0006683333333333333,0.07369593264214372
-0.0006670833333333329,0.07403163383678518
-0.0006658333333333334,0.07436733503142665
-0.000664583333333333,0.07470303622606814
-0.0006633333333333335,0.07537443861535076
-0.0006620833333333331,0.0750387374207096
-0.0006608333333333327,0.07537443861535183
-0.0006595833333333332,0.07705294458855841
-0.0006583333333333328,0.07806004817248267
-0.0006570833333333333,0.07772434697784136
-0.0006558333333333329,0.07906715175640724
-0.0006545833333333334,0.0773886457831999
-0.000653333333333333,0.07806004817248283
-0.0006520833333333335,0.0794028529510481
-0.0006508333333333331,0.08007425534033166
-0.0006495833333333327,0.0810813589242562
-0.0006483333333333332,0.08141706011889754
-0.0006470833333333328,0.08175276131353901
-0.0006458333333333333,0.08175276131353901
-0.000644583333333333,0.08208846250818047
-0.0006433333333333334,0.08309556609210443
-0.000642083333333333,0.08343126728674635
-0.0006408333333333335,0.08343126728674635
-0.0006395833333333331,0.0851097732599537
-0.0006383333333333328,0.08477407206531239
-0.0006370833333333333,0.0851097732599537
-0.0006358333333333329,0.08578117564923665
-0.0006345833333333334,0.08645257803851958
-0.000633333333333333,0.08712398042780253
-0.0006320833333333335,0.08745968162244384
-0.0006308333333333331,0.08813108401172695
-0.0006295833333333327,0.08779538281708561
-0.0006283333333333332,0.08813108401172695
-0.0006270833333333328,0.0888024864010108
-0.0006258333333333333,0.09081669356885871
-0.0006245833333333329,0.09048099237421722
-0.0006233333333333334,0.09014529117957576
-0.000622083333333333,0.09048099237421722
-0.0006208333333333335,0.0918237971527825
-0.0006195833333333331,0.0918237971527831
-0.0006183333333333327,0.09283090073670752
-0.0006170833333333332,0.09283090073670752
-0.0006158333333333328,0.09316660193134975
-0.0006145833333333333,0.09484510790455636
-0.0006133333333333329,0.09383800432063194
-0.0006120833333333334,0.09518080909919782
-0.000610833333333333,0.09484510790455636
-0.0006095833333333335,0.09551651029383898
-0.0006083333333333331,0.09585221148848075
-0.0006070833333333327,0.09652361387776355
-0.0006058333333333332,0.09618791268312224
-0.0006045833333333328,0.09753071746168812
-0.0006033333333333333,0.09820211985097105
-0.0006020833333333329,0.09920922343489547
-0.0006008333333333334,0.09887352224025416
-0.000599583333333333,0.098873522240254
-0.0005983333333333335,0.09920922343489531
-0.0005970833333333331,0.09954492462953693
-0.0005958333333333328,0.10021632701882019
-0.0005945833333333332,0.10088772940810281
-0.0005933333333333329,0.10155913179738577
-0.0005920833333333334,0.10189483299202723
-0.000590833333333333,0.10256623538131016
-0.0005895833333333335,0.1032376377705928
-0.0005883333333333331,0.10357333896523457
-0.0005870833333333336,0.10290193657595195
-0.0005858333333333332,0.10357333896523457
-0.0005845833333333328,0.10424474135451799
-0.0005833333333333333,0.10525184493844192
-0.0005820833333333329,0.10525184493844192
-0.0005808333333333334,0.10592324732772487
-0.000579583333333333,0.10625894852236634
-0.0005783333333333335,0.10659464971700765
-0.0005770833333333331,0.1065946497170078
-0.0005758333333333327,0.10827315569021502
-0.0005745833333333332,0.10793745449557368
-0.0005733333333333328,0.10793745449557399
-0.0005720833333333333,0.10860885688485664
-0.0005708333333333329,0.10928025927413956
-0.0005695833333333334,0.10995166166342252
-0.000568333333333333,0.11095876524734694
-0.0005670833333333335,0.11028736285806429
-0.0005658333333333331,0.1112944664419884
-0.0005645833333333327,0.11129446644198855
