RawData/acq0016.csv

#Digilent WaveForms Oscilloscope Acquisition
#Device Name: Discovery2
#Serial Number: SN:210321B282B2
#Date Time: 2026-05-20 12:13:00.468
#Sample rate: 800000Hz
#Samples: 8192
#Trigger: Source: Channel 1 Type: Edge Condition: Rising Level: 250 mV Hyst.: Auto HoldOff: 0 s
#Channel 1: Range: 200 mV/div Offset: 0 V Sample Mode: Average

Time (s),Channel 1 (V)
-0.00111875,0.06899611591716312
-0.0011174999999999996,0.0683247135278802
-0.0011162499999999992,0.06832471352787989
-0.0011149999999999997,0.06765331113859724
-0.0011137499999999993,0.06731760994395578
-0.0011124999999999998,0.06765331113859724
-0.0011112499999999994,0.06664620755467285
-0.0011099999999999999,0.06731760994395547
-0.0011087499999999995,0.0683247135278802
-0.0011074999999999991,0.06832471352787974
-0.0011062499999999996,0.06731760994395578
-0.0011049999999999992,0.06765331113859724
-0.0011037499999999997,0.06765331113859724
-0.0011024999999999993,0.06798901233323873
-0.0011012499999999998,0.06698190874931431
-0.0010999999999999994,0.06798901233323873
-0.00109875,0.06731760994395608
-0.0010974999999999995,0.06698190874931431
-0.0010962499999999991,0.06664620755467285
-0.0010949999999999996,0.06664620755467285
-0.0010937499999999992,0.066646207554673
-0.0010924999999999997,0.06698190874931431
-0.0010912499999999993,0.06798901233323873
-0.0010899999999999998,0.06664620755467346
-0.0010887499999999994,0.06664620755467285
-0.0010875,0.06731760994395547
-0.0010862499999999995,0.06765331113859724
-0.0010849999999999992,0.06731760994395547
-0.0010837499999999996,0.06664620755467285
-0.0010824999999999993,0.0659748051653899
-0.0010812499999999997,0.06664620755467285
-0.0010799999999999994,0.06664620755467285
-0.0010787499999999998,0.06698190874931416
-0.0010774999999999995,0.06698190874931431
-0.00107625,0.06631050636003166
-0.0010749999999999996,0.06698190874931431
-0.0010737499999999992,0.06731760994395532
-0.0010724999999999997,0.06631050636003136
-0.0010712499999999993,0.06631050636003136
-0.0010699999999999998,0.0659748051653899
-0.0010687499999999994,0.06631050636003136
-0.0010674999999999999,0.066981908749314
-0.0010662499999999995,0.06698190874931431
-0.001064999999999999,0.06664620755467254
-0.0010637499999999996,0.0659748051653899
-0.0010624999999999992,0.06631050636003105
-0.0010612499999999997,0.06563910397074843
-0.0010599999999999993,0.06664620755467285
-0.0010587499999999998,0.06698190874931431
-0.0010574999999999994,0.06698190874931431
-0.00105625,0.06563910397074904
-0.0010549999999999995,0.06664620755467285
-0.0010537499999999991,0.06698190874931431
-0.0010524999999999996,0.06698190874931431
-0.0010512499999999992,0.0659748051653902
-0.0010499999999999997,0.06664620755467285
-0.0010487499999999993,0.06563910397074843
-0.0010474999999999998,0.0669819087493137
-0.0010462499999999994,0.06698190874931431
-0.001045,0.066646207554673
-0.0010437499999999995,0.06698190874931431
-0.0010424999999999992,0.06731760994395562
-0.0010412499999999996,0.06698190874931431
-0.0010399999999999993,0.06731760994395578
-0.0010387499999999997,0.06664620755467285
-0.0010374999999999994,0.06664620755467285
-0.0010362499999999998,0.06765331113859678
-0.0010349999999999995,0.06765331113859724
-0.00103375,0.0666462075546733
-0.0010324999999999996,0.06765331113859724
-0.0010312499999999992,0.0666462075546733
-0.0010299999999999997,0.06765331113859724
-0.0010287499999999993,0.06765331113859724
-0.0010274999999999998,0.0683247135278802
-0.0010262499999999994,0.06698190874931431
-0.0010249999999999999,0.06832471352787958
-0.0010237499999999995,0.06798901233323873
-0.001022499999999999,0.06832471352787989
-0.0010212499999999996,0.06765331113859724
-0.0010199999999999992,0.06798901233323873
-0.0010187499999999997,0.06798901233323873
-0.0010174999999999993,0.0683247135278802
-0.0010162499999999998,0.0683247135278802
-0.0010149999999999994,0.06698190874931431
-0.00101375,0.0689961159171622
-0.0010124999999999995,0.06866041472252166
-0.0010112499999999991,0.06933181711180415
-0.0010099999999999996,0.0683247135278802
-0.0010087499999999992,0.0686604147225215
-0.0010074999999999997,0.0683247135278802
-0.0010062499999999993,0.0683247135278802
-0.0010049999999999998,0.06966751830644607
-0.0010037499999999994,0.06866041472252166
-0.0010025,0.0693318171118043
-0.0010012499999999995,0.06899611591716312
-0.0009999999999999992,0.06899611591716343
-0.0009987499999999996,0.06966751830644607
-0.0009974999999999993,0.07000321950108754
-0.0009962499999999997,0.07000321950108754
-0.0009949999999999994,0.07000321950108754
-0.0009937499999999998,0.07000321950108754
-0.0009924999999999995,0.06966751830644607
-0.00099125,0.0703389206957287
-0.0009899999999999996,0.070338920695729
-0.0009887499999999992,0.0703389206957293
-0.0009874999999999997,0.07101032308501196
-0.0009862499999999993,0.07067462189037049
-0.0009849999999999998,0.07000321950108754
-0.0009837499999999994,0.07067462189037049
-0.0009824999999999999,0.0710103230850118
-0.0009812499999999995,0.07134602427965342
-0.000979999999999999,0.07101032308501196
-0.0009787499999999996,0.07101032308501196
-0.0009774999999999992,0.07168172547429488
-0.0009762499999999997,0.07168172547429488
-0.0009749999999999993,0.07201742666893637
-0.0009737499999999998,0.07168172547429488
-0.0009724999999999994,0.07168172547429488
-0.0009712499999999999,0.07201742666893622
-0.0009699999999999995,0.07235312786357784
-0.0009687499999999991,0.07235312786357784
-0.0009674999999999996,0.07235312786357784
-0.0009662499999999992,0.07268882905821915
-0.0009649999999999997,0.07235312786357784
-0.0009637499999999993,0.0726888290582193
-0.0009624999999999998,0.07403163383678518
-0.0009612499999999994,0.07336023144750226
-0.0009599999999999999,0.07436733503142619
-0.0009587499999999995,0.07336023144750226
-0.0009574999999999992,0.07369593264214402
-0.0009562499999999996,0.07436733503142665
-0.0009549999999999993,0.07369593264214372
-0.0009537499999999997,0.07403163383678518
-0.0009524999999999994,0.07436733503142665
-0.0009512499999999998,0.07436733503142665
-0.0009499999999999995,0.07470303622606814
-0.0009487499999999999,0.07470303622606814
-0.0009474999999999996,0.07571013980999253
-0.0009462499999999992,0.07571013980999237
-0.0009449999999999997,0.07537443861535106
-0.0009437499999999993,0.0750387374207096
-0.0009424999999999998,0.07571013980999253
-0.0009412499999999994,0.07671724339391695
-0.0009399999999999999,0.07671724339391695
-0.0009387499999999995,0.07638154219927548
-0.0009375,0.07604584100463417
-0.0009362499999999996,0.07604584100463402
-0.0009349999999999992,0.0770529445885581
-0.0009337499999999997,0.07638154219927548
-0.0009324999999999993,0.07705294458855841
-0.0009312499999999998,0.07705294458855841
-0.0009299999999999994,0.07772434697784136
-0.0009287499999999999,0.07806004817248267
-0.0009274999999999995,0.07806004817248283
-0.0009262499999999991,0.07806004817248267
-0.0009249999999999996,0.07772434697784136
-0.0009237499999999992,0.07839574936712444
-0.0009224999999999997,0.07873145056176578
-0.0009212499999999993,0.07873145056176578
-0.0009199999999999998,0.07906715175640724
-0.0009187499999999994,0.07940285295104871
-0.0009174999999999999,0.07973855414569002
-0.0009162499999999995,0.08007425534033166
-0.0009149999999999991,0.08040995653497282
-0.0009137499999999996,0.07973855414569017
-0.0009124999999999992,0.08040995653497343
-0.0009112499999999997,0.08108135892425605
-0.0009099999999999994,0.08108135892425605
-0.0009087499999999998,0.0817527613135387
-0.0009074999999999995,0.08108135892425605
-0.0009062499999999999,0.0817527613135387
-0.0009049999999999996,0.08208846250818047
-0.0009037499999999992,0.08141706011889754
-0.0009024999999999997,0.08141706011889754
-0.0009012499999999993,0.08208846250818047
-0.0008999999999999998,0.08309556609210489
-0.0008987499999999994,0.08309556609210489
-0.0008974999999999999,0.0834312672867462
-0.0008962499999999995,0.08309556609210489
-0.000895,0.0834312672867462
-0.0008937499999999996,0.08376696848138782
-0.0008924999999999992,0.08376696848138797
-0.0008912499999999997,0.0841026696760293
-0.0008899999999999993,0.08443837087067077
-0.0008887499999999998,0.0851097732599537
-0.0008874999999999994,0.0851097732599537
-0.0008862499999999999,0.08443837087067108
-0.0008849999999999995,0.0851097732599537
-0.0008837499999999991,0.08611687684387781
-0.0008824999999999996,0.08544547445459519
-0.0008812499999999992,0.0854454744545958
-0.0008799999999999997,0.08678827923316107
-0.0008787499999999993,0.08611687684387812
-0.0008774999999999998,0.08678827923316107
-0.0008762499999999994,0.08712398042780253
-0.0008749999999999999,0.08712398042780253
-0.0008737499999999995,0.08779538281708546
-0.0008724999999999991,0.08678827923316168
-0.0008712499999999996,0.08813108401172695
-0.0008699999999999992,0.08779538281708577
-0.0008687499999999997,0.08846678520636841
-0.0008674999999999993,0.08880248640100988
-0.0008662499999999998,0.08913818759565119
-0.0008649999999999994,0.08880248640100988
-0.0008637499999999999,0.08980958998493384
-0.0008624999999999996,0.09081669356885871
-0.0008612499999999992,0.09081669356885826
-0.0008599999999999997,0.0898095899849343
-0.0008587499999999993,0.09048099237421722
-0.0008574999999999998,0.09115239476350018
-0.0008562499999999994,0.09081669356885871
-0.0008549999999999999,0.09148809595814134
-0.0008537499999999995,0.09115239476350018
-0.0008525,0.09115239476350018
-0.0008512499999999996,0.0921594983474246
-0.0008499999999999992,0.0921594983474249
-0.0008487499999999997,0.09283090073670752
-0.0008474999999999993,0.09383800432063194
-0.0008462499999999998,0.09316660193134899
-0.0008449999999999994,0.09283090073670752
-0.0008437499999999999,0.09383800432063148
-0.0008424999999999995,0.09383800432063194
-0.0008412499999999991,0.09383800432063179
-0.0008399999999999996,0.09350230312599048
-0.0008387499999999992,0.09484510790455605
-0.0008374999999999997,0.0941737055152734
-0.0008362499999999993,0.09551651029383929
-0.0008349999999999998,0.09518080909919782
-0.0008337499999999994,0.09518080909919782
-0.0008324999999999999,0.09585221148848044
-0.0008312499999999995,0.0965236138777637
-0.0008299999999999991,0.09685931507240486
-0.0008287499999999996,0.09618791268312224
-0.0008274999999999992,0.0961879126831227
-0.0008262499999999997,0.09719501626704663
-0.0008249999999999993,0.09719501626704663
-0.0008237499999999998,0.09753071746168797
-0.0008224999999999994,0.09853782104561251
-0.0008212499999999999,0.09887352224025385
-0.0008199999999999995,0.09786641865632958
-0.0008187499999999992,0.09820211985097135
-0.0008174999999999997,0.098873522240254
-0.0008162499999999993,0.09988062582417839
-0.0008149999999999998,0.09954492462953693
-0.0008137499999999994,0.09988062582417839
-0.0008124999999999999,0.09954492462953708
-0.0008112499999999995,0.10021632701881988
-0.00081,0.1005520282134612
-0.0008087499999999996,0.10122343060274427
-0.0008074999999999992,0.10088772940810281
-0.0008062499999999997,0.10088772940810281
-0.0008049999999999993,0.10122343060274427
-0.0008037499999999998,0.10122343060274427
-0.0008024999999999994,0.10223053418666869
-0.0008012499999999999,0.10290193657595134
-0.0007999999999999995,0.10256623538131016
-0.0007987499999999991,0.10223053418666884
-0.0007974999999999996,0.10256623538131016
-0.0007962499999999992,0.10357333896523457
-0.0007949999999999997,0.10357333896523457
-0.0007937499999999993,0.10357333896523457
-0.0007924999999999998,0.10424474135451753
-0.0007912499999999994,0.10491614374380046
-0.0007899999999999999,0.10491614374380046
-0.0007887499999999995,0.10491614374380046
-0.0007874999999999991,0.10491614374380091
-0.0007862499999999996,0.10592324732772487
-0.0007849999999999992,0.10525184493844192
-0.0007837499999999997,0.10525184493844192
-0.0007824999999999993,0.1065946497170078
-0.0007812499999999998,0.10625894852236649
-0.0007799999999999994,0.10760175330093222
-0.0007787499999999999,0.10793745449557353
-0.0007774999999999995,0.10726605210629075
-0.0007762499999999992,0.10760175330093252
-0.0007749999999999996,0.10827315569021517
-0.0007737499999999993,0.10793745449557368
-0.0007724999999999997,0.10961596046878105
-0.0007712499999999994,0.10860885688485664
-0.0007699999999999999,0.10894455807949795
-0.0007687499999999995,0.10961596046878105
-0.0007675,0.10995166166342236
-0.0007662499999999996,0.11062306405270544
-0.0007649999999999992,0.10995166166342252
-0.0007637499999999997,0.10995166166342252
-0.0007624999999999993,0.11095876524734694
-0.0007612499999999998,0.11095876524734694
-0.0007599999999999994,0.11196586883127133
-0.0007587499999999999,0.11196586883127133
-0.0007574999999999995,0.1112944664419884
-0.0007562499999999991,0.11196586883127148
-0.0007549999999999996,0.11230157002591282
-0.0007537499999999992,0.11263727122055443
-0.0007524999999999997,0.11297297241519574
-0.0007512499999999993,0.11398007599912016
-0.0007499999999999998,0.11330867360983721
-0.0007487499999999994,0.11330867360983721
-0.0007474999999999999,0.11465147838840248
-0.0007462499999999995,0.11465147838840309
-0.0007449999999999991,0.1156585819723272
-0.0007437499999999996,0.11498717958304458
-0.0007424999999999992,0.11465147838840355
-0.0007412499999999997,0.1156585819723275
-0.0007399999999999993,0.11599428316696897
-0.0007387499999999998,0.11632998436161031
-0.0007374999999999994,0.11632998436161046
-0.0007362499999999999,0.11666568555625177
-0.0007349999999999995,0.11599428316696897
-0.0007337499999999992,0.1170013867508937
-0.0007324999999999996,0.11767278914017634
-0.0007312499999999993,0.11834419152945927
-0.0007299999999999997,0.11733708794553485
-0.0007287499999999994,0.1180084903348178
-0.0007274999999999998,0.11834419152945912
-0.0007262499999999995,0.11867989272410073
-0.000725,0.11901559391874207
-0.0007237499999999996,0.11935129511338369
-0.0007224999999999992,0.11935129511338384
-0.0007212499999999997,0.11968699630802515
-0.0007199999999999993,0.12069409989194957
-0.0007187499999999998,0.12069409989194957
-0.0007174999999999994,0.12069409989194957
-0.0007162499999999999,0.12102980108659088
-0.0007149999999999995,0.1213655022812325
-0.0007137499999999991,0.12170120347587368
-0.0007124999999999996,0.12102980108659103
-0.0007112499999999992,0.1213655022812328
-0.0007099999999999997,0.12203690467051545
-0.0007087499999999993,0.12270830705979838
-0.0007074999999999998,0.12170120347587399
-0.0007062499999999994,0.12304400825443987
-0.0007049999999999999,0.12337970944908118
-0.0007037499999999995,0.12438681303300575
-0.0007024999999999991,0.12405111183836426
-0.0007012499999999996,0.12405111183836426
-0.0006999999999999992,0.12438681303300621
-0.0006987499999999997,0.12539391661693017
-0.0006974999999999993,0.12505821542228868
-0.0006962499999999998,0.12472251422764737
-0.0006949999999999994,0.12539391661693017
-0.0006937499999999999,0.1257296178115715
-0.0006924999999999995,0.1270724225901375
-0.0006912499999999992,0.12539391661693064
-0.0006899999999999996,0.12640102020085456
-0.0006887499999999993,0.1260653190062131
-0.0006874999999999997,0.12740812378477898
-0.0006862499999999994,0.12740812378477898
-0.0006849999999999998,0.12740812378477898
-0.0006837499999999995,0.12740812378477898
-0.0006825,0.12841522736870292
-0.0006812499999999996,0.12807952617406193
-0.0006799999999999992,0.12908662975798585
-0.0006787499999999997,0.12807952617406193
-0.0006774999999999993,0.12908662975798632
-0.0006762499999999998,0.12942233095262778
-0.0006749999999999994,0.1304294345365522
-0.0006737499999999999,0.1304294345365522
-0.0006724999999999995,0.13009373334191074
-0.0006712499999999991,0.1307651357311937
-0.0006699999999999996,0.1307651357311937
-0.0006687499999999992,0.1314365381204768
-0.0006674999999999997,0.13177223931511808
-0.0006662499999999993,0.13244364170440104
-0.0006649999999999998,0.13177223931511808
-0.0006637499999999994,0.13210794050975955
-0.0006624999999999999,0.13244364170440087
-0.0006612499999999995,0.13311504409368397
-0.0006599999999999991,0.13345074528832515
-0.0006587499999999996,0.1327793428990425
-0.0006574999999999992,0.13412214767760808
-0.0006562499999999997,0.13345074528832546
-0.0006549999999999993,0.13378644648296692
-0.0006537499999999998,0.1347935500668913
-0.0006524999999999994,0.13445784887224985
-0.0006512499999999999,0.13445784887224985
-0.0006499999999999995,0.1347935500668913
-0.0006487499999999992,0.1361363548454566
-0.0006474999999999996,0.1347935500668913
-0.0006462499999999993,0.13647205604009868
-0.0006449999999999997,0.13680775723474015
-0.0006437499999999994,0.13546495245617426
-0.0006424999999999998,0.1364720560400982
-0.0006412499999999995,0.13747915962402307
-0.0006399999999999999,0.1378148608186644
-0.0006387499999999996,0.13781486081866456
-0.0006374999999999992,0.13815056201330586
-0.0006362499999999997,0.13781486081866456
-0.0006349999999999993,0.13815056201330603
-0.0006337499999999998,0.1384862632079475
-0.0006324999999999994,0.13915766559723045
-0.0006312499999999999,0.13915766559723045
-0.0006299999999999995,0.1394933667918719
-0.0006287499999999991,0.14016476918115484
-0.0006274999999999996,0.14016476918115484
-0.0006262499999999992,0.14016476918115484
-0.0006249999999999997,0.14016476918115484
-0.0006237499999999993,0.14117187276507925
-0.0006224999999999998,0.14016476918115484
-0.0006212499999999994,0.1408361715704378
-0.0006199999999999999,0.14184327515436174
-0.0006187499999999995,0.14217897634900367
-0.0006174999999999991,0.14217897634900398
-0.0006162499999999996,0.1428503787382866
-0.0006149999999999992,0.1428503787382863
-0.0006137499999999997,0.14217897634900367
-0.0006124999999999993,0.14352178112756955
-0.0006112499999999998,0.14352178112756955
-0.0006099999999999994,0.1428503787382866
-0.0006087499999999999,0.14385748232221057
-0.0006074999999999995,0.14486458590613543
-0.0006062499999999992,0.14520028710077673
-0.0006049999999999996,0.14486458590613543
-0.0006037499999999993,0.1441931835168525
-0.0006024999999999997,0.14486458590613543
-0.0006012499999999994,0.14587168949005985
-0.0005999999999999998,0.14687879307398383
-0.0005987499999999995,0.14687879307398427
-0.0005974999999999999,0.14654309187934295
-0.0005962499999999996,0.14687879307398427
-0.0005949999999999992,0.14687879307398474
-0.0005937499999999997,0.14788589665790866
-0.0005924999999999993,0.1475501954632672
-0.0005912499999999998,0.1475501954632672
-0.0005899999999999994,0.1475501954632672
-0.0005887499999999999,0.14855729904719117
-0.0005874999999999995,0.14922870143647454
-0.00058625,0.14922870143647454
-0.0005849999999999996,0.14855729904719162
-0.0005837499999999992,0.14990010382575733
-0.0005824999999999997,0.14956440263111603
-0.0005812499999999993,0.15057150621504042
-0.0005799999999999998,0.15057150621504042
-0.0005787499999999994,0.1499001038257575
-0.0005774999999999999,0.1499001038257575
-0.0005762499999999995,0.15124290860432338
-0.0005749999999999991,0.1515786097989653
-0.0005737499999999996,0.15258571338288926
-0.0005724999999999992,0.1522500121882478
-0.0005712499999999997,0.1522500121882478
-0.0005699999999999993,0.1519143109936063
-0.0005687499999999998,0.15292141457753072
-0.0005674999999999994,0.1522500121882478
-0.0005662499999999999,0.15258571338288912
-0.0005649999999999995,0.1542642193560966
-0.0005637499999999991,0.1542642193560963
-0.0005624999999999996,0.15359281696681365
-0.0005612499999999992,0.1539285181614556
-0.0005599999999999997,0.15493562174537956
-0.0005587499999999994,0.15493562174537956
-0.0005574999999999998,0.15493562174537956
-0.0005562499999999995,0.15493562174537956
-0.0005549999999999999,0.15493562174537956
-0.0005537499999999996,0.15560702413466249
-0.0005524999999999992,0.15694982891322853
-0.0005512499999999997,0.15728553010786983
-0.0005499999999999993,0.1566141277185869
-0.0005487499999999998,0.15762123130251132
-0.0005474999999999994,0.15694982891322837
-0.0005462499999999999,0.15728553010786966
-0.0005449999999999995,0.15728553010786983
-0.00054375,0.1582926336917938
-0.0005424999999999996,0.1586283348864357
-0.0005412499999999992,0.15896403608107748
-0.0005399999999999997,0.15963543847036013
