RawData/acq0014.csv

#Digilent WaveForms Oscilloscope Acquisition
#Device Name: Discovery2
#Serial Number: SN:210321B282B2
#Date Time: 2026-05-20 12:13:00.127
#Sample rate: 800000Hz
#Samples: 8192
#Trigger: Source: Channel 1 Type: Edge Condition: Rising Level: 250 mV Hyst.: Auto HoldOff: 0 s
#Channel 1: Range: 200 mV/div Offset: 0 V Sample Mode: Average

Time (s),Channel 1 (V)
-0.0011193750000000006,0.009241303270981403
-0.0011181250000000002,0.009577004465622874
-0.0011168749999999998,0.010584108049546827
-0.0011156250000000003,0.009577004465622874
-0.001114375,0.010248406854905814
-0.0011131250000000004,0.009577004465622874
-0.001111875,0.009577004465622874
-0.0011106250000000005,0.010248406854905509
-0.0011093750000000001,0.010584108049547285
-0.0011081249999999997,0.01024840685490612
-0.0011068750000000002,0.010919809244188755
-0.0011056249999999998,0.009241303270982167
-0.0011043750000000003,0.010919809244188755
-0.001103125,0.010919809244188755
-0.0011018750000000004,0.011591211633471696
-0.001100625,0.010919809244188755
-0.0010993750000000005,0.01024840685490612
-0.0010981250000000001,0.010248406854905814
-0.0010968749999999998,0.010584108049547285
-0.0010956250000000002,0.010584108049547285
-0.0010943749999999999,0.010919809244189213
-0.0010931250000000003,0.011926912828113166
-0.001091875,0.011926912828113166
-0.0010906250000000004,0.010919809244189213
-0.001089375,0.011255510438830225
-0.0010881250000000006,0.01058410804954759
-0.0010868750000000002,0.012262614022754637
-0.0010856249999999998,0.011591211633471848
-0.0010843750000000003,0.011926912828113166
-0.0010831249999999999,0.011926912828113166
-0.0010818750000000004,0.012598315217396107
-0.001080625,0.011926912828113166
-0.0010793750000000005,0.011591211633471848
-0.001078125,0.011926912828113166
-0.0010768750000000006,0.01293401641203712
-0.0010756250000000002,0.011926912828113166
-0.0010743749999999998,0.011926912828113624
-0.0010731250000000003,0.012934016412037577
-0.001071875,0.012262614022754637
-0.0010706250000000004,0.012598315217396107
-0.001069375,0.011926912828113166
-0.0010681250000000005,0.013269717606678437
-0.0010668750000000001,0.012934016412037577
-0.0010656249999999997,0.012262614022755094
-0.0010643750000000002,0.013269717606679048
-0.0010631249999999998,0.012934016412037272
-0.0010618750000000003,0.012262614022754637
-0.001060625,0.013269717606679048
-0.0010593750000000004,0.012934016412037577
-0.001058125,0.013605418801320518
-0.0010568750000000005,0.014276821190603153
-0.0010556250000000001,0.013941119995961988
-0.0010543749999999998,0.014276821190603306
-0.0010531250000000002,0.013941119995961988
-0.0010518749999999999,0.013605418801320518
-0.0010506250000000003,0.013605418801320518
-0.001049375,0.014276821190603459
-0.0010481250000000004,0.013605418801320823
-0.001046875,0.014276821190603459
-0.0010456250000000005,0.014612522385244776
-0.0010443750000000002,0.013941119995961988
-0.0010431249999999998,0.014276821190603153
-0.0010418750000000003,0.013605418801320518
-0.0010406249999999999,0.0149482235798864
-0.0010393750000000004,0.0149482235798864
-0.001038125,0.0149482235798864
-0.0010368750000000005,0.0149482235798864
-0.001035625,0.01528392477452787
-0.0010343750000000006,0.015619625969169187
-0.0010331250000000002,0.01528392477452787
-0.0010318749999999998,0.015955327163810505
-0.0010306250000000003,0.01528392477452787
-0.001029375,0.014276821190603459
-0.0010281250000000004,0.01528392477452787
-0.001026875,0.01662672955309375
-0.0010256250000000005,0.015619625969169798
-0.0010243750000000001,0.01595532716381081
-0.0010231249999999997,0.017298131942376234
-0.0010218750000000002,0.01629102835845228
-0.0010206249999999998,0.014612522385245692
-0.0010193750000000003,0.01629102835845228
-0.001018125,0.01629102835845228
-0.0010168750000000004,0.017633833137018162
-0.001015625,0.01662672955309375
-0.0010143750000000005,0.01662672955309375
-0.0010131250000000001,0.01662672955309375
-0.0010118749999999998,0.016962430747735527
-0.0010106250000000002,0.017633833137018162
-0.0010093749999999999,0.017298131942376997
-0.0010081250000000003,0.017969534331659633
-0.001006875,0.017969534331659633
-0.0010056250000000004,0.017969534331659633
-0.001004375,0.017633833137018162
-0.0010031250000000005,0.017633833137018162
-0.0010018750000000002,0.017633833137018162
-0.0010006249999999998,0.01763383313701862
-0.0009993750000000003,0.018640936720942573
-0.0009981249999999999,0.017969534331659633
-0.0009968750000000004,0.018640936720942573
-0.000995625,0.018305235526301103
-0.0009943750000000005,0.019312339110225056
-0.000993125,0.019312339110225514
-0.0009918750000000006,0.018976637915584196
-0.0009906250000000002,0.018976637915584044
-0.0009893749999999998,0.018976637915584196
-0.0009881250000000003,0.019312339110225514
-0.000986875,0.019983741499508455
-0.0009856250000000004,0.019648040304866984
-0.000984375,0.018976637915584044
-0.0009831250000000005,0.018976637915584044
-0.0009818750000000001,0.020319442694149925
-0.0009806249999999997,0.02099084508343256
-0.0009793750000000002,0.020319442694149925
-0.0009781249999999998,0.019648040304867442
-0.0009768750000000003,0.020655143888791395
-0.0009756249999999999,0.020319442694149925
-0.0009743750000000004,0.020990845083432866
-0.000973125,0.020990845083432866
-0.0009718750000000005,0.020655143888791548
-0.0009706250000000001,0.020319442694149925
-0.0009693749999999998,0.02099084508343302
-0.0009681250000000002,0.021326546278074336
-0.0009668749999999999,0.02099084508343317
-0.0009656250000000003,0.021662247472715807
-0.000964375,0.021326546278074336
-0.0009631250000000004,0.021662247472715807
-0.0009618750000000001,0.021662247472715807
-0.0009606250000000005,0.021997948667357124
-0.0009593750000000002,0.021662247472715807
-0.0009581249999999998,0.021997948667357888
-0.0009568750000000003,0.02334075344592316
-0.0009556249999999999,0.023005052251281688
-0.0009543750000000004,0.022333649861998747
-0.000953125,0.022669351056640218
-0.0009518750000000005,0.023340753445922853
-0.0009506250000000001,0.023005052251281688
-0.0009493750000000006,0.023676454640564323
-0.0009481250000000002,0.022669351056640218
-0.0009468749999999998,0.024012155835205946
-0.0009456250000000003,0.02367645464056463
-0.0009443749999999999,0.02367645464056463
-0.0009431250000000004,0.02367645464056463
-0.000941875,0.02468355822448904
-0.0009406250000000005,0.025019259419130357
-0.0009393750000000001,0.02468355822448904
-0.0009381250000000006,0.025019259419130357
-0.0009368750000000002,0.02434785702984757
-0.0009356249999999998,0.024347857029847875
-0.0009343750000000003,0.02501925941913051
-0.0009331249999999999,0.02434785702984757
-0.0009318750000000004,0.02602636300305492
-0.000930625,0.02569066180841345
-0.0009293750000000005,0.02602636300305477
-0.0009281250000000001,0.02569066180841345
-0.0009268749999999997,0.02602636300305492
-0.0009256250000000002,0.02602636300305492
-0.0009243749999999998,0.026697765392337862
-0.0009231250000000003,0.026697765392337862
-0.000921875,0.02602636300305492
-0.0009206250000000004,0.026697765392337862
-0.000919375,0.026697765392337862
-0.0009181250000000005,0.027369167781620497
-0.0009168750000000002,0.026697765392337862
-0.0009156249999999998,0.027369167781620803
-0.0009143750000000003,0.027369167781620803
-0.0009131249999999999,0.027704868976262273
-0.0009118750000000004,0.027704868976262273
-0.000910625,0.028040570170903743
-0.0009093750000000005,0.027704868976262426
-0.0009081250000000001,0.029047673754828154
-0.0009068750000000006,0.029047673754828154
-0.0009056250000000002,0.028376271365545214
-0.0009043749999999998,0.02837627136554567
-0.0009031250000000003,0.029383374949469625
-0.0009018749999999999,0.029719076144111095
-0.0009006250000000004,0.029719076144111095
-0.000899375,0.029383374949469625
-0.0008981250000000005,0.029383374949469625
-0.0008968750000000001,0.029383374949469625
-0.0008956250000000006,0.029383374949469625
-0.0008943750000000002,0.029719076144111095
-0.0008931249999999998,0.03005477733875287
-0.0008918750000000003,0.030726179728035506
-0.0008906249999999999,0.030390478533394036
-0.0008893750000000004,0.030726179728035506
-0.000888125,0.03139758211731845
-0.0008868750000000005,0.03072617972803581
-0.0008856250000000001,0.03173328331195992
-0.0008843749999999997,0.03173328331195992
-0.0008831250000000002,0.03173328331195992
-0.0008818749999999998,0.0313975821173186
-0.0008806250000000003,0.03173328331195992
-0.000879375,0.03206898450660139
-0.0008781250000000004,0.03206898450660139
-0.000876875,0.03206898450660139
-0.0008756250000000005,0.03206898450660139
-0.0008743750000000002,0.03408319167445021
-0.0008731249999999998,0.03307608809052549
-0.0008718750000000003,0.03240468570124286
-0.0008706249999999999,0.033411789285166964
-0.0008693750000000004,0.03274038689588433
-0.000868125,0.03374749047980874
-0.0008668750000000005,0.03341178928516742
-0.0008656250000000001,0.03408319167445021
-0.0008643750000000006,0.03408319167445021
-0.0008631250000000002,0.03441889286909168
-0.0008618749999999998,0.03441889286909168
-0.0008606250000000003,0.03441889286909168
-0.0008593749999999999,0.03542599645301609
-0.0008581250000000004,0.03509029525837462
-0.000856875,0.03576169764765756
-0.0008556250000000005,0.035090295258374926
-0.0008543750000000001,0.03576169764765756
-0.0008531250000000006,0.03576169764765756
-0.0008518750000000002,0.03576169764765756
-0.0008506249999999998,0.036433100036940655
-0.0008493750000000003,0.03676880123158197
-0.0008481249999999999,0.03609739884229903
-0.0008468750000000004,0.03710450242622344
-0.000845625,0.037775904815506384
-0.0008443750000000005,0.03710450242622375
-0.0008431250000000001,0.03710450242622344
-0.0008418749999999997,0.038111606010147854
-0.0008406250000000002,0.038111606010147854
-0.0008393749999999998,0.038111606010147854
-0.0008381250000000003,0.038111606010147854
-0.0008368749999999999,0.038783008399430795
-0.0008356250000000004,0.039118709594072265
-0.000834375,0.038783008399430795
-0.0008331250000000005,0.03911870959407211
-0.0008318750000000001,0.038783008399430795
-0.0008306249999999998,0.03979011198335551
-0.0008293750000000003,0.04046151437263815
-0.0008281249999999999,0.039790111983355206
-0.0008268750000000004,0.039790111983355206
-0.000825625,0.039790111983355206
-0.0008243750000000005,0.04079721556727916
-0.0008231250000000001,0.04146861795656256
-0.0008218750000000006,0.04113291676192124
-0.0008206250000000002,0.04146861795656256
-0.0008193749999999998,0.04146861795656271
-0.0008181250000000003,0.04180431915120403
-0.0008168749999999999,0.0421400203458455
-0.0008156250000000004,0.0421400203458455
-0.000814375,0.04180431915120403
-0.0008131250000000005,0.04247572154048666
-0.0008118750000000001,0.04281142273512844
-0.0008106250000000006,0.04314712392976976
-0.0008093750000000002,0.04247572154048697
-0.0008081249999999998,0.0438185263190527
-0.0008068750000000003,0.04348282512441138
-0.0008056249999999999,0.04381852631905285
-0.0008043750000000004,0.04314712392976991
-0.000803125,0.04516133109761873
-0.0008018750000000005,0.044489928708336096
-0.0008006250000000001,0.04448992870833579
-0.0007993749999999997,0.04482562990297726
-0.0007981250000000002,0.04482562990297726
-0.0007968749999999998,0.0454970322922602
-0.0007956250000000003,0.0454970322922602
-0.0007943749999999999,0.04616843468154314
-0.0007931250000000004,0.04616843468154314
-0.000791875,0.04583273348690167
-0.0007906250000000005,0.046839837070825625
-0.0007893750000000001,0.047175538265467554
-0.0007881249999999998,0.04751123946010887
-0.0007868750000000002,0.047175538265467554
-0.0007856249999999999,0.04717553826546786
-0.0007843750000000003,0.047846940654750494
-0.000783125,0.048518343044033435
-0.0007818750000000005,0.04818264184939212
-0.0007806250000000001,0.049189745433316376
-0.0007793750000000006,0.04885404423867506
-0.0007781250000000002,0.049189745433316376
-0.0007768749999999998,0.04918974543331622
-0.0007756250000000003,0.048854044238674905
-0.0007743749999999999,0.049525446627957846
-0.0007731250000000004,0.049525446627957846
-0.000771875,0.05086825140652373
-0.0007706250000000005,0.051203952601165045
-0.0007693750000000001,0.0512039526011652
-0.0007681250000000006,0.0512039526011652
-0.0007668750000000002,0.05153965379580667
-0.0007656249999999998,0.0512039526011652
-0.0007643750000000003,0.0512039526011652
-0.0007631249999999999,0.05221105618508961
-0.0007618750000000004,0.05254675737973108
-0.000760625,0.05288245857437255
-0.0007593750000000005,0.05288245857437255
-0.0007581250000000001,0.05355386096365549
-0.0007568749999999997,0.052882458574372855
-0.0007556250000000002,0.05355386096365549
-0.0007543749999999998,0.05355386096365549
-0.0007531250000000003,0.05355386096365549
-0.0007518749999999999,0.05388956215829696
-0.0007506250000000004,0.05422526335293843
-0.000749375,0.05523236693686284
-0.0007481250000000005,0.05523236693686284
-0.0007468750000000001,0.05523236693686284
-0.0007456249999999998,0.05489666574222168
-0.0007443750000000002,0.05556806813150431
-0.0007431249999999999,0.05657517171542842
-0.0007418750000000003,0.05590376932614578
-0.000740625,0.05623947052078725
-0.0007393750000000004,0.05791797649399384
-0.0007381250000000001,0.056575171715428724
-0.0007368750000000006,0.05758227529935268
-0.0007356250000000002,0.056910872910070194
-0.0007343749999999998,0.05791797649399476
-0.0007331250000000003,0.058253677688636075
-0.0007318749999999999,0.057917976493994605
-0.0007306250000000004,0.058589378883277546
-0.000729375,0.058589378883277546
-0.0007281250000000005,0.05926078127256018
-0.0007268750000000001,0.058925080077919016
-0.0007256250000000006,0.058925080077919016
-0.0007243750000000002,0.0602678848564849
-0.0007231249999999998,0.060603586051126215
-0.0007218750000000003,0.0602678848564849
-0.0007206249999999999,0.0602678848564849
-0.0007193750000000004,0.05993218366184343
-0.000718125,0.06093928724576784
-0.0007168750000000005,0.061610689635050474
-0.0007156250000000001,0.06194639082969225
-0.0007143749999999997,0.06161068963505139
-0.0007131250000000002,0.06295349441361667
-0.0007118749999999998,0.06228209202433387
-0.0007106250000000003,0.0626177932189752
-0.0007093749999999999,0.0626177932189752
-0.0007081250000000004,0.06429629919218255
-0.000706875,0.06328919560825813
-0.0007056250000000005,0.06396059799754078
-0.0007043750000000001,0.06396059799754109
-0.0007031249999999998,0.06530340277610666
-0.0007018750000000002,0.06463200038682401
-0.0007006249999999999,0.06530340277610697
-0.0006993750000000003,0.06530340277610697
-0.000698125,0.06530340277610697
-0.0006968750000000004,0.06530340277610697
-0.0006956250000000001,0.0659748051653899
-0.0006943750000000005,0.06664620755467254
-0.0006931250000000002,0.06664620755467285
-0.0006918749999999998,0.06731760994395593
-0.0006906250000000003,0.06765331113859724
-0.0006893749999999999,0.06731760994395578
-0.0006881250000000004,0.06765331113859724
-0.000686875,0.06866041472252166
-0.0006856250000000005,0.06832471352788035
-0.0006843750000000001,0.06866041472252166
-0.0006831250000000006,0.06866041472252166
-0.0006818750000000002,0.06899611591716312
-0.0006806249999999998,0.06899611591716373
-0.0006793750000000003,0.070338920695729
-0.0006781249999999999,0.07067462189037049
-0.0006768750000000004,0.07000321950108754
-0.000675625,0.07101032308501196
-0.0006743750000000005,0.07067462189037065
-0.0006731250000000001,0.07134602427965342
-0.0006718749999999997,0.07134602427965388
-0.0006706250000000002,0.07235312786357784
-0.0006693749999999998,0.07134602427965372
-0.0006681250000000003,0.07201742666893637
-0.0006668749999999999,0.0726888290582193
-0.0006656250000000004,0.0726888290582193
-0.000664375,0.07369593264214372
-0.0006631250000000005,0.07336023144750241
-0.0006618750000000001,0.07336023144750226
-0.0006606249999999998,0.07436733503142649
-0.0006593750000000002,0.07403163383678518
-0.0006581249999999999,0.07403163383678549
-0.0006568750000000003,0.07470303622606814
-0.000655625,0.07470303622606814
-0.0006543750000000004,0.07537443861535106
-0.0006531250000000001,0.07638154219927548
-0.0006518750000000005,0.07604584100463417
-0.0006506250000000002,0.07671724339391695
-0.0006493749999999998,0.07671724339391695
-0.0006481250000000003,0.07671724339391695
-0.0006468749999999999,0.07638154219927548
-0.0006456250000000004,0.07705294458855841
-0.000644375,0.07839574936712429
-0.0006431250000000005,0.07772434697784167
-0.0006418750000000001,0.07772434697784136
-0.0006406250000000006,0.07873145056176532
-0.0006393750000000002,0.07873145056176578
-0.0006381249999999998,0.0790671517564074
-0.0006368750000000003,0.07940285295104871
-0.0006356249999999999,0.07973855414569017
-0.0006343750000000004,0.07940285295104871
-0.000633125,0.08040995653497313
-0.0006318750000000005,0.08141706011889709
-0.0006306250000000001,0.08108135892425605
-0.0006293749999999997,0.08175276131353901
-0.0006281250000000002,0.08175276131353901
-0.0006268749999999998,0.08208846250818047
-0.0006256250000000003,0.08208846250818047
-0.0006243749999999999,0.08208846250818047
-0.0006231250000000004,0.08275986489746343
-0.000621875,0.08376696848138782
-0.0006206250000000005,0.0834312672867465
-0.0006193750000000001,0.08443837087067077
-0.0006181249999999998,0.08443837087067108
-0.0006168750000000002,0.0851097732599537
-0.0006156249999999999,0.08410266967602992
-0.0006143750000000003,0.08544547445459519
-0.000613125,0.08477407206531223
-0.0006118750000000004,0.08645257803851958
-0.0006106250000000001,0.08611687684387812
-0.0006093750000000005,0.0857811756492368
-0.0006081250000000002,0.08645257803851958
-0.0006068749999999998,0.08611687684387857
-0.0006056250000000003,0.08712398042780253
-0.0006043749999999999,0.08813108401172695
-0.0006031250000000004,0.087459681622444
-0.000601875,0.08813108401172695
-0.0006006250000000005,0.08880248640100957
-0.0005993750000000001,0.08813108401172695
-0.0005981250000000006,0.08980958998493353
-0.0005968750000000002,0.08947388879029283
-0.0005956249999999998,0.08947388879029314
-0.0005943750000000003,0.09014529117957576
-0.0005931249999999999,0.09014529117957576
-0.0005918750000000004,0.09081669356885871
-0.000590625,0.09081669356885871
-0.0005893750000000005,0.09081669356885871
-0.0005881250000000001,0.09115239476350018
-0.0005868750000000006,0.09249519954206545
-0.0005856250000000002,0.09249519954206606
-0.0005843749999999998,0.09182379715278341
-0.0005831250000000003,0.09249519954206606
-0.0005818749999999999,0.09283090073670752
-0.0005806250000000004,0.09350230312599048
-0.000579375,0.09450940670991487
-0.0005781250000000005,0.0948451079045562
-0.0005768750000000001,0.0941737055152734
-0.0005756249999999997,0.09450940670991487
-0.0005743750000000002,0.09450940670991487
-0.0005731249999999998,0.09585221148848105
-0.0005718750000000003,0.0965236138777637
-0.000570625,0.09585221148848075
-0.0005693750000000004,0.09585221148848075
-0.000568125,0.09618791268312224
-0.0005668750000000005,0.09719501626704617
-0.0005656250000000002,0.09786641865632958
-0.0005643749999999998,0.09853782104561205
-0.0005631250000000003,0.09753071746168812
-0.0005618749999999999,0.09753071746168827
-0.0005606250000000004,0.09786641865632958
-0.000559375,0.09954492462953693
-0.0005581250000000005,0.09887352224025431
-0.0005568750000000001,0.09920922343489547
-0.0005556250000000006,0.09920922343489547
-0.0005543750000000002,0.09988062582417839
-0.0005531249999999998,0.099880625824179
-0.0005518750000000003,0.10122343060274427
-0.0005506249999999999,0.10055202821346135
-0.0005493750000000004,0.10088772940810281
-0.000548125,0.10189483299202723
-0.0005468750000000005,0.10189483299202723
-0.0005456250000000001,0.10189483299202723
-0.0005443750000000006,0.10256623538130985
-0.0005431250000000002,0.10290193657595165
-0.0005418749999999998,0.10256623538131077
-0.0005406250000000003,0.10390904015987604
-0.0005393749999999999,0.10323763777059311
-0.0005381250000000004,0.10357333896523457
-0.000536875,0.10458044254915899
-0.0005356250000000005,0.10458044254915899
-0.0005343750000000001,0.10491614374380046
