RawData/acq0003.csv

#Digilent WaveForms Oscilloscope Acquisition
#Device Name: Discovery2
#Serial Number: SN:210321B282B2
#Date Time: 2026-05-20 12:12:28.038
#Sample rate: 800000Hz
#Samples: 8192
#Trigger: Source: Channel 1 Type: Edge Condition: Rising Level: 250 mV Hyst.: Auto HoldOff: 0 s
#Channel 1: Range: 200 mV/div Offset: 0 V Sample Mode: Average

Time (s),Channel 1 (V)
-0.00111875,-0.0004940313736212371
-0.0011174999999999996,0.00017737101566170366
-0.0011162499999999992,0.0005130722103028687
-0.0011149999999999997,-0.0001583301789797667
-0.0011137499999999993,0.00017737101566170366
-0.0011124999999999998,-0.0001583301789797667
-0.0011112499999999994,0.000513072210303174
-0.0011099999999999999,0.0001773710156618563
-0.0011087499999999995,0.000513072210303174
-0.0011074999999999991,0.0008487734049443391
-0.0011062499999999996,0.00017737101566170366
-0.0011049999999999992,0.000513072210303174
-0.0011037499999999997,0.000513072210303174
-0.0011024999999999993,0.00017737101566170366
-0.0011012499999999998,0.00017737101566170366
-0.0010999999999999994,0.00017737101566170366
-0.00109875,0.00017737101566170366
-0.0010974999999999995,0.00017737101566170366
-0.0010962499999999991,0.00017737101566200897
-0.0010949999999999996,0.0008487734049446444
-0.0010937499999999992,0.0018558769888690554
-0.0010924999999999997,0.0018558769888690554
-0.0010912499999999993,0.0018558769888690554
-0.0010899999999999998,0.0031986817674343263
-0.0010887499999999994,0.002191578183510526
-0.0010875,0.0038700841567171143
-0.0010862499999999995,0.004205785351359348
-0.0010849999999999992,0.004541486546000971
-0.0010837499999999996,0.004877187740642289
-0.0010824999999999993,0.004877187740642289
-0.0010812499999999997,0.005548590129925229
-0.0010799999999999994,0.0058842913245667
-0.0010787499999999998,0.0062199925192080174
-0.0010774999999999995,0.007227096103132581
-0.00107625,0.00588429132456731
-0.0010749999999999996,0.007227096103132581
-0.0010737499999999992,0.00789849849241598
-0.0010724999999999997,0.008905602076339933
-0.0010712499999999993,0.008234199687056992
-0.0010699999999999998,0.009912705660264344
-0.0010687499999999994,0.009577004465622874
-0.0010674999999999999,0.011255510438829462
-0.0010662499999999995,0.011255510438830225
-0.001064999999999999,0.011926912828112556
-0.0010637499999999996,0.010584108049547285
-0.0010624999999999992,0.011926912828113471
-0.0010612499999999997,0.012598315217396107
-0.0010599999999999993,0.013605418801320518
-0.0010587499999999998,0.012934016412037577
-0.0010574999999999994,0.014612522385244929
-0.00105625,0.015619625969168882
-0.0010549999999999995,0.01561962596916934
-0.0010537499999999991,0.015283924774528022
-0.0010524999999999996,0.01561962596916934
-0.0010512499999999992,0.016962430747735527
-0.0010499999999999997,0.017633833137018162
-0.0010487499999999993,0.01696243074773522
-0.0010474999999999998,0.01864093672094181
-0.0010462499999999994,0.018640936720942573
-0.001045,0.018640936720942573
-0.0010437499999999995,0.019312339110225514
-0.0010424999999999992,0.01998374149950876
-0.0010412499999999996,0.020655143888791395
-0.0010399999999999993,0.021326546278074336
-0.0010387499999999997,0.020990845083432866
-0.0010374999999999994,0.021662247472715807
-0.0010362499999999998,0.022333649861998442
-0.0010349999999999995,0.022333649861998747
-0.00103375,0.023676454640564018
-0.0010324999999999996,0.02367645464056463
-0.0010312499999999992,0.024347857029847875
-0.0010299999999999997,0.02501925941913051
-0.0010287499999999993,0.02468355822448904
-0.0010274999999999998,0.02602636300305492
-0.0010262499999999994,0.026697765392337862
-0.0010249999999999999,0.027369167781620497
-0.0010237499999999995,0.026697765392337862
-0.001022499999999999,0.027704868976262273
-0.0010212499999999996,0.027704868976262273
-0.0010199999999999992,0.027704868976262884
-0.0010187499999999997,0.029047673754828154
-0.0010174999999999993,0.029047673754828154
-0.0010162499999999998,0.029383374949469625
-0.0010149999999999994,0.030726179728035506
-0.00101375,0.03039047853339419
-0.0010124999999999995,0.030054777338752565
-0.0010112499999999991,0.03173328331195992
-0.0010099999999999996,0.03173328331195992
-0.0010087499999999992,0.03240468570124286
-0.0010074999999999997,0.03240468570124286
-0.0010062499999999993,0.03240468570124286
-0.0010049999999999998,0.03341178928516727
-0.0010037499999999994,0.03374749047980874
-0.0010025,0.034418892869091375
-0.0010012499999999995,0.03408319167445021
-0.0009999999999999992,0.03475459406373376
-0.0009987499999999996,0.03609739884229903
-0.0009974999999999993,0.03576169764765756
-0.0009962499999999997,0.0364331000369405
-0.0009949999999999994,0.03710450242622344
-0.0009937499999999998,0.03710450242622344
-0.0009924999999999995,0.03744020362086491
-0.00099125,0.03744020362086491
-0.0009899999999999996,0.039454410788713735
-0.0009887499999999992,0.03844730720478948
-0.0009874999999999997,0.038783008399430795
-0.0009862499999999993,0.039454410788713735
-0.0009849999999999998,0.040125813177996676
-0.0009837499999999994,0.04046151437263815
-0.0009824999999999999,0.04113291676192078
-0.0009812499999999995,0.04180431915120403
-0.000979999999999999,0.04180431915120418
-0.0009787499999999996,0.0421400203458455
-0.0009774999999999992,0.04314712392976976
-0.0009762499999999997,0.04281142273512844
-0.0009749999999999993,0.04415422751369432
-0.0009737499999999998,0.04448992870833579
-0.0009724999999999994,0.04448992870833579
-0.0009712499999999999,0.045161331097618426
-0.0009699999999999995,0.04482562990297726
-0.0009687499999999991,0.04549703229226051
-0.0009674999999999996,0.04616843468154314
-0.0009662499999999992,0.04583273348690274
-0.0009649999999999997,0.048182641849391965
-0.0009637499999999993,0.048182641849391965
-0.0009624999999999998,0.047511239460109024
-0.0009612499999999994,0.048518343044033435
-0.0009599999999999999,0.04885404423867475
-0.0009587499999999995,0.048854044238674905
-0.0009574999999999992,0.04918974543331653
-0.0009562499999999996,0.049525446627957846
-0.0009549999999999993,0.05053255021188226
-0.0009537499999999997,0.05086825140652373
-0.0009524999999999994,0.05019684901724079
-0.0009512499999999998,0.05153965379580606
-0.0009499999999999995,0.05153965379580667
-0.0009487499999999999,0.051875354990447986
-0.0009474999999999996,0.05422526335293843
-0.0009462499999999992,0.05321815976901402
-0.0009449999999999997,0.05321815976901402
-0.0009437499999999993,0.05288245857437255
-0.0009424999999999998,0.05388956215829696
-0.0009412499999999994,0.05489666574222137
-0.0009399999999999999,0.05489666574222137
-0.0009387499999999995,0.05489666574222137
-0.0009375,0.055903769326145325
-0.0009362499999999996,0.05623947052078725
-0.0009349999999999992,0.05623947052078771
-0.0009337499999999997,0.057246574104711664
-0.0009324999999999993,0.056910872910070194
-0.0009312499999999998,0.058589378883277546
-0.0009299999999999994,0.058925080077919016
-0.0009287499999999999,0.05825367768863638
-0.0009274999999999995,0.058925080077919016
-0.0009262499999999991,0.05959648246720226
-0.0009249999999999996,0.0602678848564849
-0.0009237499999999992,0.0602678848564852
-0.0009224999999999997,0.06093928724576784
-0.0009212499999999993,0.06060358605112637
-0.0009199999999999998,0.06093928724576784
-0.0009187499999999994,0.06194639082969225
-0.0009174999999999999,0.06228209202433357
-0.0009162499999999995,0.0626177932189752
-0.0009149999999999991,0.06362489680289944
-0.0009137499999999996,0.06328919560825813
-0.0009124999999999992,0.06396059799754124
-0.0009112499999999997,0.06429629919218255
-0.0009099999999999994,0.06463200038682401
-0.0009087499999999998,0.06496770158146532
-0.0009074999999999995,0.0659748051653899
-0.0009062499999999999,0.0663105063600312
-0.0009049999999999996,0.06530340277610697
-0.0009037499999999992,0.06631050636003151
-0.0009024999999999997,0.06664620755467285
-0.0009012499999999993,0.06798901233323873
-0.0008999999999999998,0.06798901233323873
-0.0008987499999999994,0.06899611591716312
-0.0008974999999999999,0.06933181711180446
-0.0008962499999999995,0.06933181711180461
-0.000895,0.06966751830644592
-0.0008937499999999996,0.06966751830644607
-0.0008924999999999992,0.06966751830644653
-0.0008912499999999997,0.07067462189037049
-0.0008899999999999993,0.07101032308501196
-0.0008887499999999998,0.07101032308501196
-0.0008874999999999994,0.07201742666893637
-0.0008862499999999999,0.072688829058219
-0.0008849999999999995,0.0726888290582193
-0.0008837499999999991,0.07302453025286107
-0.0008824999999999996,0.07369593264214372
-0.0008812499999999992,0.07403163383678533
-0.0008799999999999997,0.07436733503142665
-0.0008787499999999993,0.07470303622606814
-0.0008774999999999998,0.07436733503142665
-0.0008762499999999994,0.07537443861535106
-0.0008749999999999999,0.07705294458855765
-0.0008737499999999995,0.07571013980999253
-0.0008724999999999991,0.07705294458855856
-0.0008712499999999996,0.0773886457831999
-0.0008699999999999992,0.0767172433939174
-0.0008687499999999997,0.07772434697784136
-0.0008674999999999993,0.07806004817248283
-0.0008662499999999998,0.07873145056176548
-0.0008649999999999994,0.07873145056176578
-0.0008637499999999999,0.0794028529510484
-0.0008624999999999996,0.07906715175640724
-0.0008612499999999992,0.08074565772961474
-0.0008599999999999997,0.08108135892425605
-0.0008587499999999993,0.08108135892425605
-0.0008574999999999998,0.08108135892425605
-0.0008562499999999994,0.08141706011889754
-0.0008549999999999999,0.08208846250818017
-0.0008537499999999995,0.08275986489746343
-0.0008525,0.08309556609210474
-0.0008512499999999996,0.08242416370282193
-0.0008499999999999992,0.08477407206531223
-0.0008487499999999997,0.08477407206531223
-0.0008474999999999993,0.0841026696760293
-0.0008462499999999998,0.08477407206531223
-0.0008449999999999994,0.0851097732599537
-0.0008437499999999999,0.08544547445459504
-0.0008424999999999995,0.08645257803851958
-0.0008412499999999991,0.08611687684387857
-0.0008399999999999996,0.08712398042780253
-0.0008387499999999992,0.08745968162244415
-0.0008374999999999997,0.08779538281708546
-0.0008362499999999993,0.08846678520636841
-0.0008349999999999998,0.08846678520636841
-0.0008337499999999994,0.08880248640100988
-0.0008324999999999999,0.08947388879029253
-0.0008312499999999995,0.09014529117957576
-0.0008299999999999991,0.09014529117957591
-0.0008287499999999996,0.09048099237421722
-0.0008274999999999992,0.09115239476350033
-0.0008262499999999997,0.09148809595814164
-0.0008249999999999993,0.09081669356885871
-0.0008237499999999998,0.09215949834742398
-0.0008224999999999994,0.09283090073670752
-0.0008212499999999999,0.09316660193134883
-0.0008199999999999995,0.09316660193134899
-0.0008187499999999992,0.0941737055152734
-0.0008174999999999997,0.0941737055152734
-0.0008162499999999993,0.09450940670991487
-0.0008149999999999998,0.09518080909919782
-0.0008137499999999994,0.09551651029383929
-0.0008124999999999999,0.09518080909919797
-0.0008112499999999995,0.09585221148848075
-0.00081,0.09618791268312209
-0.0008087499999999996,0.09753071746168812
-0.0008074999999999992,0.09753071746168812
-0.0008062499999999997,0.09753071746168812
-0.0008049999999999993,0.09820211985097105
-0.0008037499999999998,0.09786641865632958
-0.0008024999999999994,0.09853782104561251
-0.0008012499999999999,0.09954492462953647
-0.0007999999999999995,0.09920922343489547
-0.0007987499999999991,0.09988062582417885
-0.0007974999999999996,0.10088772940810281
-0.0007962499999999992,0.10088772940810281
-0.0007949999999999997,0.10088772940810281
-0.0007937499999999993,0.10122343060274427
-0.0007924999999999998,0.10256623538131016
-0.0007912499999999994,0.10323763777059311
-0.0007899999999999999,0.10256623538131046
-0.0007887499999999995,0.10323763777059311
-0.0007874999999999991,0.10357333896523457
-0.0007862499999999996,0.10357333896523457
-0.0007849999999999992,0.10424474135451753
-0.0007837499999999997,0.10424474135451753
-0.0007824999999999993,0.10525184493844192
-0.0007812499999999998,0.10592324732772457
-0.0007799999999999994,0.10491614374380046
-0.0007787499999999999,0.10693035091164838
-0.0007774999999999995,0.10592324732772487
-0.0007762499999999992,0.10726605210629091
-0.0007749999999999996,0.10760175330093222
-0.0007737499999999993,0.10793745449557368
-0.0007724999999999997,0.10726605210629075
-0.0007712499999999994,0.10827315569021517
-0.0007699999999999999,0.1092802592741391
-0.0007687499999999995,0.10961596046878105
-0.0007675,0.10961596046878105
-0.0007662499999999996,0.11028736285806398
-0.0007649999999999992,0.11062306405270544
-0.0007637499999999997,0.11062306405270544
-0.0007624999999999993,0.1112944664419884
-0.0007612499999999998,0.1112944664419884
-0.0007599999999999994,0.1112944664419884
-0.0007587499999999999,0.11263727122055367
-0.0007574999999999995,0.11230157002591282
-0.0007562499999999991,0.11330867360983721
-0.0007549999999999996,0.11330867360983721
-0.0007537499999999992,0.11364437480447885
-0.0007524999999999997,0.11398007599912016
-0.0007512499999999993,0.11498717958304458
-0.0007499999999999998,0.11599428316696897
-0.0007487499999999994,0.11532288077768604
-0.0007474999999999999,0.11565858197232735
-0.0007462499999999995,0.11599428316696897
-0.0007449999999999991,0.11666568555625223
-0.0007437499999999996,0.11733708794553485
-0.0007424999999999992,0.11700138675089385
-0.0007412499999999997,0.1180084903348178
-0.0007399999999999993,0.11767278914017634
-0.0007387499999999998,0.11901559391874161
-0.0007374999999999994,0.11935129511338369
-0.0007362499999999999,0.119686996308025
-0.0007349999999999995,0.1203583986973081
-0.0007337499999999992,0.11935129511338399
-0.0007324999999999996,0.12002269750266661
-0.0007312499999999993,0.12170120347587399
-0.0007299999999999997,0.12069409989194957
-0.0007287499999999994,0.1213655022812325
-0.0007274999999999998,0.12102980108659118
-0.0007262499999999995,0.12170120347587399
-0.000725,0.12270830705979792
-0.0007237499999999996,0.12237260586515691
-0.0007224999999999992,0.12304400825444033
-0.0007212499999999997,0.12405111183836426
-0.0007199999999999993,0.12438681303300575
-0.0007187499999999998,0.12438681303300575
-0.0007174999999999994,0.12505821542228868
-0.0007162499999999999,0.12438681303300606
-0.0007149999999999995,0.12539391661693017
-0.0007137499999999991,0.12539391661693064
-0.0007124999999999996,0.12640102020085456
-0.0007112499999999992,0.1264010202008544
-0.0007099999999999997,0.1260653190062131
-0.0007087499999999993,0.12740812378477898
-0.0007074999999999998,0.1270724225901375
-0.0007062499999999994,0.12774382497942044
-0.0007049999999999999,0.12774382497942044
-0.0007037499999999995,0.12875092856334486
-0.0007024999999999991,0.12908662975798615
-0.0007012499999999996,0.12875092856334486
-0.0006999999999999992,0.12908662975798724
-0.0006987499999999997,0.13110083692583516
-0.0006974999999999993,0.13143653812047662
-0.0006962499999999998,0.13177223931511794
-0.0006949999999999994,0.1307651357311937
-0.0006937499999999999,0.13143653812047632
-0.0006924999999999995,0.13210794050975955
-0.0006912499999999992,0.1327793428990425
-0.0006899999999999996,0.1327793428990425
-0.0006887499999999993,0.13244364170440104
-0.0006874999999999997,0.13378644648296692
-0.0006862499999999994,0.13445784887224985
-0.0006849999999999998,0.13445784887224985
-0.0006837499999999995,0.13378644648296692
-0.0006825,0.1351292512615322
-0.0006812499999999996,0.13546495245617426
-0.0006799999999999992,0.13512925126153297
-0.0006787499999999997,0.13546495245617426
-0.0006774999999999993,0.13613635484545722
-0.0006762499999999998,0.13680775723474015
-0.0006749999999999994,0.13680775723474015
-0.0006737499999999999,0.13680775723474015
-0.0006724999999999995,0.1371434584293816
-0.0006712499999999991,0.1384862632079475
-0.0006699999999999996,0.1384862632079475
-0.0006687499999999992,0.13848626320794796
-0.0006674999999999997,0.1394933667918719
-0.0006662499999999993,0.13882196440258898
-0.0006649999999999998,0.1394933667918719
-0.0006637499999999994,0.14050047037579633
-0.0006624999999999999,0.14050047037579633
-0.0006612499999999995,0.14117187276507925
-0.0006599999999999991,0.14117187276507942
-0.0006587499999999996,0.14150757395972074
-0.0006574999999999992,0.14117187276507986
-0.0006562499999999997,0.14251467754364514
-0.0006549999999999993,0.1428503787382866
-0.0006537499999999998,0.14251467754364514
-0.0006524999999999994,0.1431860799329281
-0.0006512499999999999,0.14285037873828677
-0.0006499999999999995,0.1431860799329281
-0.0006487499999999992,0.14385748232221163
-0.0006474999999999996,0.1452002871007769
-0.0006462499999999993,0.14553598829541836
-0.0006449999999999997,0.14587168949005985
-0.0006437499999999994,0.1441931835168525
-0.0006424999999999998,0.14687879307398305
-0.0006412499999999995,0.14620739068470132
-0.0006399999999999999,0.14687879307398397
-0.0006387499999999996,0.14721449426862573
-0.0006374999999999992,0.14654309187934325
-0.0006362499999999997,0.1475501954632672
-0.0006349999999999993,0.14822159785255012
-0.0006337499999999998,0.14822159785255012
-0.0006324999999999994,0.14855729904719162
-0.0006312499999999999,0.14889300024183294
-0.0006299999999999995,0.14922870143647454
-0.0006287499999999991,0.1502358050203988
-0.0006274999999999996,0.1499001038257575
-0.0006262499999999992,0.15023580502039927
-0.0006249999999999997,0.1509072074096819
-0.0006237499999999993,0.15124290860432338
-0.0006224999999999998,0.15124290860432338
-0.0006212499999999994,0.15124290860432338
-0.0006199999999999999,0.15225001218824735
-0.0006187499999999995,0.1522500121882478
-0.0006174999999999991,0.1532571157721722
-0.0006162499999999996,0.1532571157721722
-0.0006149999999999992,0.1529214145775309
-0.0006137499999999997,0.1532571157721722
-0.0006124999999999993,0.1542642193560966
-0.0006112499999999998,0.1542642193560966
-0.0006099999999999994,0.15493562174537956
-0.0006087499999999999,0.15493562174537956
-0.0006074999999999995,0.15459992055073807
-0.0006062499999999992,0.15560702413466296
-0.0006049999999999996,0.1566141277185869
-0.0006037499999999993,0.15762123130251132
-0.0006024999999999997,0.15527132294002102
-0.0006012499999999994,0.15728553010786983
-0.0005999999999999998,0.1566141277185872
-0.0005987499999999995,0.15829263369179425
-0.0005974999999999999,0.15829263369179425
-0.0005962499999999996,0.15896403608107718
-0.0005949999999999992,0.1586283348864357
-0.0005937499999999997,0.1586283348864357
-0.0005924999999999993,0.15963543847036013
-0.0005912499999999998,0.15963543847036013
-0.0005899999999999994,0.16030684085964308
-0.0005887499999999999,0.15997113966500176
-0.0005874999999999995,0.16030684085964308
-0.00058625,0.1609782432489257
-0.0005849999999999996,0.16064254205428455
-0.0005837499999999992,0.16097824324892648
-0.0005824999999999997,0.16198534683285043
-0.0005812499999999993,0.1623210480274919
-0.0005799999999999998,0.16299245041677485
-0.0005787499999999994,0.16198534683285043
-0.0005774999999999999,0.1629924504167744
-0.0005762499999999995,0.1633281516114163
-0.0005749999999999991,0.16265674922213383
-0.0005737499999999996,0.16366385280605777
-0.0005724999999999992,0.1646709563899819
-0.0005712499999999997,0.16399955400069924
-0.0005699999999999993,0.16500665758462366
-0.0005687499999999998,0.16500665758462366
-0.0005674999999999994,0.16601376116854807
-0.0005662499999999999,0.16601376116854807
-0.0005649999999999995,0.16634946236318954
-0.0005637499999999991,0.16534235877926512
-0.0005624999999999996,0.16534235877926512
-0.0005612499999999992,0.16735656594711396
-0.0005599999999999997,0.16735656594711396
-0.0005587499999999994,0.166685163557831
-0.0005574999999999998,0.16802796833639627
-0.0005562499999999995,0.16769226714175542
-0.0005549999999999999,0.16836366953103807
-0.0005537499999999996,0.16869937072567984
-0.0005524999999999992,0.1690350719203216
-0.0005512499999999997,0.16970647430960423
-0.0005499999999999993,0.17037787669888718
-0.0005487499999999998,0.16970647430960423
-0.0005474999999999994,0.16970647430960423
-0.0005462499999999999,0.17004217550424555
-0.0005449999999999995,0.17071357789352865
